%YAML 1.1
%TAG !u! tag:unity3d.com,2011:
--- !u!114 &11400000
MonoBehaviour:
  m_ObjectHideFlags: 0
  m_CorrespondingSourceObject: {fileID: 0}
  m_PrefabInstance: {fileID: 0}
  m_PrefabAsset: {fileID: 0}
  m_GameObject: {fileID: 0}
  m_Enabled: 1
  m_EditorHideFlags: 0
  m_Script: {fileID: 11500000, guid: 2e351b396bf8069418c3bd4f74af49df, type: 3}
  m_Name: Stamina Buff
  m_EditorClassIdentifier: 
  buffName: 
  index: 1
  sprite: {fileID: 0}
  buffTotalDuration: 300
  maxStacks: 1
