%YAML 1.1
%TAG !u! tag:unity3d.com,2011:
--- !u!114 &11400000
MonoBehaviour:
  m_ObjectHideFlags: 0
  m_CorrespondingSourceObject: {fileID: 0}
  m_PrefabInstance: {fileID: 0}
  m_PrefabAsset: {fileID: 0}
  m_GameObject: {fileID: 0}
  m_Enabled: 1
  m_EditorHideFlags: 0
  m_Script: {fileID: 11500000, guid: d1f3f9c1b10b40148afd2aea8a1bafff, type: 3}
  m_Name: Lancia
  m_EditorClassIdentifier: 
  itemName: 
  itemCode: 0
  itemType: 3
  maxQuantity: 0
  description: 
  sprite: {fileID: 0}
  weaponIndex: 2
