%YAML 1.1
%TAG !u! tag:unity3d.com,2011:
--- !u!74 &7400000
AnimationClip:
  m_ObjectHideFlags: 0
  m_PrefabParentObject: {fileID: 0}
  m_PrefabInternal: {fileID: 0}
  m_Name: sword jump atk land
  serializedVersion: 6
  m_Legacy: 0
  m_Compressed: 0
  m_UseHighQualityCurve: 1
  m_RotationCurves: []
  m_CompressedRotationCurves: []
  m_EulerCurves:
  - curve:
      serializedVersion: 2
      m_Curve:
      - serializedVersion: 2
        time: 0
        value: {x: 0, y: 0, z: -19.4}
        inSlope: {x: 0, y: 0, z: -1242}
        outSlope: {x: 0, y: 0, z: -1242}
        tangentMode: 0
      - serializedVersion: 2
        time: 0.033333335
        value: {x: 0, y: 0, z: -60.8}
        inSlope: {x: 0, y: 0, z: -788.5}
        outSlope: {x: 0, y: 0, z: -788.5}
        tangentMode: 0
      - serializedVersion: 2
        time: 0.13333334
        value: {x: 0, y: 0, z: -94.3}
        inSlope: {x: 0, y: 0, z: -167.5}
        outSlope: {x: 0, y: 0, z: -167.5}
        tangentMode: 0
      - serializedVersion: 2
        time: 0.36666667
        value: {x: 0, y: 0, z: -94.3}
        inSlope: {x: 0, y: 0, z: 125.62502}
        outSlope: {x: 0, y: 0, z: 125.62502}
        tangentMode: 0
      - serializedVersion: 2
        time: 0.5
        value: {x: 0, y: 0, z: -60.8}
        inSlope: {x: 0, y: 0, z: 203.62503}
        outSlope: {x: 0, y: 0, z: 203.62503}
        tangentMode: 0
      - serializedVersion: 2
        time: 0.76666665
        value: {x: 0, y: 0, z: -19.2}
        inSlope: {x: 0, y: 0, z: 78}
        outSlope: {x: 0, y: 0, z: 78}
        tangentMode: 0
      - serializedVersion: 2
        time: 0.96666664
        value: {x: 0, y: 0, z: -19.2}
        inSlope: {x: 0, y: 0, z: 0}
        outSlope: {x: 0, y: 0, z: 0}
        tangentMode: 0
      m_PreInfinity: 2
      m_PostInfinity: 2
      m_RotationOrder: 4
    path: SpineBone
  - curve:
      serializedVersion: 2
      m_Curve:
      - serializedVersion: 2
        time: 0
        value: {x: 0, y: 0, z: 11.7}
        inSlope: {x: 0, y: 0, z: -2741.9998}
        outSlope: {x: 0, y: 0, z: -2741.9998}
        tangentMode: 0
      - serializedVersion: 2
        time: 0.033333335
        value: {x: 0, y: 0, z: -79.7}
        inSlope: {x: 0, y: 0, z: -1550.4999}
        outSlope: {x: 0, y: 0, z: -1550.4999}
        tangentMode: 0
      - serializedVersion: 2
        time: 0.13333334
        value: {x: 0, y: 0, z: -115.6}
        inSlope: {x: 0, y: 0, z: -179.49998}
        outSlope: {x: 0, y: 0, z: -179.49998}
        tangentMode: 0
      - serializedVersion: 2
        time: 0.36666667
        value: {x: 0, y: 0, z: -115.6}
        inSlope: {x: 0, y: 0, z: 134.62502}
        outSlope: {x: 0, y: 0, z: 134.62502}
        tangentMode: 0
      - serializedVersion: 2
        time: 0.5
        value: {x: 0, y: 0, z: -79.7}
        inSlope: {x: 0, y: 0, z: -42.937485}
        outSlope: {x: 0, y: 0, z: -42.937485}
        tangentMode: 0
      - serializedVersion: 2
        time: 0.76666665
        value: {x: 0, y: 0, z: -174.4}
        inSlope: {x: 0, y: 0, z: -177.5625}
        outSlope: {x: 0, y: 0, z: -177.5625}
        tangentMode: 0
      - serializedVersion: 2
        time: 0.96666664
        value: {x: 0, y: 0, z: -174.4}
        inSlope: {x: 0, y: 0, z: 0}
        outSlope: {x: 0, y: 0, z: 0}
        tangentMode: 0
      m_PreInfinity: 2
      m_PostInfinity: 2
      m_RotationOrder: 4
    path: SpineBone/ArmBone_L
  - curve:
      serializedVersion: 2
      m_Curve:
      - serializedVersion: 2
        time: 0
        value: {x: 0, y: 0, z: 20.2}
        inSlope: {x: 0, y: 0, z: -2960.9998}
        outSlope: {x: 0, y: 0, z: -2960.9998}
        tangentMode: 0
      - serializedVersion: 2
        time: 0.033333335
        value: {x: 0, y: 0, z: -78.5}
        inSlope: {x: 0, y: 0, z: -1582.9999}
        outSlope: {x: 0, y: 0, z: -1582.9999}
        tangentMode: 0
      - serializedVersion: 2
        time: 0.13333334
        value: {x: 0, y: 0, z: -99}
        inSlope: {x: 0, y: 0, z: -102.49999}
        outSlope: {x: 0, y: 0, z: -102.49999}
        tangentMode: 0
      - serializedVersion: 2
        time: 0.36666667
        value: {x: 0, y: 0, z: -99}
        inSlope: {x: 0, y: 0, z: 76.87501}
        outSlope: {x: 0, y: 0, z: 76.87501}
        tangentMode: 0
      - serializedVersion: 2
        time: 0.5
        value: {x: 0, y: 0, z: -78.5}
        inSlope: {x: 0, y: 0, z: -55.312508}
        outSlope: {x: 0, y: 0, z: -55.312508}
        tangentMode: 0
      - serializedVersion: 2
        time: 0.76666665
        value: {x: 0, y: 0, z: -149}
        inSlope: {x: 0, y: 0, z: -132.18752}
        outSlope: {x: 0, y: 0, z: -132.18752}
        tangentMode: 0
      - serializedVersion: 2
        time: 0.96666664
        value: {x: 0, y: 0, z: -149}
        inSlope: {x: 0, y: 0, z: 0}
        outSlope: {x: 0, y: 0, z: 0}
        tangentMode: 0
      m_PreInfinity: 2
      m_PostInfinity: 2
      m_RotationOrder: 4
    path: SpineBone/ArmBone_R
  - curve:
      serializedVersion: 2
      m_Curve:
      - serializedVersion: 2
        time: 0
        value: {x: 0, y: 0, z: 172.8}
        inSlope: {x: 0, y: 0, z: 894.00006}
        outSlope: {x: 0, y: 0, z: 894.00006}
        tangentMode: 0
      - serializedVersion: 2
        time: 0.033333335
        value: {x: 0, y: 0, z: 202.6}
        inSlope: {x: 0, y: 0, z: 623.9998}
        outSlope: {x: 0, y: 0, z: 623.9998}
        tangentMode: 0
      - serializedVersion: 2
        time: 0.06666667
        value: {x: 0, y: 0, z: 214.4}
        inSlope: {x: 0, y: 0, z: 158.64828}
        outSlope: {x: 0, y: 0, z: 158.64828}
        tangentMode: 0
      - serializedVersion: 2
        time: 0.13333334
        value: {x: 0, y: 0, z: 211.95312}
        inSlope: {x: 0, y: 0, z: -136.24203}
        outSlope: {x: 0, y: 0, z: -136.24203}
        tangentMode: 0
      - serializedVersion: 2
        time: 0.2
        value: {x: 0, y: 0, z: 196.23439}
        inSlope: {x: 0, y: 0, z: -215.03906}
        outSlope: {x: 0, y: 0, z: -215.03906}
        tangentMode: 0
      - serializedVersion: 2
        time: 0.26666668
        value: {x: 0, y: 0, z: 183.28125}
        inSlope: {x: 0, y: 0, z: -29.05481}
        outSlope: {x: 0, y: 0, z: -29.05481}
        tangentMode: 0
      - serializedVersion: 2
        time: 0.36666667
        value: {x: 0, y: 0, z: 196.9}
        inSlope: {x: 0, y: 0, z: 89.46877}
        outSlope: {x: 0, y: 0, z: 89.46877}
        tangentMode: 0
      - serializedVersion: 2
        time: 0.5
        value: {x: 0, y: 0, z: 202.6}
        inSlope: {x: 0, y: 0, z: 3.93754}
        outSlope: {x: 0, y: 0, z: 3.93754}
        tangentMode: 0
      - serializedVersion: 2
        time: 0.76666665
        value: {x: 0, y: 0, z: 193.3}
        inSlope: {x: 0, y: 0, z: -17.437508}
        outSlope: {x: 0, y: 0, z: -17.437508}
        tangentMode: 0
      - serializedVersion: 2
        time: 0.96666664
        value: {x: 0, y: 0, z: 193.3}
        inSlope: {x: 0, y: 0, z: 0}
        outSlope: {x: 0, y: 0, z: 0}
        tangentMode: 0
      m_PreInfinity: 2
      m_PostInfinity: 2
      m_RotationOrder: 4
    path: SpineBone/LegBone_L
  - curve:
      serializedVersion: 2
      m_Curve:
      - serializedVersion: 2
        time: 0
        value: {x: 0, y: 0, z: -111.8}
        inSlope: {x: 0, y: 0, z: 1833}
        outSlope: {x: 0, y: 0, z: 1833}
        tangentMode: 0
      - serializedVersion: 2
        time: 0.033333335
        value: {x: 0, y: 0, z: -50.7}
        inSlope: {x: 0, y: 0, z: 665}
        outSlope: {x: 0, y: 0, z: 665}
        tangentMode: 0
      - serializedVersion: 2
        time: 0.13333334
        value: {x: 0, y: 0, z: -101}
        inSlope: {x: 0, y: 0, z: -309.30807}
        outSlope: {x: 0, y: 0, z: -309.30807}
        tangentMode: 0
      - serializedVersion: 2
        time: 0.2
        value: {x: 0, y: 0, z: -108.70775}
        inSlope: {x: 0, y: 0, z: -34.68487}
        outSlope: {x: 0, y: 0, z: -34.68487}
        tangentMode: 0
      - serializedVersion: 2
        time: 0.36666667
        value: {x: 0, y: 0, z: -101}
        inSlope: {x: 0, y: 0, z: 211.74826}
        outSlope: {x: 0, y: 0, z: 211.74826}
        tangentMode: 0
      - serializedVersion: 2
        time: 0.5
        value: {x: 0, y: 0, z: -50.7}
        inSlope: {x: 0, y: 0, z: 42.937515}
        outSlope: {x: 0, y: 0, z: 42.937515}
        tangentMode: 0
      - serializedVersion: 2
        time: 0.76666665
        value: {x: 0, y: 0, z: -128.4}
        inSlope: {x: 0, y: 0, z: -145.6875}
        outSlope: {x: 0, y: 0, z: -145.6875}
        tangentMode: 0
      - serializedVersion: 2
        time: 0.96666664
        value: {x: 0, y: 0, z: -128.4}
        inSlope: {x: 0, y: 0, z: 0}
        outSlope: {x: 0, y: 0, z: 0}
        tangentMode: 0
      m_PreInfinity: 2
      m_PostInfinity: 2
      m_RotationOrder: 4
    path: SpineBone/LegBone_R
  - curve:
      serializedVersion: 2
      m_Curve:
      - serializedVersion: 2
        time: 0
        value: {x: 0, y: 0, z: 96.49}
        inSlope: {x: 0, y: 0, z: -2444.6997}
        outSlope: {x: 0, y: 0, z: -2444.6997}
        tangentMode: 0
      - serializedVersion: 2
        time: 0.033333335
        value: {x: 0, y: 0, z: 15}
        inSlope: {x: 0, y: 0, z: -1151.8499}
        outSlope: {x: 0, y: 0, z: -1151.8499}
        tangentMode: 0
      - serializedVersion: 2
        time: 0.13333334
        value: {x: 0, y: 0, z: 29.1}
        inSlope: {x: 0, y: 0, z: 70.49999}
        outSlope: {x: 0, y: 0, z: 70.49999}
        tangentMode: 0
      - serializedVersion: 2
        time: 0.36666667
        value: {x: 0, y: 0, z: 29.1}
        inSlope: {x: 0, y: 0, z: -52.875004}
        outSlope: {x: 0, y: 0, z: -52.875004}
        tangentMode: 0
      - serializedVersion: 2
        time: 0.5
        value: {x: 0, y: 0, z: 15}
        inSlope: {x: 0, y: 0, z: -15.5625}
        outSlope: {x: 0, y: 0, z: -15.5625}
        tangentMode: 0
      - serializedVersion: 2
        time: 0.76666665
        value: {x: 0, y: 0, z: 34.9}
        inSlope: {x: 0, y: 0, z: 37.312504}
        outSlope: {x: 0, y: 0, z: 37.312504}
        tangentMode: 0
      - serializedVersion: 2
        time: 0.96666664
        value: {x: 0, y: 0, z: 34.9}
        inSlope: {x: 0, y: 0, z: 0}
        outSlope: {x: 0, y: 0, z: 0}
        tangentMode: 0
      m_PreInfinity: 2
      m_PostInfinity: 2
      m_RotationOrder: 4
    path: SpineBone/ArmBone_L/LowerArmBone_L
  - curve:
      serializedVersion: 2
      m_Curve:
      - serializedVersion: 2
        time: 0
        value: {x: 0, y: 0, z: 90.3}
        inSlope: {x: 0, y: 0, z: -2031}
        outSlope: {x: 0, y: 0, z: -2031}
        tangentMode: 0
      - serializedVersion: 2
        time: 0.033333335
        value: {x: 0, y: 0, z: 22.6}
        inSlope: {x: 0, y: 0, z: -1059}
        outSlope: {x: 0, y: 0, z: -1059}
        tangentMode: 0
      - serializedVersion: 2
        time: 0.13333334
        value: {x: 0, y: 0, z: 13.9}
        inSlope: {x: 0, y: 0, z: -43.5}
        outSlope: {x: 0, y: 0, z: -43.5}
        tangentMode: 0
      - serializedVersion: 2
        time: 0.36666667
        value: {x: 0, y: 0, z: 13.9}
        inSlope: {x: 0, y: 0, z: 32.625004}
        outSlope: {x: 0, y: 0, z: 32.625004}
        tangentMode: 0
      - serializedVersion: 2
        time: 0.5
        value: {x: 0, y: 0, z: 22.6}
        inSlope: {x: 0, y: 0, z: 30.562504}
        outSlope: {x: 0, y: 0, z: 30.562504}
        tangentMode: 0
      - serializedVersion: 2
        time: 0.76666665
        value: {x: 0, y: 0, z: 21.5}
        inSlope: {x: 0, y: 0, z: -2.062501}
        outSlope: {x: 0, y: 0, z: -2.062501}
        tangentMode: 0
      - serializedVersion: 2
        time: 0.96666664
        value: {x: 0, y: 0, z: 21.5}
        inSlope: {x: 0, y: 0, z: 0}
        outSlope: {x: 0, y: 0, z: 0}
        tangentMode: 0
      m_PreInfinity: 2
      m_PostInfinity: 2
      m_RotationOrder: 4
    path: SpineBone/ArmBone_R/LowerArmBone_R
  - curve:
      serializedVersion: 2
      m_Curve:
      - serializedVersion: 2
        time: 0
        value: {x: 0, y: 0, z: -28.1}
        inSlope: {x: 0, y: 0, z: 86.999985}
        outSlope: {x: 0, y: 0, z: 86.999985}
        tangentMode: 0
      - serializedVersion: 2
        time: 0.033333335
        value: {x: 0, y: 0, z: -25.2}
        inSlope: {x: 0, y: 0, z: 93.00001}
        outSlope: {x: 0, y: 0, z: 93.00001}
        tangentMode: 0
      - serializedVersion: 2
        time: 0.06666667
        value: {x: 0, y: 0, z: -21.9}
        inSlope: {x: 0, y: 0, z: 179.25}
        outSlope: {x: 0, y: 0, z: 179.25}
        tangentMode: 0
      - serializedVersion: 2
        time: 0.13333334
        value: {x: 0, y: 0, z: -4.6}
        inSlope: {x: 0, y: 0, z: -110.250015}
        outSlope: {x: 0, y: 0, z: -110.250015}
        tangentMode: 0
      - serializedVersion: 2
        time: 0.2
        value: {x: 0, y: 0, z: -36.6}
        inSlope: {x: 0, y: 0, z: -420.7488}
        outSlope: {x: 0, y: 0, z: -420.7488}
        tangentMode: 0
      - serializedVersion: 2
        time: 0.26666668
        value: {x: 0, y: 0, z: -60.699844}
        inSlope: {x: 0, y: 0, z: -355.49768}
        outSlope: {x: 0, y: 0, z: -355.49768}
        tangentMode: 0
      - serializedVersion: 2
        time: 0.33333334
        value: {x: 0, y: 0, z: -83.999695}
        inSlope: {x: 0, y: 0, z: -131.25}
        outSlope: {x: 0, y: 0, z: -131.25}
        tangentMode: 0
      - serializedVersion: 2
        time: 0.36666667
        value: {x: 0, y: 0, z: -81.09977}
        inSlope: {x: 0, y: 0, z: 21.40156}
        outSlope: {x: 0, y: 0, z: 21.40156}
        tangentMode: 0
      - serializedVersion: 2
        time: 0.46666667
        value: {x: 0, y: 0, z: -85.51923}
        inSlope: {x: 0, y: 0, z: 882.6912}
        outSlope: {x: 0, y: 0, z: 882.6912}
        tangentMode: 0
      - serializedVersion: 2
        time: 0.5
        value: {x: 0, y: 0, z: -25.2}
        inSlope: {x: 0, y: 0, z: 693.2846}
        outSlope: {x: 0, y: 0, z: 693.2846}
        tangentMode: 0
      - serializedVersion: 2
        time: 0.53333336
        value: {x: 0, y: 0, z: -39.300278}
        inSlope: {x: 0, y: 0, z: -314.75098}
        outSlope: {x: 0, y: 0, z: -314.75098}
        tangentMode: 0
      - serializedVersion: 2
        time: 0.6
        value: {x: 0, y: 0, z: -53.066544}
        inSlope: {x: 0, y: 0, z: -1.6473465}
        outSlope: {x: 0, y: 0, z: -1.6473465}
        tangentMode: 0
      - serializedVersion: 2
        time: 0.76666665
        value: {x: 0, y: 0, z: -19.2}
        inSlope: {x: 0, y: 0, z: 101.599655}
        outSlope: {x: 0, y: 0, z: 101.599655}
        tangentMode: 0
      - serializedVersion: 2
        time: 0.96666664
        value: {x: 0, y: 0, z: -19.2}
        inSlope: {x: 0, y: 0, z: 0}
        outSlope: {x: 0, y: 0, z: 0}
        tangentMode: 0
      m_PreInfinity: 2
      m_PostInfinity: 2
      m_RotationOrder: 4
    path: SpineBone/LegBone_L/LowerLegBone_L
  - curve:
      serializedVersion: 2
      m_Curve:
      - serializedVersion: 2
        time: 0
        value: {x: 0, y: 0, z: -71.8}
        inSlope: {x: 0, y: 0, z: -110.9999}
        outSlope: {x: 0, y: 0, z: -110.9999}
        tangentMode: 0
      - serializedVersion: 2
        time: 0.033333335
        value: {x: 0, y: 0, z: -75.5}
        inSlope: {x: 0, y: 0, z: 210.00002}
        outSlope: {x: 0, y: 0, z: 210.00002}
        tangentMode: 0
      - serializedVersion: 2
        time: 0.13333334
        value: {x: 0, y: 0, z: -22.4}
        inSlope: {x: 0, y: 0, z: 265.49997}
        outSlope: {x: 0, y: 0, z: 265.49997}
        tangentMode: 0
      - serializedVersion: 2
        time: 0.36666667
        value: {x: 0, y: 0, z: -22.4}
        inSlope: {x: 0, y: 0, z: -199.125}
        outSlope: {x: 0, y: 0, z: -199.125}
        tangentMode: 0
      - serializedVersion: 2
        time: 0.5
        value: {x: 0, y: 0, z: -75.5}
        inSlope: {x: 0, y: 0, z: -169.875}
        outSlope: {x: 0, y: 0, z: -169.875}
        tangentMode: 0
      - serializedVersion: 2
        time: 0.76666665
        value: {x: 0, y: 0, z: -59.9}
        inSlope: {x: 0, y: 0, z: 29.249998}
        outSlope: {x: 0, y: 0, z: 29.249998}
        tangentMode: 0
      - serializedVersion: 2
        time: 0.96666664
        value: {x: 0, y: 0, z: -59.9}
        inSlope: {x: 0, y: 0, z: 0}
        outSlope: {x: 0, y: 0, z: 0}
        tangentMode: 0
      m_PreInfinity: 2
      m_PostInfinity: 2
      m_RotationOrder: 4
    path: SpineBone/LegBone_R/LowerLegBone_R
  - curve:
      serializedVersion: 2
      m_Curve:
      - serializedVersion: 2
        time: 0
        value: {x: 0, y: 0, z: 72.4}
        inSlope: {x: 0, y: 0, z: -2090.4}
        outSlope: {x: 0, y: 0, z: -2090.4}
        tangentMode: 0
      - serializedVersion: 2
        time: 0.033333335
        value: {x: 0, y: 0, z: 2.72}
        inSlope: {x: 0, y: 0, z: -550.5}
        outSlope: {x: 0, y: 0, z: -550.5}
        tangentMode: 0
      - serializedVersion: 2
        time: 0.06666667
        value: {x: 0, y: 0, z: 35.7}
        inSlope: {x: 0, y: 0, z: 845.69995}
        outSlope: {x: 0, y: 0, z: 845.69995}
        tangentMode: 0
      - serializedVersion: 2
        time: 0.13333334
        value: {x: 0, y: 0, z: 82.5}
        inSlope: {x: 0, y: 0, z: 455.25}
        outSlope: {x: 0, y: 0, z: 455.25}
        tangentMode: 0
      - serializedVersion: 2
        time: 0.2
        value: {x: 0, y: 0, z: 96.4}
        inSlope: {x: 0, y: 0, z: 101.775}
        outSlope: {x: 0, y: 0, z: 101.775}
        tangentMode: 0
      - serializedVersion: 2
        time: 0.26666668
        value: {x: 0, y: 0, z: 96.07}
        inSlope: {x: 0, y: 0, z: -72.82502}
        outSlope: {x: 0, y: 0, z: -72.82502}
        tangentMode: 0
      - serializedVersion: 2
        time: 0.36666667
        value: {x: 0, y: 0, z: 82}
        inSlope: {x: 0, y: 0, z: -298.35004}
        outSlope: {x: 0, y: 0, z: -298.35004}
        tangentMode: 0
      - serializedVersion: 2
        time: 0.5
        value: {x: 0, y: 0, z: 21.2}
        inSlope: {x: 0, y: 0, z: -156.91876}
        outSlope: {x: 0, y: 0, z: -156.91876}
        tangentMode: 0
      - serializedVersion: 2
        time: 0.76666665
        value: {x: 0, y: 0, z: 59.11}
        inSlope: {x: 0, y: 0, z: 142.1625}
        outSlope: {x: 0, y: 0, z: 142.1625}
        tangentMode: 0
      m_PreInfinity: 2
      m_PostInfinity: 2
      m_RotationOrder: 4
    path: SpineBone/ArmBone_R/LowerArmBone_R/WeaponBone
  m_PositionCurves:
  - curve:
      serializedVersion: 2
      m_Curve:
      - serializedVersion: 2
        time: 0.033333335
        value: {x: 0, y: -0.33, z: 0}
        inSlope: {x: 9.099999, y: 5.972473, z: 0}
        outSlope: {x: 9.099999, y: 5.972473, z: 0}
        tangentMode: 0
      - serializedVersion: 2
        time: 0.1
        value: {x: 0.67407393, y: 0.06816484, z: 0}
        inSlope: {x: 9.100001, y: 2.113764, z: 0}
        outSlope: {x: 9.100001, y: 2.113764, z: 0}
        tangentMode: 0
      - serializedVersion: 2
        time: 0.13333334
        value: {x: 0.91, y: 0.01, z: 0}
        inSlope: {x: 4.5499997, y: -0.87247247, z: 0}
        outSlope: {x: 4.5499997, y: -0.87247247, z: 0}
        tangentMode: 0
      - serializedVersion: 2
        time: 0.36666667
        value: {x: 0.91, y: 0.01, z: 0}
        inSlope: {x: -3.4125004, y: -0.015511956, z: 0}
        outSlope: {x: -3.4125004, y: -0.015511956, z: 0}
        tangentMode: 0
      - serializedVersion: 2
        time: 0.43333334
        value: {x: 0.455, y: 0.007931739, z: 0}
        inSlope: {x: -8.531251, y: -2.5500002, z: 0}
        outSlope: {x: -8.531251, y: -2.5500002, z: 0}
        tangentMode: 0
      - serializedVersion: 2
        time: 0.5
        value: {x: 0, y: -0.33, z: 0}
        inSlope: {x: -3.4125004, y: -2.046988, z: 0}
        outSlope: {x: -3.4125004, y: -2.046988, z: 0}
        tangentMode: 0
      - serializedVersion: 2
        time: 0.76666665
        value: {x: 0, y: -0.07, z: 0}
        inSlope: {x: 0, y: 0.48750007, z: 0}
        outSlope: {x: 0, y: 0.48750007, z: 0}
        tangentMode: 0
      - serializedVersion: 2
        time: 0.96666664
        value: {x: 0, y: -0.07, z: 0}
        inSlope: {x: 0, y: 0, z: 0}
        outSlope: {x: 0, y: 0, z: 0}
        tangentMode: 0
      m_PreInfinity: 2
      m_PostInfinity: 2
      m_RotationOrder: 4
    path: 
  - curve:
      serializedVersion: 2
      m_Curve:
      - serializedVersion: 2
        time: 0
        value: {x: 0.18, y: 0.52, z: 0}
        inSlope: {x: -5.4, y: -8.099999, z: 0}
        outSlope: {x: -5.4, y: -8.099999, z: 0}
        tangentMode: 0
      - serializedVersion: 2
        time: 0.033333335
        value: {x: -0, y: 0.25, z: 0}
        inSlope: {x: -1.2, y: -2.2499998, z: 0}
        outSlope: {x: -1.2, y: -2.2499998, z: 0}
        tangentMode: 0
      - serializedVersion: 2
        time: 0.06666667
        value: {x: 0.1, y: 0.37, z: 0}
        inSlope: {x: 2.1, y: 2.9999995, z: 0}
        outSlope: {x: 2.1, y: 2.9999995, z: 0}
        tangentMode: 0
      - serializedVersion: 2
        time: 0.13333334
        value: {x: 0.18, y: 0.53, z: 0}
        inSlope: {x: 0.49285716, y: 1.2214284, z: 0}
        outSlope: {x: 0.49285716, y: 1.2214284, z: 0}
        tangentMode: 0
      - serializedVersion: 2
        time: 0.36666667
        value: {x: 0.13, y: 0.54, z: 0}
        inSlope: {x: -0.48214287, y: -0.69107145, z: 0}
        outSlope: {x: -0.48214287, y: -0.69107145, z: 0}
        tangentMode: 0
      - serializedVersion: 2
        time: 0.5
        value: {x: 0.03, y: 0.35, z: 0}
        inSlope: {x: -0.11249998, y: -0.60000014, z: 0}
        outSlope: {x: -0.11249998, y: -0.60000014, z: 0}
        tangentMode: 0
      - serializedVersion: 2
        time: 0.76666665
        value: {x: 0.17, y: 0.41, z: 0}
        inSlope: {x: 0.52500004, y: 0.22500002, z: 0}
        outSlope: {x: 0.52500004, y: 0.22500002, z: 0}
        tangentMode: 0
      m_PreInfinity: 2
      m_PostInfinity: 2
      m_RotationOrder: 4
    path: SpineBone/ArmBone_R/LowerArmBone_R/WeaponBone
  m_ScaleCurves: []
  m_FloatCurves: []
  m_PPtrCurves: []
  m_SampleRate: 30
  m_WrapMode: 0
  m_Bounds:
    m_Center: {x: 0, y: 0, z: 0}
    m_Extent: {x: 0, y: 0, z: 0}
  m_ClipBindingConstant:
    genericBindings:
    - serializedVersion: 2
      path: 0
      attribute: 1
      script: {fileID: 0}
      typeID: 4
      customType: 0
      isPPtrCurve: 0
    - serializedVersion: 2
      path: 2820493067
      attribute: 1
      script: {fileID: 0}
      typeID: 4
      customType: 0
      isPPtrCurve: 0
    - serializedVersion: 2
      path: 3367282937
      attribute: 4
      script: {fileID: 0}
      typeID: 4
      customType: 14
      isPPtrCurve: 0
    - serializedVersion: 2
      path: 1350801
      attribute: 4
      script: {fileID: 0}
      typeID: 4
      customType: 14
      isPPtrCurve: 0
    - serializedVersion: 2
      path: 4196114930
      attribute: 4
      script: {fileID: 0}
      typeID: 4
      customType: 14
      isPPtrCurve: 0
    - serializedVersion: 2
      path: 592780474
      attribute: 4
      script: {fileID: 0}
      typeID: 4
      customType: 14
      isPPtrCurve: 0
    - serializedVersion: 2
      path: 3646562777
      attribute: 4
      script: {fileID: 0}
      typeID: 4
      customType: 14
      isPPtrCurve: 0
    - serializedVersion: 2
      path: 2173405352
      attribute: 4
      script: {fileID: 0}
      typeID: 4
      customType: 14
      isPPtrCurve: 0
    - serializedVersion: 2
      path: 3173088766
      attribute: 4
      script: {fileID: 0}
      typeID: 4
      customType: 14
      isPPtrCurve: 0
    - serializedVersion: 2
      path: 2017213991
      attribute: 4
      script: {fileID: 0}
      typeID: 4
      customType: 14
      isPPtrCurve: 0
    - serializedVersion: 2
      path: 1150733169
      attribute: 4
      script: {fileID: 0}
      typeID: 4
      customType: 14
      isPPtrCurve: 0
    - serializedVersion: 2
      path: 2820493067
      attribute: 4
      script: {fileID: 0}
      typeID: 4
      customType: 14
      isPPtrCurve: 0
    pptrCurveMapping: []
  m_AnimationClipSettings:
    serializedVersion: 2
    m_AdditiveReferencePoseClip: {fileID: 0}
    m_AdditiveReferencePoseTime: 0
    m_StartTime: 0
    m_StopTime: 0.96666664
    m_OrientationOffsetY: 0
    m_Level: 0
    m_CycleOffset: 0
    m_HasAdditiveReferencePose: 0
    m_LoopTime: 0
    m_LoopBlend: 0
    m_LoopBlendOrientation: 0
    m_LoopBlendPositionY: 0
    m_LoopBlendPositionXZ: 0
    m_KeepOriginalOrientation: 0
    m_KeepOriginalPositionY: 1
    m_KeepOriginalPositionXZ: 0
    m_HeightFromFeet: 0
    m_Mirror: 0
  m_EditorCurves:
  - curve:
      serializedVersion: 2
      m_Curve:
      - serializedVersion: 2
        time: 0
        value: 0
        inSlope: 0
        outSlope: 0
        tangentMode: 34
      - serializedVersion: 2
        time: 0.033333335
        value: 0
        inSlope: 0
        outSlope: 0
        tangentMode: 34
      - serializedVersion: 2
        time: 0.13333334
        value: 0
        inSlope: 0
        outSlope: 0
        tangentMode: 34
      - serializedVersion: 2
        time: 0.36666667
        value: 0
        inSlope: 0
        outSlope: 0
        tangentMode: 34
      - serializedVersion: 2
        time: 0.5
        value: 0
        inSlope: 0
        outSlope: 0
        tangentMode: 34
      - serializedVersion: 2
        time: 0.76666665
        value: 0
        inSlope: 0
        outSlope: 0
        tangentMode: 34
      - serializedVersion: 2
        time: 0.96666664
        value: 0
        inSlope: 0
        outSlope: 0
        tangentMode: 34
      m_PreInfinity: 2
      m_PostInfinity: 2
      m_RotationOrder: 4
    attribute: localEulerAnglesRaw.x
    path: SpineBone
    classID: 4
    script: {fileID: 0}
  - curve:
      serializedVersion: 2
      m_Curve:
      - serializedVersion: 2
        time: 0
        value: 0
        inSlope: 0
        outSlope: 0
        tangentMode: 34
      - serializedVersion: 2
        time: 0.033333335
        value: 0
        inSlope: 0
        outSlope: 0
        tangentMode: 34
      - serializedVersion: 2
        time: 0.13333334
        value: 0
        inSlope: 0
        outSlope: 0
        tangentMode: 34
      - serializedVersion: 2
        time: 0.36666667
        value: 0
        inSlope: 0
        outSlope: 0
        tangentMode: 34
      - serializedVersion: 2
        time: 0.5
        value: 0
        inSlope: 0
        outSlope: 0
        tangentMode: 34
      - serializedVersion: 2
        time: 0.76666665
        value: 0
        inSlope: 0
        outSlope: 0
        tangentMode: 34
      - serializedVersion: 2
        time: 0.96666664
        value: 0
        inSlope: 0
        outSlope: 0
        tangentMode: 34
      m_PreInfinity: 2
      m_PostInfinity: 2
      m_RotationOrder: 4
    attribute: localEulerAnglesRaw.y
    path: SpineBone
    classID: 4
    script: {fileID: 0}
  - curve:
      serializedVersion: 2
      m_Curve:
      - serializedVersion: 2
        time: 0
        value: -19.4
        inSlope: -1242
        outSlope: -1242
        tangentMode: 34
      - serializedVersion: 2
        time: 0.033333335
        value: -60.8
        inSlope: -788.5
        outSlope: -788.5
        tangentMode: 34
      - serializedVersion: 2
        time: 0.13333334
        value: -94.3
        inSlope: -167.5
        outSlope: -167.5
        tangentMode: 34
      - serializedVersion: 2
        time: 0.36666667
        value: -94.3
        inSlope: 125.62502
        outSlope: 125.62502
        tangentMode: 34
      - serializedVersion: 2
        time: 0.5
        value: -60.8
        inSlope: 203.62503
        outSlope: 203.62503
        tangentMode: 34
      - serializedVersion: 2
        time: 0.76666665
        value: -19.2
        inSlope: 78
        outSlope: 78
        tangentMode: 34
      - serializedVersion: 2
        time: 0.96666664
        value: -19.2
        inSlope: 0
        outSlope: 0
        tangentMode: 34
      m_PreInfinity: 2
      m_PostInfinity: 2
      m_RotationOrder: 4
    attribute: localEulerAnglesRaw.z
    path: SpineBone
    classID: 4
    script: {fileID: 0}
  - curve:
      serializedVersion: 2
      m_Curve:
      - serializedVersion: 2
        time: 0
        value: 0
        inSlope: 0
        outSlope: 0
        tangentMode: 34
      - serializedVersion: 2
        time: 0.033333335
        value: 0
        inSlope: 0
        outSlope: 0
        tangentMode: 34
      - serializedVersion: 2
        time: 0.13333334
        value: 0
        inSlope: 0
        outSlope: 0
        tangentMode: 34
      - serializedVersion: 2
        time: 0.36666667
        value: 0
        inSlope: 0
        outSlope: 0
        tangentMode: 34
      - serializedVersion: 2
        time: 0.5
        value: 0
        inSlope: 0
        outSlope: 0
        tangentMode: 34
      - serializedVersion: 2
        time: 0.76666665
        value: 0
        inSlope: 0
        outSlope: 0
        tangentMode: 34
      - serializedVersion: 2
        time: 0.96666664
        value: 0
        inSlope: 0
        outSlope: 0
        tangentMode: 34
      m_PreInfinity: 2
      m_PostInfinity: 2
      m_RotationOrder: 4
    attribute: localEulerAnglesRaw.x
    path: SpineBone/ArmBone_L
    classID: 4
    script: {fileID: 0}
  - curve:
      serializedVersion: 2
      m_Curve:
      - serializedVersion: 2
        time: 0
        value: 0
        inSlope: 0
        outSlope: 0
        tangentMode: 34
      - serializedVersion: 2
        time: 0.033333335
        value: 0
        inSlope: 0
        outSlope: 0
        tangentMode: 34
      - serializedVersion: 2
        time: 0.13333334
        value: 0
        inSlope: 0
        outSlope: 0
        tangentMode: 34
      - serializedVersion: 2
        time: 0.36666667
        value: 0
        inSlope: 0
        outSlope: 0
        tangentMode: 34
      - serializedVersion: 2
        time: 0.5
        value: 0
        inSlope: 0
        outSlope: 0
        tangentMode: 34
      - serializedVersion: 2
        time: 0.76666665
        value: 0
        inSlope: 0
        outSlope: 0
        tangentMode: 34
      - serializedVersion: 2
        time: 0.96666664
        value: 0
        inSlope: 0
        outSlope: 0
        tangentMode: 34
      m_PreInfinity: 2
      m_PostInfinity: 2
      m_RotationOrder: 4
    attribute: localEulerAnglesRaw.y
    path: SpineBone/ArmBone_L
    classID: 4
    script: {fileID: 0}
  - curve:
      serializedVersion: 2
      m_Curve:
      - serializedVersion: 2
        time: 0
        value: 11.7
        inSlope: -2741.9998
        outSlope: -2741.9998
        tangentMode: 34
      - serializedVersion: 2
        time: 0.033333335
        value: -79.7
        inSlope: -1550.4999
        outSlope: -1550.4999
        tangentMode: 34
      - serializedVersion: 2
        time: 0.13333334
        value: -115.6
        inSlope: -179.49998
        outSlope: -179.49998
        tangentMode: 34
      - serializedVersion: 2
        time: 0.36666667
        value: -115.6
        inSlope: 134.62502
        outSlope: 134.62502
        tangentMode: 34
      - serializedVersion: 2
        time: 0.5
        value: -79.7
        inSlope: -42.937485
        outSlope: -42.937485
        tangentMode: 34
      - serializedVersion: 2
        time: 0.76666665
        value: -174.4
        inSlope: -177.5625
        outSlope: -177.5625
        tangentMode: 34
      - serializedVersion: 2
        time: 0.96666664
        value: -174.4
        inSlope: 0
        outSlope: 0
        tangentMode: 34
      m_PreInfinity: 2
      m_PostInfinity: 2
      m_RotationOrder: 4
    attribute: localEulerAnglesRaw.z
    path: SpineBone/ArmBone_L
    classID: 4
    script: {fileID: 0}
  - curve:
      serializedVersion: 2
      m_Curve:
      - serializedVersion: 2
        time: 0
        value: 0
        inSlope: 0
        outSlope: 0
        tangentMode: 34
      - serializedVersion: 2
        time: 0.033333335
        value: 0
        inSlope: 0
        outSlope: 0
        tangentMode: 34
      - serializedVersion: 2
        time: 0.13333334
        value: 0
        inSlope: 0
        outSlope: 0
        tangentMode: 34
      - serializedVersion: 2
        time: 0.36666667
        value: 0
        inSlope: 0
        outSlope: 0
        tangentMode: 34
      - serializedVersion: 2
        time: 0.5
        value: 0
        inSlope: 0
        outSlope: 0
        tangentMode: 34
      - serializedVersion: 2
        time: 0.76666665
        value: 0
        inSlope: 0
        outSlope: 0
        tangentMode: 34
      - serializedVersion: 2
        time: 0.96666664
        value: 0
        inSlope: 0
        outSlope: 0
        tangentMode: 34
      m_PreInfinity: 2
      m_PostInfinity: 2
      m_RotationOrder: 4
    attribute: localEulerAnglesRaw.x
    path: SpineBone/ArmBone_R
    classID: 4
    script: {fileID: 0}
  - curve:
      serializedVersion: 2
      m_Curve:
      - serializedVersion: 2
        time: 0
        value: 0
        inSlope: 0
        outSlope: 0
        tangentMode: 34
      - serializedVersion: 2
        time: 0.033333335
        value: 0
        inSlope: 0
        outSlope: 0
        tangentMode: 34
      - serializedVersion: 2
        time: 0.13333334
        value: 0
        inSlope: 0
        outSlope: 0
        tangentMode: 34
      - serializedVersion: 2
        time: 0.36666667
        value: 0
        inSlope: 0
        outSlope: 0
        tangentMode: 34
      - serializedVersion: 2
        time: 0.5
        value: 0
        inSlope: 0
        outSlope: 0
        tangentMode: 34
      - serializedVersion: 2
        time: 0.76666665
        value: 0
        inSlope: 0
        outSlope: 0
        tangentMode: 34
      - serializedVersion: 2
        time: 0.96666664
        value: 0
        inSlope: 0
        outSlope: 0
        tangentMode: 34
      m_PreInfinity: 2
      m_PostInfinity: 2
      m_RotationOrder: 4
    attribute: localEulerAnglesRaw.y
    path: SpineBone/ArmBone_R
    classID: 4
    script: {fileID: 0}
  - curve:
      serializedVersion: 2
      m_Curve:
      - serializedVersion: 2
        time: 0
        value: 20.2
        inSlope: -2960.9998
        outSlope: -2960.9998
        tangentMode: 34
      - serializedVersion: 2
        time: 0.033333335
        value: -78.5
        inSlope: -1582.9999
        outSlope: -1582.9999
        tangentMode: 34
      - serializedVersion: 2
        time: 0.13333334
        value: -99
        inSlope: -102.49999
        outSlope: -102.49999
        tangentMode: 34
      - serializedVersion: 2
        time: 0.36666667
        value: -99
        inSlope: 76.87501
        outSlope: 76.87501
        tangentMode: 34
      - serializedVersion: 2
        time: 0.5
        value: -78.5
        inSlope: -55.312508
        outSlope: -55.312508
        tangentMode: 34
      - serializedVersion: 2
        time: 0.76666665
        value: -149
        inSlope: -132.18752
        outSlope: -132.18752
        tangentMode: 34
      - serializedVersion: 2
        time: 0.96666664
        value: -149
        inSlope: 0
        outSlope: 0
        tangentMode: 34
      m_PreInfinity: 2
      m_PostInfinity: 2
      m_RotationOrder: 4
    attribute: localEulerAnglesRaw.z
    path: SpineBone/ArmBone_R
    classID: 4
    script: {fileID: 0}
  - curve:
      serializedVersion: 2
      m_Curve:
      - serializedVersion: 2
        time: 0
        value: 0
        inSlope: 0
        outSlope: 0
        tangentMode: 34
      - serializedVersion: 2
        time: 0.033333335
        value: 0
        inSlope: 0
        outSlope: 0
        tangentMode: 34
      - serializedVersion: 2
        time: 0.06666667
        value: 0
        inSlope: 0
        outSlope: 0
        tangentMode: 34
      - serializedVersion: 2
        time: 0.13333334
        value: 0
        inSlope: 0
        outSlope: 0
        tangentMode: 34
      - serializedVersion: 2
        time: 0.2
        value: 0
        inSlope: 0
        outSlope: 0
        tangentMode: 34
      - serializedVersion: 2
        time: 0.26666668
        value: 0
        inSlope: 0
        outSlope: 0
        tangentMode: 34
      - serializedVersion: 2
        time: 0.36666667
        value: 0
        inSlope: 0
        outSlope: 0
        tangentMode: 34
      - serializedVersion: 2
        time: 0.5
        value: 0
        inSlope: 0
        outSlope: 0
        tangentMode: 34
      - serializedVersion: 2
        time: 0.76666665
        value: 0
        inSlope: 0
        outSlope: 0
        tangentMode: 34
      - serializedVersion: 2
        time: 0.96666664
        value: 0
        inSlope: 0
        outSlope: 0
        tangentMode: 34
      m_PreInfinity: 2
      m_PostInfinity: 2
      m_RotationOrder: 4
    attribute: localEulerAnglesRaw.x
    path: SpineBone/LegBone_L
    classID: 4
    script: {fileID: 0}
  - curve:
      serializedVersion: 2
      m_Curve:
      - serializedVersion: 2
        time: 0
        value: 0
        inSlope: 0
        outSlope: 0
        tangentMode: 34
      - serializedVersion: 2
        time: 0.033333335
        value: 0
        inSlope: 0
        outSlope: 0
        tangentMode: 34
      - serializedVersion: 2
        time: 0.06666667
        value: 0
        inSlope: 0
        outSlope: 0
        tangentMode: 34
      - serializedVersion: 2
        time: 0.13333334
        value: 0
        inSlope: 0
        outSlope: 0
        tangentMode: 34
      - serializedVersion: 2
        time: 0.2
        value: 0
        inSlope: 0
        outSlope: 0
        tangentMode: 34
      - serializedVersion: 2
        time: 0.26666668
        value: 0
        inSlope: 0
        outSlope: 0
        tangentMode: 34
      - serializedVersion: 2
        time: 0.36666667
        value: 0
        inSlope: 0
        outSlope: 0
        tangentMode: 34
      - serializedVersion: 2
        time: 0.5
        value: 0
        inSlope: 0
        outSlope: 0
        tangentMode: 34
      - serializedVersion: 2
        time: 0.76666665
        value: 0
        inSlope: 0
        outSlope: 0
        tangentMode: 34
      - serializedVersion: 2
        time: 0.96666664
        value: 0
        inSlope: 0
        outSlope: 0
        tangentMode: 34
      m_PreInfinity: 2
      m_PostInfinity: 2
      m_RotationOrder: 4
    attribute: localEulerAnglesRaw.y
    path: SpineBone/LegBone_L
    classID: 4
    script: {fileID: 0}
  - curve:
      serializedVersion: 2
      m_Curve:
      - serializedVersion: 2
        time: 0
        value: 172.8
        inSlope: 894.00006
        outSlope: 894.00006
        tangentMode: 34
      - serializedVersion: 2
        time: 0.033333335
        value: 202.6
        inSlope: 623.9998
        outSlope: 623.9998
        tangentMode: 34
      - serializedVersion: 2
        time: 0.06666667
        value: 214.4
        inSlope: 158.64828
        outSlope: 158.64828
        tangentMode: 34
      - serializedVersion: 2
        time: 0.13333334
        value: 211.95312
        inSlope: -136.24203
        outSlope: -136.24203
        tangentMode: 34
      - serializedVersion: 2
        time: 0.2
        value: 196.23439
        inSlope: -215.03906
        outSlope: -215.03906
        tangentMode: 34
      - serializedVersion: 2
        time: 0.26666668
        value: 183.28125
        inSlope: -29.05481
        outSlope: -29.05481
        tangentMode: 34
      - serializedVersion: 2
        time: 0.36666667
        value: 196.9
        inSlope: 89.46877
        outSlope: 89.46877
        tangentMode: 34
      - serializedVersion: 2
        time: 0.5
        value: 202.6
        inSlope: 3.93754
        outSlope: 3.93754
        tangentMode: 34
      - serializedVersion: 2
        time: 0.76666665
        value: 193.3
        inSlope: -17.437508
        outSlope: -17.437508
        tangentMode: 34
      - serializedVersion: 2
        time: 0.96666664
        value: 193.3
        inSlope: 0
        outSlope: 0
        tangentMode: 34
      m_PreInfinity: 2
      m_PostInfinity: 2
      m_RotationOrder: 4
    attribute: localEulerAnglesRaw.z
    path: SpineBone/LegBone_L
    classID: 4
    script: {fileID: 0}
  - curve:
      serializedVersion: 2
      m_Curve:
      - serializedVersion: 2
        time: 0
        value: 0
        inSlope: 0
        outSlope: 0
        tangentMode: 34
      - serializedVersion: 2
        time: 0.033333335
        value: 0
        inSlope: 0
        outSlope: 0
        tangentMode: 34
      - serializedVersion: 2
        time: 0.13333334
        value: 0
        inSlope: 0
        outSlope: 0
        tangentMode: 34
      - serializedVersion: 2
        time: 0.2
        value: 0
        inSlope: 0
        outSlope: 0
        tangentMode: 34
      - serializedVersion: 2
        time: 0.36666667
        value: 0
        inSlope: 0
        outSlope: 0
        tangentMode: 34
      - serializedVersion: 2
        time: 0.5
        value: 0
        inSlope: 0
        outSlope: 0
        tangentMode: 34
      - serializedVersion: 2
        time: 0.76666665
        value: 0
        inSlope: 0
        outSlope: 0
        tangentMode: 34
      - serializedVersion: 2
        time: 0.96666664
        value: 0
        inSlope: 0
        outSlope: 0
        tangentMode: 34
      m_PreInfinity: 2
      m_PostInfinity: 2
      m_RotationOrder: 4
    attribute: localEulerAnglesRaw.x
    path: SpineBone/LegBone_R
    classID: 4
    script: {fileID: 0}
  - curve:
      serializedVersion: 2
      m_Curve:
      - serializedVersion: 2
        time: 0
        value: 0
        inSlope: 0
        outSlope: 0
        tangentMode: 34
      - serializedVersion: 2
        time: 0.033333335
        value: 0
        inSlope: 0
        outSlope: 0
        tangentMode: 34
      - serializedVersion: 2
        time: 0.13333334
        value: 0
        inSlope: 0
        outSlope: 0
        tangentMode: 34
      - serializedVersion: 2
        time: 0.2
        value: 0
        inSlope: 0
        outSlope: 0
        tangentMode: 34
      - serializedVersion: 2
        time: 0.36666667
        value: 0
        inSlope: 0
        outSlope: 0
        tangentMode: 34
      - serializedVersion: 2
        time: 0.5
        value: 0
        inSlope: 0
        outSlope: 0
        tangentMode: 34
      - serializedVersion: 2
        time: 0.76666665
        value: 0
        inSlope: 0
        outSlope: 0
        tangentMode: 34
      - serializedVersion: 2
        time: 0.96666664
        value: 0
        inSlope: 0
        outSlope: 0
        tangentMode: 34
      m_PreInfinity: 2
      m_PostInfinity: 2
      m_RotationOrder: 4
    attribute: localEulerAnglesRaw.y
    path: SpineBone/LegBone_R
    classID: 4
    script: {fileID: 0}
  - curve:
      serializedVersion: 2
      m_Curve:
      - serializedVersion: 2
        time: 0
        value: -111.8
        inSlope: 1833
        outSlope: 1833
        tangentMode: 34
      - serializedVersion: 2
        time: 0.033333335
        value: -50.7
        inSlope: 665
        outSlope: 665
        tangentMode: 34
      - serializedVersion: 2
        time: 0.13333334
        value: -101
        inSlope: -309.30807
        outSlope: -309.30807
        tangentMode: 34
      - serializedVersion: 2
        time: 0.2
        value: -108.70775
        inSlope: -34.68487
        outSlope: -34.68487
        tangentMode: 34
      - serializedVersion: 2
        time: 0.36666667
        value: -101
        inSlope: 211.74826
        outSlope: 211.74826
        tangentMode: 34
      - serializedVersion: 2
        time: 0.5
        value: -50.7
        inSlope: 42.937515
        outSlope: 42.937515
        tangentMode: 34
      - serializedVersion: 2
        time: 0.76666665
        value: -128.4
        inSlope: -145.6875
        outSlope: -145.6875
        tangentMode: 34
      - serializedVersion: 2
        time: 0.96666664
        value: -128.4
        inSlope: 0
        outSlope: 0
        tangentMode: 34
      m_PreInfinity: 2
      m_PostInfinity: 2
      m_RotationOrder: 4
    attribute: localEulerAnglesRaw.z
    path: SpineBone/LegBone_R
    classID: 4
    script: {fileID: 0}
  - curve:
      serializedVersion: 2
      m_Curve:
      - serializedVersion: 2
        time: 0
        value: 0
        inSlope: 0
        outSlope: 0
        tangentMode: 34
      - serializedVersion: 2
        time: 0.033333335
        value: 0
        inSlope: 0
        outSlope: 0
        tangentMode: 34
      - serializedVersion: 2
        time: 0.13333334
        value: 0
        inSlope: 0
        outSlope: 0
        tangentMode: 34
      - serializedVersion: 2
        time: 0.36666667
        value: 0
        inSlope: 0
        outSlope: 0
        tangentMode: 34
      - serializedVersion: 2
        time: 0.5
        value: 0
        inSlope: 0
        outSlope: 0
        tangentMode: 34
      - serializedVersion: 2
        time: 0.76666665
        value: 0
        inSlope: 0
        outSlope: 0
        tangentMode: 34
      - serializedVersion: 2
        time: 0.96666664
        value: 0
        inSlope: 0
        outSlope: 0
        tangentMode: 34
      m_PreInfinity: 2
      m_PostInfinity: 2
      m_RotationOrder: 4
    attribute: localEulerAnglesRaw.x
    path: SpineBone/ArmBone_L/LowerArmBone_L
    classID: 4
    script: {fileID: 0}
  - curve:
      serializedVersion: 2
      m_Curve:
      - serializedVersion: 2
        time: 0
        value: 0
        inSlope: 0
        outSlope: 0
        tangentMode: 34
      - serializedVersion: 2
        time: 0.033333335
        value: 0
        inSlope: 0
        outSlope: 0
        tangentMode: 34
      - serializedVersion: 2
        time: 0.13333334
        value: 0
        inSlope: 0
        outSlope: 0
        tangentMode: 34
      - serializedVersion: 2
        time: 0.36666667
        value: 0
        inSlope: 0
        outSlope: 0
        tangentMode: 34
      - serializedVersion: 2
        time: 0.5
        value: 0
        inSlope: 0
        outSlope: 0
        tangentMode: 34
      - serializedVersion: 2
        time: 0.76666665
        value: 0
        inSlope: 0
        outSlope: 0
        tangentMode: 34
      - serializedVersion: 2
        time: 0.96666664
        value: 0
        inSlope: 0
        outSlope: 0
        tangentMode: 34
      m_PreInfinity: 2
      m_PostInfinity: 2
      m_RotationOrder: 4
    attribute: localEulerAnglesRaw.y
    path: SpineBone/ArmBone_L/LowerArmBone_L
    classID: 4
    script: {fileID: 0}
  - curve:
      serializedVersion: 2
      m_Curve:
      - serializedVersion: 2
        time: 0
        value: 96.49
        inSlope: -2444.6997
        outSlope: -2444.6997
        tangentMode: 34
      - serializedVersion: 2
        time: 0.033333335
        value: 15
        inSlope: -1151.8499
        outSlope: -1151.8499
        tangentMode: 34
      - serializedVersion: 2
        time: 0.13333334
        value: 29.1
        inSlope: 70.49999
        outSlope: 70.49999
        tangentMode: 34
      - serializedVersion: 2
        time: 0.36666667
        value: 29.1
        inSlope: -52.875004
        outSlope: -52.875004
        tangentMode: 34
      - serializedVersion: 2
        time: 0.5
        value: 15
        inSlope: -15.5625
        outSlope: -15.5625
        tangentMode: 34
      - serializedVersion: 2
        time: 0.76666665
        value: 34.9
        inSlope: 37.312504
        outSlope: 37.312504
        tangentMode: 34
      - serializedVersion: 2
        time: 0.96666664
        value: 34.9
        inSlope: 0
        outSlope: 0
        tangentMode: 34
      m_PreInfinity: 2
      m_PostInfinity: 2
      m_RotationOrder: 4
    attribute: localEulerAnglesRaw.z
    path: SpineBone/ArmBone_L/LowerArmBone_L
    classID: 4
    script: {fileID: 0}
  - curve:
      serializedVersion: 2
      m_Curve:
      - serializedVersion: 2
        time: 0
        value: 0
        inSlope: 0
        outSlope: 0
        tangentMode: 34
      - serializedVersion: 2
        time: 0.033333335
        value: 0
        inSlope: 0
        outSlope: 0
        tangentMode: 34
      - serializedVersion: 2
        time: 0.13333334
        value: 0
        inSlope: 0
        outSlope: 0
        tangentMode: 34
      - serializedVersion: 2
        time: 0.36666667
        value: 0
        inSlope: 0
        outSlope: 0
        tangentMode: 34
      - serializedVersion: 2
        time: 0.5
        value: 0
        inSlope: 0
        outSlope: 0
        tangentMode: 34
      - serializedVersion: 2
        time: 0.76666665
        value: 0
        inSlope: 0
        outSlope: 0
        tangentMode: 34
      - serializedVersion: 2
        time: 0.96666664
        value: 0
        inSlope: 0
        outSlope: 0
        tangentMode: 34
      m_PreInfinity: 2
      m_PostInfinity: 2
      m_RotationOrder: 4
    attribute: localEulerAnglesRaw.x
    path: SpineBone/ArmBone_R/LowerArmBone_R
    classID: 4
    script: {fileID: 0}
  - curve:
      serializedVersion: 2
      m_Curve:
      - serializedVersion: 2
        time: 0
        value: 0
        inSlope: 0
        outSlope: 0
        tangentMode: 34
      - serializedVersion: 2
        time: 0.033333335
        value: 0
        inSlope: 0
        outSlope: 0
        tangentMode: 34
      - serializedVersion: 2
        time: 0.13333334
        value: 0
        inSlope: 0
        outSlope: 0
        tangentMode: 34
      - serializedVersion: 2
        time: 0.36666667
        value: 0
        inSlope: 0
        outSlope: 0
        tangentMode: 34
      - serializedVersion: 2
        time: 0.5
        value: 0
        inSlope: 0
        outSlope: 0
        tangentMode: 34
      - serializedVersion: 2
        time: 0.76666665
        value: 0
        inSlope: 0
        outSlope: 0
        tangentMode: 34
      - serializedVersion: 2
        time: 0.96666664
        value: 0
        inSlope: 0
        outSlope: 0
        tangentMode: 34
      m_PreInfinity: 2
      m_PostInfinity: 2
      m_RotationOrder: 4
    attribute: localEulerAnglesRaw.y
    path: SpineBone/ArmBone_R/LowerArmBone_R
    classID: 4
    script: {fileID: 0}
  - curve:
      serializedVersion: 2
      m_Curve:
      - serializedVersion: 2
        time: 0
        value: 90.3
        inSlope: -2031
        outSlope: -2031
        tangentMode: 34
      - serializedVersion: 2
        time: 0.033333335
        value: 22.6
        inSlope: -1059
        outSlope: -1059
        tangentMode: 34
      - serializedVersion: 2
        time: 0.13333334
        value: 13.9
        inSlope: -43.5
        outSlope: -43.5
        tangentMode: 34
      - serializedVersion: 2
        time: 0.36666667
        value: 13.9
        inSlope: 32.625004
        outSlope: 32.625004
        tangentMode: 34
      - serializedVersion: 2
        time: 0.5
        value: 22.6
        inSlope: 30.562504
        outSlope: 30.562504
        tangentMode: 34
      - serializedVersion: 2
        time: 0.76666665
        value: 21.5
        inSlope: -2.062501
        outSlope: -2.062501
        tangentMode: 34
      - serializedVersion: 2
        time: 0.96666664
        value: 21.5
        inSlope: 0
        outSlope: 0
        tangentMode: 34
      m_PreInfinity: 2
      m_PostInfinity: 2
      m_RotationOrder: 4
    attribute: localEulerAnglesRaw.z
    path: SpineBone/ArmBone_R/LowerArmBone_R
    classID: 4
    script: {fileID: 0}
  - curve:
      serializedVersion: 2
      m_Curve:
      - serializedVersion: 2
        time: 0
        value: 0
        inSlope: 0
        outSlope: 0
        tangentMode: 34
      - serializedVersion: 2
        time: 0.033333335
        value: 0
        inSlope: 0
        outSlope: 0
        tangentMode: 34
      - serializedVersion: 2
        time: 0.06666667
        value: 0
        inSlope: 0
        outSlope: 0
        tangentMode: 34
      - serializedVersion: 2
        time: 0.13333334
        value: 0
        inSlope: 0
        outSlope: 0
        tangentMode: 34
      - serializedVersion: 2
        time: 0.2
        value: 0
        inSlope: 0
        outSlope: 0
        tangentMode: 34
      - serializedVersion: 2
        time: 0.26666668
        value: 0
        inSlope: 0
        outSlope: 0
        tangentMode: 34
      - serializedVersion: 2
        time: 0.33333334
        value: 0
        inSlope: 0
        outSlope: 0
        tangentMode: 34
      - serializedVersion: 2
        time: 0.36666667
        value: 0
        inSlope: 0
        outSlope: 0
        tangentMode: 34
      - serializedVersion: 2
        time: 0.5
        value: 0
        inSlope: 0
        outSlope: 0
        tangentMode: 34
      - serializedVersion: 2
        time: 0.76666665
        value: 0
        inSlope: 0
        outSlope: 0
        tangentMode: 34
      - serializedVersion: 2
        time: 0.96666664
        value: 0
        inSlope: 0
        outSlope: 0
        tangentMode: 34
      m_PreInfinity: 2
      m_PostInfinity: 2
      m_RotationOrder: 4
    attribute: localEulerAnglesRaw.x
    path: SpineBone/LegBone_L/LowerLegBone_L
    classID: 4
    script: {fileID: 0}
  - curve:
      serializedVersion: 2
      m_Curve:
      - serializedVersion: 2
        time: 0
        value: 0
        inSlope: 0
        outSlope: 0
        tangentMode: 34
      - serializedVersion: 2
        time: 0.033333335
        value: 0
        inSlope: 0
        outSlope: 0
        tangentMode: 34
      - serializedVersion: 2
        time: 0.06666667
        value: 0
        inSlope: 0
        outSlope: 0
        tangentMode: 34
      - serializedVersion: 2
        time: 0.13333334
        value: 0
        inSlope: 0
        outSlope: 0
        tangentMode: 34
      - serializedVersion: 2
        time: 0.2
        value: 0
        inSlope: 0
        outSlope: 0
        tangentMode: 34
      - serializedVersion: 2
        time: 0.26666668
        value: 0
        inSlope: 0
        outSlope: 0
        tangentMode: 34
      - serializedVersion: 2
        time: 0.33333334
        value: 0
        inSlope: 0
        outSlope: 0
        tangentMode: 34
      - serializedVersion: 2
        time: 0.36666667
        value: 0
        inSlope: 0
        outSlope: 0
        tangentMode: 34
      - serializedVersion: 2
        time: 0.5
        value: 0
        inSlope: 0
        outSlope: 0
        tangentMode: 34
      - serializedVersion: 2
        time: 0.76666665
        value: 0
        inSlope: 0
        outSlope: 0
        tangentMode: 34
      - serializedVersion: 2
        time: 0.96666664
        value: 0
        inSlope: 0
        outSlope: 0
        tangentMode: 34
      m_PreInfinity: 2
      m_PostInfinity: 2
      m_RotationOrder: 4
    attribute: localEulerAnglesRaw.y
    path: SpineBone/LegBone_L/LowerLegBone_L
    classID: 4
    script: {fileID: 0}
  - curve:
      serializedVersion: 2
      m_Curve:
      - serializedVersion: 2
        time: 0
        value: -28.1
        inSlope: 86.999985
        outSlope: 86.999985
        tangentMode: 34
      - serializedVersion: 2
        time: 0.033333335
        value: -25.2
        inSlope: 93.00001
        outSlope: 93.00001
        tangentMode: 34
      - serializedVersion: 2
        time: 0.06666667
        value: -21.9
        inSlope: 179.25
        outSlope: 179.25
        tangentMode: 34
      - serializedVersion: 2
        time: 0.13333334
        value: -4.6
        inSlope: -110.250015
        outSlope: -110.250015
        tangentMode: 34
      - serializedVersion: 2
        time: 0.2
        value: -36.6
        inSlope: -420.7488
        outSlope: -420.7488
        tangentMode: 34
      - serializedVersion: 2
        time: 0.26666668
        value: -60.699844
        inSlope: -355.49768
        outSlope: -355.49768
        tangentMode: 34
      - serializedVersion: 2
        time: 0.33333334
        value: -83.999695
        inSlope: -131.25
        outSlope: -131.25
        tangentMode: 34
      - serializedVersion: 2
        time: 0.36666667
        value: -81.09977
        inSlope: 21.40156
        outSlope: 21.40156
        tangentMode: 34
      - serializedVersion: 2
        time: 0.46666667
        value: -85.51923
        inSlope: 882.6912
        outSlope: 882.6912
        tangentMode: 34
      - serializedVersion: 2
        time: 0.5
        value: -25.2
        inSlope: 693.2846
        outSlope: 693.2846
        tangentMode: 34
      - serializedVersion: 2
        time: 0.53333336
        value: -39.300278
        inSlope: -314.75098
        outSlope: -314.75098
        tangentMode: 34
      - serializedVersion: 2
        time: 0.6
        value: -53.066544
        inSlope: -1.6473465
        outSlope: -1.6473465
        tangentMode: 34
      - serializedVersion: 2
        time: 0.76666665
        value: -19.2
        inSlope: 101.599655
        outSlope: 101.599655
        tangentMode: 34
      - serializedVersion: 2
        time: 0.96666664
        value: -19.2
        inSlope: 0
        outSlope: 0
        tangentMode: 34
      m_PreInfinity: 2
      m_PostInfinity: 2
      m_RotationOrder: 4
    attribute: localEulerAnglesRaw.z
    path: SpineBone/LegBone_L/LowerLegBone_L
    classID: 4
    script: {fileID: 0}
  - curve:
      serializedVersion: 2
      m_Curve:
      - serializedVersion: 2
        time: 0
        value: 0
        inSlope: 0
        outSlope: 0
        tangentMode: 34
      - serializedVersion: 2
        time: 0.033333335
        value: 0
        inSlope: 0
        outSlope: 0
        tangentMode: 34
      - serializedVersion: 2
        time: 0.13333334
        value: 0
        inSlope: 0
        outSlope: 0
        tangentMode: 34
      - serializedVersion: 2
        time: 0.36666667
        value: 0
        inSlope: 0
        outSlope: 0
        tangentMode: 34
      - serializedVersion: 2
        time: 0.5
        value: 0
        inSlope: 0
        outSlope: 0
        tangentMode: 34
      - serializedVersion: 2
        time: 0.76666665
        value: 0
        inSlope: 0
        outSlope: 0
        tangentMode: 34
      - serializedVersion: 2
        time: 0.96666664
        value: 0
        inSlope: 0
        outSlope: 0
        tangentMode: 34
      m_PreInfinity: 2
      m_PostInfinity: 2
      m_RotationOrder: 4
    attribute: localEulerAnglesRaw.x
    path: SpineBone/LegBone_R/LowerLegBone_R
    classID: 4
    script: {fileID: 0}
  - curve:
      serializedVersion: 2
      m_Curve:
      - serializedVersion: 2
        time: 0
        value: 0
        inSlope: 0
        outSlope: 0
        tangentMode: 34
      - serializedVersion: 2
        time: 0.033333335
        value: 0
        inSlope: 0
        outSlope: 0
        tangentMode: 34
      - serializedVersion: 2
        time: 0.13333334
        value: 0
        inSlope: 0
        outSlope: 0
        tangentMode: 34
      - serializedVersion: 2
        time: 0.36666667
        value: 0
        inSlope: 0
        outSlope: 0
        tangentMode: 34
      - serializedVersion: 2
        time: 0.5
        value: 0
        inSlope: 0
        outSlope: 0
        tangentMode: 34
      - serializedVersion: 2
        time: 0.76666665
        value: 0
        inSlope: 0
        outSlope: 0
        tangentMode: 34
      - serializedVersion: 2
        time: 0.96666664
        value: 0
        inSlope: 0
        outSlope: 0
        tangentMode: 34
      m_PreInfinity: 2
      m_PostInfinity: 2
      m_RotationOrder: 4
    attribute: localEulerAnglesRaw.y
    path: SpineBone/LegBone_R/LowerLegBone_R
    classID: 4
    script: {fileID: 0}
  - curve:
      serializedVersion: 2
      m_Curve:
      - serializedVersion: 2
        time: 0
        value: -71.8
        inSlope: -110.9999
        outSlope: -110.9999
        tangentMode: 34
      - serializedVersion: 2
        time: 0.033333335
        value: -75.5
        inSlope: 210.00002
        outSlope: 210.00002
        tangentMode: 34
      - serializedVersion: 2
        time: 0.13333334
        value: -22.4
        inSlope: 265.49997
        outSlope: 265.49997
        tangentMode: 34
      - serializedVersion: 2
        time: 0.36666667
        value: -22.4
        inSlope: -199.125
        outSlope: -199.125
        tangentMode: 34
      - serializedVersion: 2
        time: 0.5
        value: -75.5
        inSlope: -169.875
        outSlope: -169.875
        tangentMode: 34
      - serializedVersion: 2
        time: 0.76666665
        value: -59.9
        inSlope: 29.249998
        outSlope: 29.249998
        tangentMode: 34
      - serializedVersion: 2
        time: 0.96666664
        value: -59.9
        inSlope: 0
        outSlope: 0
        tangentMode: 34
      m_PreInfinity: 2
      m_PostInfinity: 2
      m_RotationOrder: 4
    attribute: localEulerAnglesRaw.z
    path: SpineBone/LegBone_R/LowerLegBone_R
    classID: 4
    script: {fileID: 0}
  - curve:
      serializedVersion: 2
      m_Curve:
      - serializedVersion: 2
        time: 0.033333335
        value: 0
        inSlope: 9.099999
        outSlope: 9.099999
        tangentMode: 34
      - serializedVersion: 2
        time: 0.13333334
        value: 0.91
        inSlope: 4.5499997
        outSlope: 4.5499997
        tangentMode: 34
      - serializedVersion: 2
        time: 0.36666667
        value: 0.91
        inSlope: -3.4125004
        outSlope: -3.4125004
        tangentMode: 34
      - serializedVersion: 2
        time: 0.5
        value: 0
        inSlope: -3.4125004
        outSlope: -3.4125004
        tangentMode: 34
      - serializedVersion: 2
        time: 0.76666665
        value: 0
        inSlope: 0
        outSlope: 0
        tangentMode: 34
      - serializedVersion: 2
        time: 0.96666664
        value: 0
        inSlope: 0
        outSlope: 0
        tangentMode: 34
      m_PreInfinity: 2
      m_PostInfinity: 2
      m_RotationOrder: 4
    attribute: m_LocalPosition.x
    path: 
    classID: 4
    script: {fileID: 0}
  - curve:
      serializedVersion: 2
      m_Curve:
      - serializedVersion: 2
        time: 0.033333335
        value: -0.33
        inSlope: 5.972473
        outSlope: 5.972473
        tangentMode: 34
      - serializedVersion: 2
        time: 0.1
        value: 0.06816484
        inSlope: 2.113764
        outSlope: 2.113764
        tangentMode: 34
      - serializedVersion: 2
        time: 0.13333334
        value: 0.01
        inSlope: -0.87247247
        outSlope: -0.87247247
        tangentMode: 34
      - serializedVersion: 2
        time: 0.36666667
        value: 0.01
        inSlope: -0.015511956
        outSlope: -0.015511956
        tangentMode: 34
      - serializedVersion: 2
        time: 0.43333334
        value: 0.007931739
        inSlope: -2.5500002
        outSlope: -2.5500002
        tangentMode: 34
      - serializedVersion: 2
        time: 0.5
        value: -0.33
        inSlope: -2.046988
        outSlope: -2.046988
        tangentMode: 34
      - serializedVersion: 2
        time: 0.76666665
        value: -0.07
        inSlope: 0.48750007
        outSlope: 0.48750007
        tangentMode: 34
      - serializedVersion: 2
        time: 0.96666664
        value: -0.07
        inSlope: 0
        outSlope: 0
        tangentMode: 34
      m_PreInfinity: 2
      m_PostInfinity: 2
      m_RotationOrder: 4
    attribute: m_LocalPosition.y
    path: 
    classID: 4
    script: {fileID: 0}
  - curve:
      serializedVersion: 2
      m_Curve:
      - serializedVersion: 2
        time: 0.033333335
        value: 0
        inSlope: 0
        outSlope: 0
        tangentMode: 34
      - serializedVersion: 2
        time: 0.13333334
        value: 0
        inSlope: 0
        outSlope: 0
        tangentMode: 34
      - serializedVersion: 2
        time: 0.36666667
        value: 0
        inSlope: 0
        outSlope: 0
        tangentMode: 34
      - serializedVersion: 2
        time: 0.5
        value: 0
        inSlope: 0
        outSlope: 0
        tangentMode: 34
      - serializedVersion: 2
        time: 0.76666665
        value: 0
        inSlope: 0
        outSlope: 0
        tangentMode: 34
      - serializedVersion: 2
        time: 0.96666664
        value: 0
        inSlope: 0
        outSlope: 0
        tangentMode: 34
      m_PreInfinity: 2
      m_PostInfinity: 2
      m_RotationOrder: 4
    attribute: m_LocalPosition.z
    path: 
    classID: 4
    script: {fileID: 0}
  - curve:
      serializedVersion: 2
      m_Curve:
      - serializedVersion: 2
        time: 0
        value: 0
        inSlope: 0
        outSlope: 0
        tangentMode: 34
      - serializedVersion: 2
        time: 0.033333335
        value: 0
        inSlope: 0
        outSlope: 0
        tangentMode: 34
      - serializedVersion: 2
        time: 0.06666667
        value: 0
        inSlope: 0
        outSlope: 0
        tangentMode: 34
      - serializedVersion: 2
        time: 0.13333334
        value: 0
        inSlope: 0
        outSlope: 0
        tangentMode: 34
      - serializedVersion: 2
        time: 0.2
        value: 0
        inSlope: 0
        outSlope: 0
        tangentMode: 34
      - serializedVersion: 2
        time: 0.26666668
        value: 0
        inSlope: 0
        outSlope: 0
        tangentMode: 34
      - serializedVersion: 2
        time: 0.36666667
        value: 0
        inSlope: 0
        outSlope: 0
        tangentMode: 34
      - serializedVersion: 2
        time: 0.5
        value: 0
        inSlope: 0
        outSlope: 0
        tangentMode: 34
      - serializedVersion: 2
        time: 0.76666665
        value: 0
        inSlope: 0
        outSlope: 0
        tangentMode: 34
      m_PreInfinity: 2
      m_PostInfinity: 2
      m_RotationOrder: 4
    attribute: localEulerAnglesRaw.x
    path: SpineBone/ArmBone_R/LowerArmBone_R/WeaponBone
    classID: 4
    script: {fileID: 0}
  - curve:
      serializedVersion: 2
      m_Curve:
      - serializedVersion: 2
        time: 0
        value: 0
        inSlope: 0
        outSlope: 0
        tangentMode: 34
      - serializedVersion: 2
        time: 0.033333335
        value: 0
        inSlope: 0
        outSlope: 0
        tangentMode: 34
      - serializedVersion: 2
        time: 0.06666667
        value: 0
        inSlope: 0
        outSlope: 0
        tangentMode: 34
      - serializedVersion: 2
        time: 0.13333334
        value: 0
        inSlope: 0
        outSlope: 0
        tangentMode: 34
      - serializedVersion: 2
        time: 0.2
        value: 0
        inSlope: 0
        outSlope: 0
        tangentMode: 34
      - serializedVersion: 2
        time: 0.26666668
        value: 0
        inSlope: 0
        outSlope: 0
        tangentMode: 34
      - serializedVersion: 2
        time: 0.36666667
        value: 0
        inSlope: 0
        outSlope: 0
        tangentMode: 34
      - serializedVersion: 2
        time: 0.5
        value: 0
        inSlope: 0
        outSlope: 0
        tangentMode: 34
      - serializedVersion: 2
        time: 0.76666665
        value: 0
        inSlope: 0
        outSlope: 0
        tangentMode: 34
      m_PreInfinity: 2
      m_PostInfinity: 2
      m_RotationOrder: 4
    attribute: localEulerAnglesRaw.y
    path: SpineBone/ArmBone_R/LowerArmBone_R/WeaponBone
    classID: 4
    script: {fileID: 0}
  - curve:
      serializedVersion: 2
      m_Curve:
      - serializedVersion: 2
        time: 0
        value: 72.4
        inSlope: -2090.4
        outSlope: -2090.4
        tangentMode: 34
      - serializedVersion: 2
        time: 0.033333335
        value: 2.72
        inSlope: -550.5
        outSlope: -550.5
        tangentMode: 34
      - serializedVersion: 2
        time: 0.06666667
        value: 35.7
        inSlope: 845.69995
        outSlope: 845.69995
        tangentMode: 34
      - serializedVersion: 2
        time: 0.13333334
        value: 82.5
        inSlope: 455.25
        outSlope: 455.25
        tangentMode: 34
      - serializedVersion: 2
        time: 0.2
        value: 96.4
        inSlope: 101.775
        outSlope: 101.775
        tangentMode: 34
      - serializedVersion: 2
        time: 0.26666668
        value: 96.07
        inSlope: -72.82502
        outSlope: -72.82502
        tangentMode: 34
      - serializedVersion: 2
        time: 0.36666667
        value: 82
        inSlope: -298.35004
        outSlope: -298.35004
        tangentMode: 34
      - serializedVersion: 2
        time: 0.5
        value: 21.2
        inSlope: -156.91876
        outSlope: -156.91876
        tangentMode: 34
      - serializedVersion: 2
        time: 0.76666665
        value: 59.11
        inSlope: 142.1625
        outSlope: 142.1625
        tangentMode: 34
      m_PreInfinity: 2
      m_PostInfinity: 2
      m_RotationOrder: 4
    attribute: localEulerAnglesRaw.z
    path: SpineBone/ArmBone_R/LowerArmBone_R/WeaponBone
    classID: 4
    script: {fileID: 0}
  - curve:
      serializedVersion: 2
      m_Curve:
      - serializedVersion: 2
        time: 0
        value: 0.18
        inSlope: -5.4
        outSlope: -5.4
        tangentMode: 34
      - serializedVersion: 2
        time: 0.033333335
        value: -0
        inSlope: -1.2
        outSlope: -1.2
        tangentMode: 34
      - serializedVersion: 2
        time: 0.06666667
        value: 0.1
        inSlope: 2.1
        outSlope: 2.1
        tangentMode: 34
      - serializedVersion: 2
        time: 0.13333334
        value: 0.18
        inSlope: 0.49285716
        outSlope: 0.49285716
        tangentMode: 34
      - serializedVersion: 2
        time: 0.36666667
        value: 0.13
        inSlope: -0.48214287
        outSlope: -0.48214287
        tangentMode: 34
      - serializedVersion: 2
        time: 0.5
        value: 0.03
        inSlope: -0.11249998
        outSlope: -0.11249998
        tangentMode: 34
      - serializedVersion: 2
        time: 0.76666665
        value: 0.17
        inSlope: 0.52500004
        outSlope: 0.52500004
        tangentMode: 34
      m_PreInfinity: 2
      m_PostInfinity: 2
      m_RotationOrder: 4
    attribute: m_LocalPosition.x
    path: SpineBone/ArmBone_R/LowerArmBone_R/WeaponBone
    classID: 4
    script: {fileID: 0}
  - curve:
      serializedVersion: 2
      m_Curve:
      - serializedVersion: 2
        time: 0
        value: 0.52
        inSlope: -8.099999
        outSlope: -8.099999
        tangentMode: 34
      - serializedVersion: 2
        time: 0.033333335
        value: 0.25
        inSlope: -2.2499998
        outSlope: -2.2499998
        tangentMode: 34
      - serializedVersion: 2
        time: 0.06666667
        value: 0.37
        inSlope: 2.9999995
        outSlope: 2.9999995
        tangentMode: 34
      - serializedVersion: 2
        time: 0.13333334
        value: 0.53
        inSlope: 1.2214284
        outSlope: 1.2214284
        tangentMode: 34
      - serializedVersion: 2
        time: 0.36666667
        value: 0.54
        inSlope: -0.69107145
        outSlope: -0.69107145
        tangentMode: 34
      - serializedVersion: 2
        time: 0.5
        value: 0.35
        inSlope: -0.60000014
        outSlope: -0.60000014
        tangentMode: 34
      - serializedVersion: 2
        time: 0.76666665
        value: 0.41
        inSlope: 0.22500002
        outSlope: 0.22500002
        tangentMode: 34
      m_PreInfinity: 2
      m_PostInfinity: 2
      m_RotationOrder: 4
    attribute: m_LocalPosition.y
    path: SpineBone/ArmBone_R/LowerArmBone_R/WeaponBone
    classID: 4
    script: {fileID: 0}
  - curve:
      serializedVersion: 2
      m_Curve:
      - serializedVersion: 2
        time: 0
        value: 0
        inSlope: 0
        outSlope: 0
        tangentMode: 34
      - serializedVersion: 2
        time: 0.033333335
        value: 0
        inSlope: 0
        outSlope: 0
        tangentMode: 34
      - serializedVersion: 2
        time: 0.06666667
        value: 0
        inSlope: 0
        outSlope: 0
        tangentMode: 34
      - serializedVersion: 2
        time: 0.13333334
        value: 0
        inSlope: 0
        outSlope: 0
        tangentMode: 34
      - serializedVersion: 2
        time: 0.36666667
        value: 0
        inSlope: 0
        outSlope: 0
        tangentMode: 34
      - serializedVersion: 2
        time: 0.5
        value: 0
        inSlope: 0
        outSlope: 0
        tangentMode: 34
      - serializedVersion: 2
        time: 0.76666665
        value: 0
        inSlope: 0
        outSlope: 0
        tangentMode: 34
      m_PreInfinity: 2
      m_PostInfinity: 2
      m_RotationOrder: 4
    attribute: m_LocalPosition.z
    path: SpineBone/ArmBone_R/LowerArmBone_R/WeaponBone
    classID: 4
    script: {fileID: 0}
  m_EulerEditorCurves:
  - curve:
      serializedVersion: 2
      m_Curve: []
      m_PreInfinity: 2
      m_PostInfinity: 2
      m_RotationOrder: 4
    attribute: m_LocalEulerAngles.z
    path: SpineBone/ArmBone_L
    classID: 4
    script: {fileID: 0}
  - curve:
      serializedVersion: 2
      m_Curve: []
      m_PreInfinity: 2
      m_PostInfinity: 2
      m_RotationOrder: 4
    attribute: m_LocalEulerAngles.y
    path: SpineBone/ArmBone_L
    classID: 4
    script: {fileID: 0}
  - curve:
      serializedVersion: 2
      m_Curve: []
      m_PreInfinity: 2
      m_PostInfinity: 2
      m_RotationOrder: 4
    attribute: m_LocalEulerAngles.x
    path: SpineBone/ArmBone_L
    classID: 4
    script: {fileID: 0}
  - curve:
      serializedVersion: 2
      m_Curve: []
      m_PreInfinity: 2
      m_PostInfinity: 2
      m_RotationOrder: 4
    attribute: m_LocalEulerAngles.z
    path: SpineBone
    classID: 4
    script: {fileID: 0}
  - curve:
      serializedVersion: 2
      m_Curve: []
      m_PreInfinity: 2
      m_PostInfinity: 2
      m_RotationOrder: 4
    attribute: m_LocalEulerAngles.y
    path: SpineBone
    classID: 4
    script: {fileID: 0}
  - curve:
      serializedVersion: 2
      m_Curve: []
      m_PreInfinity: 2
      m_PostInfinity: 2
      m_RotationOrder: 4
    attribute: m_LocalEulerAngles.x
    path: SpineBone
    classID: 4
    script: {fileID: 0}
  - curve:
      serializedVersion: 2
      m_Curve: []
      m_PreInfinity: 2
      m_PostInfinity: 2
      m_RotationOrder: 4
    attribute: m_LocalEulerAngles.z
    path: SpineBone/LegBone_L/LowerLegBone_L
    classID: 4
    script: {fileID: 0}
  - curve:
      serializedVersion: 2
      m_Curve: []
      m_PreInfinity: 2
      m_PostInfinity: 2
      m_RotationOrder: 4
    attribute: m_LocalEulerAngles.y
    path: SpineBone/LegBone_L/LowerLegBone_L
    classID: 4
    script: {fileID: 0}
  - curve:
      serializedVersion: 2
      m_Curve: []
      m_PreInfinity: 2
      m_PostInfinity: 2
      m_RotationOrder: 4
    attribute: m_LocalEulerAngles.x
    path: SpineBone/LegBone_L/LowerLegBone_L
    classID: 4
    script: {fileID: 0}
  - curve:
      serializedVersion: 2
      m_Curve: []
      m_PreInfinity: 2
      m_PostInfinity: 2
      m_RotationOrder: 4
    attribute: m_LocalEulerAngles.z
    path: SpineBone/LegBone_L
    classID: 4
    script: {fileID: 0}
  - curve:
      serializedVersion: 2
      m_Curve: []
      m_PreInfinity: 2
      m_PostInfinity: 2
      m_RotationOrder: 4
    attribute: m_LocalEulerAngles.y
    path: SpineBone/LegBone_L
    classID: 4
    script: {fileID: 0}
  - curve:
      serializedVersion: 2
      m_Curve: []
      m_PreInfinity: 2
      m_PostInfinity: 2
      m_RotationOrder: 4
    attribute: m_LocalEulerAngles.x
    path: SpineBone/LegBone_L
    classID: 4
    script: {fileID: 0}
  - curve:
      serializedVersion: 2
      m_Curve: []
      m_PreInfinity: 2
      m_PostInfinity: 2
      m_RotationOrder: 4
    attribute: m_LocalEulerAngles.z
    path: SpineBone/ArmBone_R/LowerArmBone_R
    classID: 4
    script: {fileID: 0}
  - curve:
      serializedVersion: 2
      m_Curve: []
      m_PreInfinity: 2
      m_PostInfinity: 2
      m_RotationOrder: 4
    attribute: m_LocalEulerAngles.y
    path: SpineBone/ArmBone_R/LowerArmBone_R
    classID: 4
    script: {fileID: 0}
  - curve:
      serializedVersion: 2
      m_Curve: []
      m_PreInfinity: 2
      m_PostInfinity: 2
      m_RotationOrder: 4
    attribute: m_LocalEulerAngles.x
    path: SpineBone/ArmBone_R/LowerArmBone_R
    classID: 4
    script: {fileID: 0}
  - curve:
      serializedVersion: 2
      m_Curve: []
      m_PreInfinity: 2
      m_PostInfinity: 2
      m_RotationOrder: 4
    attribute: m_LocalEulerAngles.z
    path: SpineBone/LegBone_R/LowerLegBone_R
    classID: 4
    script: {fileID: 0}
  - curve:
      serializedVersion: 2
      m_Curve: []
      m_PreInfinity: 2
      m_PostInfinity: 2
      m_RotationOrder: 4
    attribute: m_LocalEulerAngles.y
    path: SpineBone/LegBone_R/LowerLegBone_R
    classID: 4
    script: {fileID: 0}
  - curve:
      serializedVersion: 2
      m_Curve: []
      m_PreInfinity: 2
      m_PostInfinity: 2
      m_RotationOrder: 4
    attribute: m_LocalEulerAngles.x
    path: SpineBone/LegBone_R/LowerLegBone_R
    classID: 4
    script: {fileID: 0}
  - curve:
      serializedVersion: 2
      m_Curve: []
      m_PreInfinity: 2
      m_PostInfinity: 2
      m_RotationOrder: 4
    attribute: m_LocalEulerAngles.z
    path: SpineBone/LegBone_R
    classID: 4
    script: {fileID: 0}
  - curve:
      serializedVersion: 2
      m_Curve: []
      m_PreInfinity: 2
      m_PostInfinity: 2
      m_RotationOrder: 4
    attribute: m_LocalEulerAngles.y
    path: SpineBone/LegBone_R
    classID: 4
    script: {fileID: 0}
  - curve:
      serializedVersion: 2
      m_Curve: []
      m_PreInfinity: 2
      m_PostInfinity: 2
      m_RotationOrder: 4
    attribute: m_LocalEulerAngles.x
    path: SpineBone/LegBone_R
    classID: 4
    script: {fileID: 0}
  - curve:
      serializedVersion: 2
      m_Curve: []
      m_PreInfinity: 2
      m_PostInfinity: 2
      m_RotationOrder: 4
    attribute: m_LocalEulerAngles.z
    path: SpineBone/ArmBone_R
    classID: 4
    script: {fileID: 0}
  - curve:
      serializedVersion: 2
      m_Curve: []
      m_PreInfinity: 2
      m_PostInfinity: 2
      m_RotationOrder: 4
    attribute: m_LocalEulerAngles.y
    path: SpineBone/ArmBone_R
    classID: 4
    script: {fileID: 0}
  - curve:
      serializedVersion: 2
      m_Curve: []
      m_PreInfinity: 2
      m_PostInfinity: 2
      m_RotationOrder: 4
    attribute: m_LocalEulerAngles.x
    path: SpineBone/ArmBone_R
    classID: 4
    script: {fileID: 0}
  - curve:
      serializedVersion: 2
      m_Curve: []
      m_PreInfinity: 2
      m_PostInfinity: 2
      m_RotationOrder: 4
    attribute: m_LocalEulerAngles.z
    path: SpineBone/ArmBone_L/LowerArmBone_L
    classID: 4
    script: {fileID: 0}
  - curve:
      serializedVersion: 2
      m_Curve: []
      m_PreInfinity: 2
      m_PostInfinity: 2
      m_RotationOrder: 4
    attribute: m_LocalEulerAngles.y
    path: SpineBone/ArmBone_L/LowerArmBone_L
    classID: 4
    script: {fileID: 0}
  - curve:
      serializedVersion: 2
      m_Curve: []
      m_PreInfinity: 2
      m_PostInfinity: 2
      m_RotationOrder: 4
    attribute: m_LocalEulerAngles.x
    path: SpineBone/ArmBone_L/LowerArmBone_L
    classID: 4
    script: {fileID: 0}
  - curve:
      serializedVersion: 2
      m_Curve: []
      m_PreInfinity: 2
      m_PostInfinity: 2
      m_RotationOrder: 4
    attribute: m_LocalEulerAngles.x
    path: SpineBone/ArmBone_R/LowerArmBone_R/WeaponBone
    classID: 4
    script: {fileID: 0}
  - curve:
      serializedVersion: 2
      m_Curve: []
      m_PreInfinity: 2
      m_PostInfinity: 2
      m_RotationOrder: 4
    attribute: m_LocalEulerAngles.y
    path: SpineBone/ArmBone_R/LowerArmBone_R/WeaponBone
    classID: 4
    script: {fileID: 0}
  - curve:
      serializedVersion: 2
      m_Curve: []
      m_PreInfinity: 2
      m_PostInfinity: 2
      m_RotationOrder: 4
    attribute: m_LocalEulerAngles.z
    path: SpineBone/ArmBone_R/LowerArmBone_R/WeaponBone
    classID: 4
    script: {fileID: 0}
  m_HasGenericRootTransform: 1
  m_HasMotionFloatCurves: 0
  m_GenerateMotionCurves: 0
  m_Events: []
