%YAML 1.1
%TAG !u! tag:unity3d.com,2011:
--- !u!74 &7400000
AnimationClip:
  m_ObjectHideFlags: 0
  m_PrefabParentObject: {fileID: 0}
  m_PrefabInternal: {fileID: 0}
  m_Name: walk2
  serializedVersion: 6
  m_Legacy: 0
  m_Compressed: 0
  m_UseHighQualityCurve: 1
  m_RotationCurves: []
  m_CompressedRotationCurves: []
  m_EulerCurves:
  - curve:
      serializedVersion: 2
      m_Curve:
      - serializedVersion: 2
        time: 0
        value: {x: 0, y: 0, z: 173.40906}
        inSlope: {x: 0, y: 0, z: 217.04634}
        outSlope: {x: 0, y: 0, z: 217.04634}
        tangentMode: 0
      - serializedVersion: 2
        time: 0.06666667
        value: {x: 0, y: 0, z: 187.87881}
        inSlope: {x: 0, y: 0, z: 179.76619}
        outSlope: {x: 0, y: 0, z: 179.76619}
        tangentMode: 0
      - serializedVersion: 2
        time: 0.13333334
        value: {x: 0, y: 0, z: 197.37788}
        inSlope: {x: 0, y: 0, z: 127.53021}
        outSlope: {x: 0, y: 0, z: 127.53021}
        tangentMode: 0
      - serializedVersion: 2
        time: 0.2
        value: {x: 0, y: 0, z: 204.88284}
        inSlope: {x: 0, y: 0, z: 87.47063}
        outSlope: {x: 0, y: 0, z: 87.47063}
        tangentMode: 0
      - serializedVersion: 2
        time: 0.26666668
        value: {x: 0, y: 0, z: 209.04063}
        inSlope: {x: 0, y: 0, z: 42.87872}
        outSlope: {x: 0, y: 0, z: 42.87872}
        tangentMode: 0
      - serializedVersion: 2
        time: 0.33333334
        value: {x: 0, y: 0, z: 210.6}
        inSlope: {x: 0, y: 0, z: -34.05476}
        outSlope: {x: 0, y: 0, z: -34.05476}
        tangentMode: 0
      - serializedVersion: 2
        time: 0.4
        value: {x: 0, y: 0, z: 204.5}
        inSlope: {x: 0, y: 0, z: -165.89952}
        outSlope: {x: 0, y: 0, z: -165.89952}
        tangentMode: 0
      - serializedVersion: 2
        time: 0.46666667
        value: {x: 0, y: 0, z: 188.48007}
        inSlope: {x: 0, y: 0, z: -196.43118}
        outSlope: {x: 0, y: 0, z: -196.43118}
        tangentMode: 0
      - serializedVersion: 2
        time: 0.53333336
        value: {x: 0, y: 0, z: 178.30917}
        inSlope: {x: 0, y: 0, z: -145.2968}
        outSlope: {x: 0, y: 0, z: -145.2968}
        tangentMode: 0
      - serializedVersion: 2
        time: 0.6
        value: {x: 0, y: 0, z: 169.10716}
        inSlope: {x: 0, y: 0, z: -103.63222}
        outSlope: {x: 0, y: 0, z: -103.63222}
        tangentMode: 0
      - serializedVersion: 2
        time: 0.6666667
        value: {x: 0, y: 0, z: 164.49155}
        inSlope: {x: 0, y: 0, z: -22.1489}
        outSlope: {x: 0, y: 0, z: -22.1489}
        tangentMode: 0
      - serializedVersion: 2
        time: 0.73333335
        value: {x: 0, y: 0, z: 166.15398}
        inSlope: {x: 0, y: 0, z: 66.88134}
        outSlope: {x: 0, y: 0, z: 66.88134}
        tangentMode: 0
      - serializedVersion: 2
        time: 0.8
        value: {x: 0, y: 0, z: 173.40906}
        inSlope: {x: 0, y: 0, z: 108.826225}
        outSlope: {x: 0, y: 0, z: 108.826225}
        tangentMode: 0
      m_PreInfinity: 2
      m_PostInfinity: 2
      m_RotationOrder: 4
    path: SpineBone/LegBone_L
  - curve:
      serializedVersion: 2
      m_Curve:
      - serializedVersion: 2
        time: 0
        value: {x: 0, y: 0, z: -155.3591}
        inSlope: {x: 0, y: 0, z: -231.00012}
        outSlope: {x: 0, y: 0, z: -231.00012}
        tangentMode: 0
      - serializedVersion: 2
        time: 0.06666667
        value: {x: 0, y: 0, z: -170.75911}
        inSlope: {x: 0, y: 0, z: -186.64008}
        outSlope: {x: 0, y: 0, z: -186.64008}
        tangentMode: 0
      - serializedVersion: 2
        time: 0.13333334
        value: {x: 0, y: 0, z: -180.24445}
        inSlope: {x: 0, y: 0, z: -141.93628}
        outSlope: {x: 0, y: 0, z: -141.93628}
        tangentMode: 0
      - serializedVersion: 2
        time: 0.2
        value: {x: 0, y: 0, z: -189.68394}
        inSlope: {x: 0, y: 0, z: -95.030365}
        outSlope: {x: 0, y: 0, z: -95.030365}
        tangentMode: 0
      - serializedVersion: 2
        time: 0.26666668
        value: {x: 0, y: 0, z: -192.91516}
        inSlope: {x: 0, y: 0, z: 19.961136}
        outSlope: {x: 0, y: 0, z: 19.961136}
        tangentMode: 0
      - serializedVersion: 2
        time: 0.33333334
        value: {x: 0, y: 0, z: -187.02246}
        inSlope: {x: 0, y: 0, z: 120.41325}
        outSlope: {x: 0, y: 0, z: 120.41325}
        tangentMode: 0
      - serializedVersion: 2
        time: 0.4
        value: {x: 0, y: 0, z: -176.86006}
        inSlope: {x: 0, y: 0, z: 158.72522}
        outSlope: {x: 0, y: 0, z: 158.72522}
        tangentMode: 0
      - serializedVersion: 2
        time: 0.46666667
        value: {x: 0, y: 0, z: -165.8591}
        inSlope: {x: 0, y: 0, z: 183.71861}
        outSlope: {x: 0, y: 0, z: 183.71861}
        tangentMode: 0
      - serializedVersion: 2
        time: 0.53333336
        value: {x: 0, y: 0, z: -152.36424}
        inSlope: {x: 0, y: 0, z: 162.90685}
        outSlope: {x: 0, y: 0, z: 162.90685}
        tangentMode: 0
      - serializedVersion: 2
        time: 0.6
        value: {x: 0, y: 0, z: -144.13818}
        inSlope: {x: 0, y: 0, z: 68.42927}
        outSlope: {x: 0, y: 0, z: 68.42927}
        tangentMode: 0
      - serializedVersion: 2
        time: 0.6666667
        value: {x: 0, y: 0, z: -143.24034}
        inSlope: {x: 0, y: 0, z: -17.655947}
        outSlope: {x: 0, y: 0, z: -17.655947}
        tangentMode: 0
      - serializedVersion: 2
        time: 0.73333335
        value: {x: 0, y: 0, z: -146.49231}
        inSlope: {x: 0, y: 0, z: -61.413696}
        outSlope: {x: 0, y: 0, z: -61.413696}
        tangentMode: 0
      - serializedVersion: 2
        time: 0.8
        value: {x: 0, y: 0, z: -151.42883}
        inSlope: {x: 0, y: 0, z: -95.978}
        outSlope: {x: 0, y: 0, z: -95.978}
        tangentMode: 0
      - serializedVersion: 2
        time: 0.8333333
        value: {x: 0, y: 0, z: -155.3591}
        inSlope: {x: 0, y: 0, z: -117.908134}
        outSlope: {x: 0, y: 0, z: -117.908134}
        tangentMode: 0
      m_PreInfinity: 2
      m_PostInfinity: 2
      m_RotationOrder: 4
    path: SpineBone/LegBone_R
  - curve:
      serializedVersion: 2
      m_Curve:
      - serializedVersion: 2
        time: 0
        value: {x: 0, y: 0, z: -74.8}
        inSlope: {x: 0, y: 0, z: -139.49992}
        outSlope: {x: 0, y: 0, z: -139.49992}
        tangentMode: 0
      - serializedVersion: 2
        time: 0.06666667
        value: {x: 0, y: 0, z: -84.1}
        inSlope: {x: 0, y: 0, z: -62.99995}
        outSlope: {x: 0, y: 0, z: -62.99995}
        tangentMode: 0
      - serializedVersion: 2
        time: 0.13333334
        value: {x: 0, y: 0, z: -83.2}
        inSlope: {x: 0, y: 0, z: 77.25712}
        outSlope: {x: 0, y: 0, z: 77.25712}
        tangentMode: 0
      - serializedVersion: 2
        time: 0.2
        value: {x: 0, y: 0, z: -73.79905}
        inSlope: {x: 0, y: 0, z: 273.9313}
        outSlope: {x: 0, y: 0, z: 273.9313}
        tangentMode: 0
      - serializedVersion: 2
        time: 0.26666668
        value: {x: 0, y: 0, z: -46.67582}
        inSlope: {x: 0, y: 0, z: 398.53137}
        outSlope: {x: 0, y: 0, z: 398.53137}
        tangentMode: 0
      - serializedVersion: 2
        time: 0.33333334
        value: {x: 0, y: 0, z: -20.661531}
        inSlope: {x: 0, y: 0, z: 280.53845}
        outSlope: {x: 0, y: 0, z: 280.53845}
        tangentMode: 0
      - serializedVersion: 2
        time: 0.4
        value: {x: 0, y: 0, z: -9.270695}
        inSlope: {x: 0, y: 0, z: 58.08732}
        outSlope: {x: 0, y: 0, z: 58.08732}
        tangentMode: 0
      - serializedVersion: 2
        time: 0.46666667
        value: {x: 0, y: 0, z: -12.916556}
        inSlope: {x: 0, y: 0, z: -56.925335}
        outSlope: {x: 0, y: 0, z: -56.925335}
        tangentMode: 0
      - serializedVersion: 2
        time: 0.53333336
        value: {x: 0, y: 0, z: -16.86074}
        inSlope: {x: 0, y: 0, z: -58.031857}
        outSlope: {x: 0, y: 0, z: -58.031857}
        tangentMode: 0
      - serializedVersion: 2
        time: 0.6
        value: {x: 0, y: 0, z: -20.654139}
        inSlope: {x: 0, y: 0, z: -97.79445}
        outSlope: {x: 0, y: 0, z: -97.79445}
        tangentMode: 0
      - serializedVersion: 2
        time: 0.6666667
        value: {x: 0, y: 0, z: -29.9}
        inSlope: {x: 0, y: 0, z: -277.44507}
        outSlope: {x: 0, y: 0, z: -277.44507}
        tangentMode: 0
      - serializedVersion: 2
        time: 0.73333335
        value: {x: 0, y: 0, z: -57.646812}
        inSlope: {x: 0, y: 0, z: -336.75006}
        outSlope: {x: 0, y: 0, z: -336.75006}
        tangentMode: 0
      - serializedVersion: 2
        time: 0.8
        value: {x: 0, y: 0, z: -74.8}
        inSlope: {x: 0, y: 0, z: -257.29788}
        outSlope: {x: 0, y: 0, z: -257.29788}
        tangentMode: 0
      m_PreInfinity: 2
      m_PostInfinity: 2
      m_RotationOrder: 4
    path: SpineBone/LegBone_L/LowerLegBone_L
  - curve:
      serializedVersion: 2
      m_Curve:
      - serializedVersion: 2
        time: 0
        value: {x: 0, y: 0, z: -14.84}
        inSlope: {x: 0, y: 0, z: -12.899994}
        outSlope: {x: 0, y: 0, z: -12.899994}
        tangentMode: 0
      - serializedVersion: 2
        time: 0.06666667
        value: {x: 0, y: 0, z: -15.7}
        inSlope: {x: 0, y: 0, z: -23.081358}
        outSlope: {x: 0, y: 0, z: -23.081358}
        tangentMode: 0
      - serializedVersion: 2
        time: 0.13333334
        value: {x: 0, y: 0, z: -17.917515}
        inSlope: {x: 0, y: 0, z: -35.65605}
        outSlope: {x: 0, y: 0, z: -35.65605}
        tangentMode: 0
      - serializedVersion: 2
        time: 0.2
        value: {x: 0, y: 0, z: -20.45414}
        inSlope: {x: 0, y: 0, z: -75.73567}
        outSlope: {x: 0, y: 0, z: -75.73567}
        tangentMode: 0
      - serializedVersion: 2
        time: 0.26666668
        value: {x: 0, y: 0, z: -28.015606}
        inSlope: {x: 0, y: 0, z: -296.53903}
        outSlope: {x: 0, y: 0, z: -296.53903}
        tangentMode: 0
      - serializedVersion: 2
        time: 0.33333334
        value: {x: 0, y: 0, z: -59.992676}
        inSlope: {x: 0, y: 0, z: -334.03906}
        outSlope: {x: 0, y: 0, z: -334.03906}
        tangentMode: 0
      - serializedVersion: 2
        time: 0.4
        value: {x: 0, y: 0, z: -72.554146}
        inSlope: {x: 0, y: 0, z: -140.19505}
        outSlope: {x: 0, y: 0, z: -140.19505}
        tangentMode: 0
      - serializedVersion: 2
        time: 0.46666667
        value: {x: 0, y: 0, z: -78.68535}
        inSlope: {x: 0, y: 0, z: -16.679092}
        outSlope: {x: 0, y: 0, z: -16.679092}
        tangentMode: 0
      - serializedVersion: 2
        time: 0.53333336
        value: {x: 0, y: 0, z: -74.77802}
        inSlope: {x: 0, y: 0, z: 161.6632}
        outSlope: {x: 0, y: 0, z: 161.6632}
        tangentMode: 0
      - serializedVersion: 2
        time: 0.6
        value: {x: 0, y: 0, z: -57.130257}
        inSlope: {x: 0, y: 0, z: 275.25714}
        outSlope: {x: 0, y: 0, z: 275.25714}
        tangentMode: 0
      - serializedVersion: 2
        time: 0.6666667
        value: {x: 0, y: 0, z: -38.077072}
        inSlope: {x: 0, y: 0, z: 273.172}
        outSlope: {x: 0, y: 0, z: 273.172}
        tangentMode: 0
      - serializedVersion: 2
        time: 0.73333335
        value: {x: 0, y: 0, z: -20.707325}
        inSlope: {x: 0, y: 0, z: 171.00003}
        outSlope: {x: 0, y: 0, z: 171.00003}
        tangentMode: 0
      - serializedVersion: 2
        time: 0.8
        value: {x: 0, y: 0, z: -15.277069}
        inSlope: {x: 0, y: 0, z: 81.45384}
        outSlope: {x: 0, y: 0, z: 81.45384}
        tangentMode: 0
      m_PreInfinity: 2
      m_PostInfinity: 2
      m_RotationOrder: 4
    path: SpineBone/LegBone_R/LowerLegBone_R
  - curve:
      serializedVersion: 2
      m_Curve:
      - serializedVersion: 2
        time: 0
        value: {x: 0, y: 0, z: -195.73534}
        inSlope: {x: 0, y: 0, z: -45.46457}
        outSlope: {x: 0, y: 0, z: -45.46457}
        tangentMode: 0
      - serializedVersion: 2
        time: 0.26666668
        value: {x: 0, y: 0, z: -207.85922}
        inSlope: {x: 0, y: 0, z: 8.704426}
        outSlope: {x: 0, y: 0, z: 8.704426}
        tangentMode: 0
      - serializedVersion: 2
        time: 0.6666667
        value: {x: 0, y: 0, z: -182.70985}
        inSlope: {x: 0, y: 0, z: -6.959652}
        outSlope: {x: 0, y: 0, z: -6.959652}
        tangentMode: 0
      - serializedVersion: 2
        time: 0.8
        value: {x: 0, y: 0, z: -192.94888}
        inSlope: {x: 0, y: 0, z: -89.31827}
        outSlope: {x: 0, y: 0, z: -89.31827}
        tangentMode: 0
      - serializedVersion: 2
        time: 0.8333333
        value: {x: 0, y: 0, z: -196.34367}
        inSlope: {x: 0, y: 0, z: -101.84382}
        outSlope: {x: 0, y: 0, z: -101.84382}
        tangentMode: 0
      m_PreInfinity: 2
      m_PostInfinity: 2
      m_RotationOrder: 4
    path: SpineBone/ArmBone_L
  - curve:
      serializedVersion: 2
      m_Curve:
      - serializedVersion: 2
        time: 0
        value: {x: 0, y: 0, z: -305.49405}
        inSlope: {x: 0, y: 0, z: 32.811928}
        outSlope: {x: 0, y: 0, z: 32.811928}
        tangentMode: 0
      - serializedVersion: 2
        time: 0.26666668
        value: {x: 0, y: 0, z: -296.7442}
        inSlope: {x: 0, y: 0, z: 3.3123589}
        outSlope: {x: 0, y: 0, z: 3.3123589}
        tangentMode: 0
      - serializedVersion: 2
        time: 0.6666667
        value: {x: 0, y: 0, z: -307.2191}
        inSlope: {x: 0, y: 0, z: -5.219497}
        outSlope: {x: 0, y: 0, z: -5.219497}
        tangentMode: 0
      - serializedVersion: 2
        time: 0.8
        value: {x: 0, y: 0, z: -305.11932}
        inSlope: {x: 0, y: 0, z: 15.748216}
        outSlope: {x: 0, y: 0, z: 15.748216}
        tangentMode: 0
      m_PreInfinity: 2
      m_PostInfinity: 2
      m_RotationOrder: 4
    path: SpineBone/ArmBone_L/LowerArmBone_L
  - curve:
      serializedVersion: 2
      m_Curve:
      - serializedVersion: 2
        time: 0
        value: {x: 0, y: 0, z: -217.19672}
        inSlope: {x: 0, y: 0, z: 93.92154}
        outSlope: {x: 0, y: 0, z: 93.92154}
        tangentMode: 0
      - serializedVersion: 2
        time: 0.26666668
        value: {x: 0, y: 0, z: -192.15097}
        inSlope: {x: 0, y: 0, z: 12.900425}
        outSlope: {x: 0, y: 0, z: 12.900425}
        tangentMode: 0
      - serializedVersion: 2
        time: 0.6666667
        value: {x: 0, y: 0, z: -219.39925}
        inSlope: {x: 0, y: 0, z: -41.84576}
        outSlope: {x: 0, y: 0, z: -41.84576}
        tangentMode: 0
      - serializedVersion: 2
        time: 0.8
        value: {x: 0, y: 0, z: -221.47536}
        inSlope: {x: 0, y: 0, z: 42.746708}
        outSlope: {x: 0, y: 0, z: 42.746708}
        tangentMode: 0
      - serializedVersion: 2
        time: 0.8333333
        value: {x: 0, y: 0, z: -218.10655}
        inSlope: {x: 0, y: 0, z: 101.06425}
        outSlope: {x: 0, y: 0, z: 101.06425}
        tangentMode: 0
      m_PreInfinity: 2
      m_PostInfinity: 2
      m_RotationOrder: 4
    path: SpineBone/ArmBone_R
  - curve:
      serializedVersion: 2
      m_Curve:
      - serializedVersion: 2
        time: 0
        value: {x: 0, y: 0, z: 73.67162}
        inSlope: {x: 0, y: 0, z: 0}
        outSlope: {x: 0, y: 0, z: 0}
        tangentMode: 0
      - serializedVersion: 2
        time: 0.033333335
        value: {x: 0, y: 0, z: 73.67162}
        inSlope: {x: 0, y: 0, z: -50.496517}
        outSlope: {x: 0, y: 0, z: -50.496517}
        tangentMode: 0
      - serializedVersion: 2
        time: 0.26666668
        value: {x: 0, y: 0, z: 60.32234}
        inSlope: {x: 0, y: 0, z: -40.424473}
        outSlope: {x: 0, y: 0, z: -40.424473}
        tangentMode: 0
      - serializedVersion: 2
        time: 0.33333334
        value: {x: 0, y: 0, z: 58.522667}
        inSlope: {x: 0, y: 0, z: -11.647142}
        outSlope: {x: 0, y: 0, z: -11.647142}
        tangentMode: 0
      - serializedVersion: 2
        time: 0.6666667
        value: {x: 0, y: 0, z: 67.369606}
        inSlope: {x: 0, y: 0, z: 36.025276}
        outSlope: {x: 0, y: 0, z: 36.025276}
        tangentMode: 0
      - serializedVersion: 2
        time: 0.7
        value: {x: 0, y: 0, z: 68.49682}
        inSlope: {x: 0, y: 0, z: 31.320349}
        outSlope: {x: 0, y: 0, z: 31.320349}
        tangentMode: 0
      - serializedVersion: 2
        time: 0.8333333
        value: {x: 0, y: 0, z: 73.22195}
        inSlope: {x: 0, y: 0, z: 35.438465}
        outSlope: {x: 0, y: 0, z: 35.438465}
        tangentMode: 0
      m_PreInfinity: 2
      m_PostInfinity: 2
      m_RotationOrder: 4
    path: SpineBone/ArmBone_R/LowerArmBone_R
  - curve:
      serializedVersion: 2
      m_Curve:
      - serializedVersion: 2
        time: 0
        value: {x: 0, y: 0, z: -10.9}
        inSlope: {x: 0, y: 0, z: 0}
        outSlope: {x: 0, y: 0, z: 0}
        tangentMode: 0
      m_PreInfinity: 2
      m_PostInfinity: 2
      m_RotationOrder: 4
    path: SpineBone
  m_PositionCurves:
  - curve:
      serializedVersion: 2
      m_Curve:
      - serializedVersion: 2
        time: 0
        value: {x: 0, y: 0.039849654, z: 0}
        inSlope: {x: 0, y: -0.47774476, z: 0}
        outSlope: {x: 0, y: -0.47774476, z: 0}
        tangentMode: 0
      - serializedVersion: 2
        time: 0.06666667
        value: {x: 0, y: 0.008, z: 0}
        inSlope: {x: 0, y: -0.20810737, z: 0}
        outSlope: {x: 0, y: -0.20810737, z: 0}
        tangentMode: 0
      - serializedVersion: 2
        time: 0.13333334
        value: {x: 0, y: 0.012102001, z: 0}
        inSlope: {x: 0, y: 0.08479503, z: 0}
        outSlope: {x: 0, y: 0.08479503, z: 0}
        tangentMode: 0
      - serializedVersion: 2
        time: 0.2
        value: {x: 0, y: 0.019306004, z: 0}
        inSlope: {x: 0, y: 0.5903918, z: 0}
        outSlope: {x: 0, y: 0.5903918, z: 0}
        tangentMode: 0
      - serializedVersion: 2
        time: 0.26666668
        value: {x: 0, y: 0.09082092, z: 0}
        inSlope: {x: 0, y: 0.5255286, z: 0}
        outSlope: {x: 0, y: 0.5255286, z: 0}
        tangentMode: 0
      - serializedVersion: 2
        time: 0.33333334
        value: {x: 0, y: 0.089376494, z: 0}
        inSlope: {x: 0, y: -0.24584194, z: 0}
        outSlope: {x: 0, y: -0.24584194, z: 0}
        tangentMode: 0
      - serializedVersion: 2
        time: 0.4
        value: {x: 0, y: 0.058042, z: 0}
        inSlope: {x: 0, y: -0.58795583, z: 0}
        outSlope: {x: 0, y: -0.58795583, z: 0}
        tangentMode: 0
      - serializedVersion: 2
        time: 0.46666667
        value: {x: 0, y: 0.010982389, z: 0}
        inSlope: {x: 0, y: -0.34454998, z: 0}
        outSlope: {x: 0, y: -0.34454998, z: 0}
        tangentMode: 0
      - serializedVersion: 2
        time: 0.53333336
        value: {x: 0, y: 0.012102002, z: 0}
        inSlope: {x: 0, y: 0.2316644, z: 0}
        outSlope: {x: 0, y: 0.2316644, z: 0}
        tangentMode: 0
      - serializedVersion: 2
        time: 0.6
        value: {x: 0, y: 0.041870974, z: 0}
        inSlope: {x: 0, y: 0.5281044, z: 0}
        outSlope: {x: 0, y: 0.5281044, z: 0}
        tangentMode: 0
      - serializedVersion: 2
        time: 0.6666667
        value: {x: 0, y: 0.082515925, z: 0}
        inSlope: {x: 0, y: 0.2540322, z: 0}
        outSlope: {x: 0, y: 0.2540322, z: 0}
        tangentMode: 0
      - serializedVersion: 2
        time: 0.73333335
        value: {x: 0, y: 0.07574193, z: 0}
        inSlope: {x: 0, y: -0.31999704, z: 0}
        outSlope: {x: 0, y: -0.31999704, z: 0}
        tangentMode: 0
      - serializedVersion: 2
        time: 0.8
        value: {x: 0, y: 0.039849654, z: 0}
        inSlope: {x: 0, y: -0.5383842, z: 0}
        outSlope: {x: 0, y: -0.5383842, z: 0}
        tangentMode: 0
      m_PreInfinity: 2
      m_PostInfinity: 2
      m_RotationOrder: 4
    path: 
  m_ScaleCurves: []
  m_FloatCurves: []
  m_PPtrCurves: []
  m_SampleRate: 30
  m_WrapMode: 0
  m_Bounds:
    m_Center: {x: 0, y: 0, z: 0}
    m_Extent: {x: 0, y: 0, z: 0}
  m_ClipBindingConstant:
    genericBindings:
    - serializedVersion: 2
      path: 0
      attribute: 1
      script: {fileID: 0}
      typeID: 4
      customType: 0
      isPPtrCurve: 0
    - serializedVersion: 2
      path: 592780474
      attribute: 4
      script: {fileID: 0}
      typeID: 4
      customType: 14
      isPPtrCurve: 0
    - serializedVersion: 2
      path: 3646562777
      attribute: 4
      script: {fileID: 0}
      typeID: 4
      customType: 14
      isPPtrCurve: 0
    - serializedVersion: 2
      path: 2017213991
      attribute: 4
      script: {fileID: 0}
      typeID: 4
      customType: 14
      isPPtrCurve: 0
    - serializedVersion: 2
      path: 1150733169
      attribute: 4
      script: {fileID: 0}
      typeID: 4
      customType: 14
      isPPtrCurve: 0
    - serializedVersion: 2
      path: 1350801
      attribute: 4
      script: {fileID: 0}
      typeID: 4
      customType: 14
      isPPtrCurve: 0
    - serializedVersion: 2
      path: 2173405352
      attribute: 4
      script: {fileID: 0}
      typeID: 4
      customType: 14
      isPPtrCurve: 0
    - serializedVersion: 2
      path: 4196114930
      attribute: 4
      script: {fileID: 0}
      typeID: 4
      customType: 14
      isPPtrCurve: 0
    - serializedVersion: 2
      path: 3173088766
      attribute: 4
      script: {fileID: 0}
      typeID: 4
      customType: 14
      isPPtrCurve: 0
    - serializedVersion: 2
      path: 3367282937
      attribute: 4
      script: {fileID: 0}
      typeID: 4
      customType: 14
      isPPtrCurve: 0
    pptrCurveMapping: []
  m_AnimationClipSettings:
    serializedVersion: 2
    m_AdditiveReferencePoseClip: {fileID: 0}
    m_AdditiveReferencePoseTime: 0
    m_StartTime: 0
    m_StopTime: 0.8333333
    m_OrientationOffsetY: 0
    m_Level: 0
    m_CycleOffset: 0
    m_HasAdditiveReferencePose: 0
    m_LoopTime: 1
    m_LoopBlend: 0
    m_LoopBlendOrientation: 0
    m_LoopBlendPositionY: 0
    m_LoopBlendPositionXZ: 0
    m_KeepOriginalOrientation: 0
    m_KeepOriginalPositionY: 1
    m_KeepOriginalPositionXZ: 0
    m_HeightFromFeet: 0
    m_Mirror: 0
  m_EditorCurves:
  - curve:
      serializedVersion: 2
      m_Curve:
      - serializedVersion: 2
        time: 0
        value: 0
        inSlope: 0
        outSlope: 0
        tangentMode: 34
      - serializedVersion: 2
        time: 0.06666667
        value: 0
        inSlope: 0
        outSlope: 0
        tangentMode: 34
      - serializedVersion: 2
        time: 0.13333334
        value: 0
        inSlope: 0
        outSlope: 0
        tangentMode: 34
      - serializedVersion: 2
        time: 0.2
        value: 0
        inSlope: 0
        outSlope: 0
        tangentMode: 34
      - serializedVersion: 2
        time: 0.26666668
        value: 0
        inSlope: 0
        outSlope: 0
        tangentMode: 34
      - serializedVersion: 2
        time: 0.33333334
        value: 0
        inSlope: 0
        outSlope: 0
        tangentMode: 34
      - serializedVersion: 2
        time: 0.4
        value: 0
        inSlope: 0
        outSlope: 0
        tangentMode: 34
      - serializedVersion: 2
        time: 0.46666667
        value: 0
        inSlope: 0
        outSlope: 0
        tangentMode: 34
      - serializedVersion: 2
        time: 0.53333336
        value: 0
        inSlope: 0
        outSlope: 0
        tangentMode: 34
      - serializedVersion: 2
        time: 0.6
        value: 0
        inSlope: 0
        outSlope: 0
        tangentMode: 34
      - serializedVersion: 2
        time: 0.6666667
        value: 0
        inSlope: 0
        outSlope: 0
        tangentMode: 34
      - serializedVersion: 2
        time: 0.73333335
        value: 0
        inSlope: 0
        outSlope: 0
        tangentMode: 34
      - serializedVersion: 2
        time: 0.8
        value: 0
        inSlope: 0
        outSlope: 0
        tangentMode: 34
      m_PreInfinity: 2
      m_PostInfinity: 2
      m_RotationOrder: 4
    attribute: m_LocalPosition.x
    path: 
    classID: 4
    script: {fileID: 0}
  - curve:
      serializedVersion: 2
      m_Curve:
      - serializedVersion: 2
        time: 0
        value: 0.039849654
        inSlope: -0.47774476
        outSlope: -0.47774476
        tangentMode: 34
      - serializedVersion: 2
        time: 0.06666667
        value: 0.008
        inSlope: -0.20810737
        outSlope: -0.20810737
        tangentMode: 34
      - serializedVersion: 2
        time: 0.13333334
        value: 0.012102001
        inSlope: 0.08479503
        outSlope: 0.08479503
        tangentMode: 34
      - serializedVersion: 2
        time: 0.2
        value: 0.019306004
        inSlope: 0.5903918
        outSlope: 0.5903918
        tangentMode: 34
      - serializedVersion: 2
        time: 0.26666668
        value: 0.09082092
        inSlope: 0.5255286
        outSlope: 0.5255286
        tangentMode: 34
      - serializedVersion: 2
        time: 0.33333334
        value: 0.089376494
        inSlope: -0.24584194
        outSlope: -0.24584194
        tangentMode: 34
      - serializedVersion: 2
        time: 0.4
        value: 0.058042
        inSlope: -0.58795583
        outSlope: -0.58795583
        tangentMode: 34
      - serializedVersion: 2
        time: 0.46666667
        value: 0.010982389
        inSlope: -0.34454998
        outSlope: -0.34454998
        tangentMode: 34
      - serializedVersion: 2
        time: 0.53333336
        value: 0.012102002
        inSlope: 0.2316644
        outSlope: 0.2316644
        tangentMode: 34
      - serializedVersion: 2
        time: 0.6
        value: 0.041870974
        inSlope: 0.5281044
        outSlope: 0.5281044
        tangentMode: 34
      - serializedVersion: 2
        time: 0.6666667
        value: 0.082515925
        inSlope: 0.2540322
        outSlope: 0.2540322
        tangentMode: 34
      - serializedVersion: 2
        time: 0.73333335
        value: 0.07574193
        inSlope: -0.31999704
        outSlope: -0.31999704
        tangentMode: 34
      - serializedVersion: 2
        time: 0.8
        value: 0.039849654
        inSlope: -0.5383842
        outSlope: -0.5383842
        tangentMode: 34
      m_PreInfinity: 2
      m_PostInfinity: 2
      m_RotationOrder: 4
    attribute: m_LocalPosition.y
    path: 
    classID: 4
    script: {fileID: 0}
  - curve:
      serializedVersion: 2
      m_Curve:
      - serializedVersion: 2
        time: 0
        value: 0
        inSlope: 0
        outSlope: 0
        tangentMode: 34
      - serializedVersion: 2
        time: 0.06666667
        value: 0
        inSlope: 0
        outSlope: 0
        tangentMode: 34
      - serializedVersion: 2
        time: 0.13333334
        value: 0
        inSlope: 0
        outSlope: 0
        tangentMode: 34
      - serializedVersion: 2
        time: 0.2
        value: 0
        inSlope: 0
        outSlope: 0
        tangentMode: 34
      - serializedVersion: 2
        time: 0.26666668
        value: 0
        inSlope: 0
        outSlope: 0
        tangentMode: 34
      - serializedVersion: 2
        time: 0.33333334
        value: 0
        inSlope: 0
        outSlope: 0
        tangentMode: 34
      - serializedVersion: 2
        time: 0.4
        value: 0
        inSlope: 0
        outSlope: 0
        tangentMode: 34
      - serializedVersion: 2
        time: 0.46666667
        value: 0
        inSlope: 0
        outSlope: 0
        tangentMode: 34
      - serializedVersion: 2
        time: 0.53333336
        value: 0
        inSlope: 0
        outSlope: 0
        tangentMode: 34
      - serializedVersion: 2
        time: 0.6
        value: 0
        inSlope: 0
        outSlope: 0
        tangentMode: 34
      - serializedVersion: 2
        time: 0.6666667
        value: 0
        inSlope: 0
        outSlope: 0
        tangentMode: 34
      - serializedVersion: 2
        time: 0.73333335
        value: 0
        inSlope: 0
        outSlope: 0
        tangentMode: 34
      - serializedVersion: 2
        time: 0.8
        value: 0
        inSlope: 0
        outSlope: 0
        tangentMode: 34
      m_PreInfinity: 2
      m_PostInfinity: 2
      m_RotationOrder: 4
    attribute: m_LocalPosition.z
    path: 
    classID: 4
    script: {fileID: 0}
  - curve:
      serializedVersion: 2
      m_Curve:
      - serializedVersion: 2
        time: 0
        value: 0
        inSlope: 0
        outSlope: 0
        tangentMode: 34
      - serializedVersion: 2
        time: 0.06666667
        value: 0
        inSlope: 0
        outSlope: 0
        tangentMode: 34
      - serializedVersion: 2
        time: 0.13333334
        value: 0
        inSlope: 0
        outSlope: 0
        tangentMode: 34
      - serializedVersion: 2
        time: 0.2
        value: 0
        inSlope: 0
        outSlope: 0
        tangentMode: 34
      - serializedVersion: 2
        time: 0.26666668
        value: 0
        inSlope: 0
        outSlope: 0
        tangentMode: 34
      - serializedVersion: 2
        time: 0.33333334
        value: 0
        inSlope: 0
        outSlope: 0
        tangentMode: 34
      - serializedVersion: 2
        time: 0.4
        value: 0
        inSlope: 0
        outSlope: 0
        tangentMode: 34
      - serializedVersion: 2
        time: 0.46666667
        value: 0
        inSlope: 0
        outSlope: 0
        tangentMode: 34
      - serializedVersion: 2
        time: 0.53333336
        value: 0
        inSlope: 0
        outSlope: 0
        tangentMode: 34
      - serializedVersion: 2
        time: 0.6
        value: 0
        inSlope: 0
        outSlope: 0
        tangentMode: 34
      - serializedVersion: 2
        time: 0.6666667
        value: 0
        inSlope: 0
        outSlope: 0
        tangentMode: 34
      - serializedVersion: 2
        time: 0.73333335
        value: 0
        inSlope: 0
        outSlope: 0
        tangentMode: 34
      - serializedVersion: 2
        time: 0.8
        value: 0
        inSlope: 0
        outSlope: 0
        tangentMode: 34
      m_PreInfinity: 2
      m_PostInfinity: 2
      m_RotationOrder: 4
    attribute: localEulerAnglesRaw.x
    path: SpineBone/LegBone_L
    classID: 4
    script: {fileID: 0}
  - curve:
      serializedVersion: 2
      m_Curve:
      - serializedVersion: 2
        time: 0
        value: 0
        inSlope: 0
        outSlope: 0
        tangentMode: 34
      - serializedVersion: 2
        time: 0.06666667
        value: 0
        inSlope: 0
        outSlope: 0
        tangentMode: 34
      - serializedVersion: 2
        time: 0.13333334
        value: 0
        inSlope: 0
        outSlope: 0
        tangentMode: 34
      - serializedVersion: 2
        time: 0.2
        value: 0
        inSlope: 0
        outSlope: 0
        tangentMode: 34
      - serializedVersion: 2
        time: 0.26666668
        value: 0
        inSlope: 0
        outSlope: 0
        tangentMode: 34
      - serializedVersion: 2
        time: 0.33333334
        value: 0
        inSlope: 0
        outSlope: 0
        tangentMode: 34
      - serializedVersion: 2
        time: 0.4
        value: 0
        inSlope: 0
        outSlope: 0
        tangentMode: 34
      - serializedVersion: 2
        time: 0.46666667
        value: 0
        inSlope: 0
        outSlope: 0
        tangentMode: 34
      - serializedVersion: 2
        time: 0.53333336
        value: 0
        inSlope: 0
        outSlope: 0
        tangentMode: 34
      - serializedVersion: 2
        time: 0.6
        value: 0
        inSlope: 0
        outSlope: 0
        tangentMode: 34
      - serializedVersion: 2
        time: 0.6666667
        value: 0
        inSlope: 0
        outSlope: 0
        tangentMode: 34
      - serializedVersion: 2
        time: 0.73333335
        value: 0
        inSlope: 0
        outSlope: 0
        tangentMode: 34
      - serializedVersion: 2
        time: 0.8
        value: 0
        inSlope: 0
        outSlope: 0
        tangentMode: 34
      m_PreInfinity: 2
      m_PostInfinity: 2
      m_RotationOrder: 4
    attribute: localEulerAnglesRaw.y
    path: SpineBone/LegBone_L
    classID: 4
    script: {fileID: 0}
  - curve:
      serializedVersion: 2
      m_Curve:
      - serializedVersion: 2
        time: 0
        value: 173.40906
        inSlope: 217.04634
        outSlope: 217.04634
        tangentMode: 34
      - serializedVersion: 2
        time: 0.06666667
        value: 187.87881
        inSlope: 179.76619
        outSlope: 179.76619
        tangentMode: 34
      - serializedVersion: 2
        time: 0.13333334
        value: 197.37788
        inSlope: 127.53021
        outSlope: 127.53021
        tangentMode: 34
      - serializedVersion: 2
        time: 0.2
        value: 204.88284
        inSlope: 87.47063
        outSlope: 87.47063
        tangentMode: 34
      - serializedVersion: 2
        time: 0.26666668
        value: 209.04063
        inSlope: 42.87872
        outSlope: 42.87872
        tangentMode: 34
      - serializedVersion: 2
        time: 0.33333334
        value: 210.6
        inSlope: -34.05476
        outSlope: -34.05476
        tangentMode: 34
      - serializedVersion: 2
        time: 0.4
        value: 204.5
        inSlope: -165.89952
        outSlope: -165.89952
        tangentMode: 34
      - serializedVersion: 2
        time: 0.46666667
        value: 188.48007
        inSlope: -196.43118
        outSlope: -196.43118
        tangentMode: 34
      - serializedVersion: 2
        time: 0.53333336
        value: 178.30917
        inSlope: -145.2968
        outSlope: -145.2968
        tangentMode: 34
      - serializedVersion: 2
        time: 0.6
        value: 169.10716
        inSlope: -103.63222
        outSlope: -103.63222
        tangentMode: 34
      - serializedVersion: 2
        time: 0.6666667
        value: 164.49155
        inSlope: -22.1489
        outSlope: -22.1489
        tangentMode: 34
      - serializedVersion: 2
        time: 0.73333335
        value: 166.15398
        inSlope: 66.88134
        outSlope: 66.88134
        tangentMode: 34
      - serializedVersion: 2
        time: 0.8
        value: 173.40906
        inSlope: 108.826225
        outSlope: 108.826225
        tangentMode: 34
      m_PreInfinity: 2
      m_PostInfinity: 2
      m_RotationOrder: 4
    attribute: localEulerAnglesRaw.z
    path: SpineBone/LegBone_L
    classID: 4
    script: {fileID: 0}
  - curve:
      serializedVersion: 2
      m_Curve:
      - serializedVersion: 2
        time: 0
        value: 0
        inSlope: 0
        outSlope: 0
        tangentMode: 34
      - serializedVersion: 2
        time: 0.06666667
        value: 0
        inSlope: 0
        outSlope: 0
        tangentMode: 34
      - serializedVersion: 2
        time: 0.13333334
        value: 0
        inSlope: 0
        outSlope: 0
        tangentMode: 34
      - serializedVersion: 2
        time: 0.2
        value: 0
        inSlope: 0
        outSlope: 0
        tangentMode: 34
      - serializedVersion: 2
        time: 0.26666668
        value: 0
        inSlope: 0
        outSlope: 0
        tangentMode: 34
      - serializedVersion: 2
        time: 0.33333334
        value: 0
        inSlope: 0
        outSlope: 0
        tangentMode: 34
      - serializedVersion: 2
        time: 0.4
        value: 0
        inSlope: 0
        outSlope: 0
        tangentMode: 34
      - serializedVersion: 2
        time: 0.46666667
        value: 0
        inSlope: 0
        outSlope: 0
        tangentMode: 34
      - serializedVersion: 2
        time: 0.53333336
        value: 0
        inSlope: 0
        outSlope: 0
        tangentMode: 34
      - serializedVersion: 2
        time: 0.6
        value: 0
        inSlope: 0
        outSlope: 0
        tangentMode: 34
      - serializedVersion: 2
        time: 0.6666667
        value: 0
        inSlope: 0
        outSlope: 0
        tangentMode: 34
      - serializedVersion: 2
        time: 0.73333335
        value: 0
        inSlope: 0
        outSlope: 0
        tangentMode: 34
      - serializedVersion: 2
        time: 0.8
        value: 0
        inSlope: 0
        outSlope: 0
        tangentMode: 34
      m_PreInfinity: 2
      m_PostInfinity: 2
      m_RotationOrder: 4
    attribute: localEulerAnglesRaw.x
    path: SpineBone/LegBone_R
    classID: 4
    script: {fileID: 0}
  - curve:
      serializedVersion: 2
      m_Curve:
      - serializedVersion: 2
        time: 0
        value: 0
        inSlope: 0
        outSlope: 0
        tangentMode: 34
      - serializedVersion: 2
        time: 0.06666667
        value: 0
        inSlope: 0
        outSlope: 0
        tangentMode: 34
      - serializedVersion: 2
        time: 0.13333334
        value: 0
        inSlope: 0
        outSlope: 0
        tangentMode: 34
      - serializedVersion: 2
        time: 0.2
        value: 0
        inSlope: 0
        outSlope: 0
        tangentMode: 34
      - serializedVersion: 2
        time: 0.26666668
        value: 0
        inSlope: 0
        outSlope: 0
        tangentMode: 34
      - serializedVersion: 2
        time: 0.33333334
        value: 0
        inSlope: 0
        outSlope: 0
        tangentMode: 34
      - serializedVersion: 2
        time: 0.4
        value: 0
        inSlope: 0
        outSlope: 0
        tangentMode: 34
      - serializedVersion: 2
        time: 0.46666667
        value: 0
        inSlope: 0
        outSlope: 0
        tangentMode: 34
      - serializedVersion: 2
        time: 0.53333336
        value: 0
        inSlope: 0
        outSlope: 0
        tangentMode: 34
      - serializedVersion: 2
        time: 0.6
        value: 0
        inSlope: 0
        outSlope: 0
        tangentMode: 34
      - serializedVersion: 2
        time: 0.6666667
        value: 0
        inSlope: 0
        outSlope: 0
        tangentMode: 34
      - serializedVersion: 2
        time: 0.73333335
        value: 0
        inSlope: 0
        outSlope: 0
        tangentMode: 34
      - serializedVersion: 2
        time: 0.8
        value: 0
        inSlope: 0
        outSlope: 0
        tangentMode: 34
      m_PreInfinity: 2
      m_PostInfinity: 2
      m_RotationOrder: 4
    attribute: localEulerAnglesRaw.y
    path: SpineBone/LegBone_R
    classID: 4
    script: {fileID: 0}
  - curve:
      serializedVersion: 2
      m_Curve:
      - serializedVersion: 2
        time: 0
        value: -155.3591
        inSlope: -231.00012
        outSlope: -231.00012
        tangentMode: 34
      - serializedVersion: 2
        time: 0.06666667
        value: -170.75911
        inSlope: -186.64008
        outSlope: -186.64008
        tangentMode: 34
      - serializedVersion: 2
        time: 0.13333334
        value: -180.24445
        inSlope: -141.93628
        outSlope: -141.93628
        tangentMode: 34
      - serializedVersion: 2
        time: 0.2
        value: -189.68394
        inSlope: -95.030365
        outSlope: -95.030365
        tangentMode: 34
      - serializedVersion: 2
        time: 0.26666668
        value: -192.91516
        inSlope: 19.961136
        outSlope: 19.961136
        tangentMode: 34
      - serializedVersion: 2
        time: 0.33333334
        value: -187.02246
        inSlope: 120.41325
        outSlope: 120.41325
        tangentMode: 34
      - serializedVersion: 2
        time: 0.4
        value: -176.86006
        inSlope: 158.72522
        outSlope: 158.72522
        tangentMode: 34
      - serializedVersion: 2
        time: 0.46666667
        value: -165.8591
        inSlope: 183.71861
        outSlope: 183.71861
        tangentMode: 34
      - serializedVersion: 2
        time: 0.53333336
        value: -152.36424
        inSlope: 162.90685
        outSlope: 162.90685
        tangentMode: 34
      - serializedVersion: 2
        time: 0.6
        value: -144.13818
        inSlope: 68.42927
        outSlope: 68.42927
        tangentMode: 34
      - serializedVersion: 2
        time: 0.6666667
        value: -143.24034
        inSlope: -17.655947
        outSlope: -17.655947
        tangentMode: 34
      - serializedVersion: 2
        time: 0.73333335
        value: -146.49231
        inSlope: -61.413696
        outSlope: -61.413696
        tangentMode: 34
      - serializedVersion: 2
        time: 0.8
        value: -151.42883
        inSlope: -95.978
        outSlope: -95.978
        tangentMode: 34
      - serializedVersion: 2
        time: 0.8333333
        value: -155.3591
        inSlope: -117.908134
        outSlope: -117.908134
        tangentMode: 34
      m_PreInfinity: 2
      m_PostInfinity: 2
      m_RotationOrder: 4
    attribute: localEulerAnglesRaw.z
    path: SpineBone/LegBone_R
    classID: 4
    script: {fileID: 0}
  - curve:
      serializedVersion: 2
      m_Curve:
      - serializedVersion: 2
        time: 0
        value: 0
        inSlope: 0
        outSlope: 0
        tangentMode: 34
      - serializedVersion: 2
        time: 0.06666667
        value: 0
        inSlope: 0
        outSlope: 0
        tangentMode: 34
      - serializedVersion: 2
        time: 0.13333334
        value: 0
        inSlope: 0
        outSlope: 0
        tangentMode: 34
      - serializedVersion: 2
        time: 0.2
        value: 0
        inSlope: 0
        outSlope: 0
        tangentMode: 34
      - serializedVersion: 2
        time: 0.26666668
        value: 0
        inSlope: 0
        outSlope: 0
        tangentMode: 34
      - serializedVersion: 2
        time: 0.33333334
        value: 0
        inSlope: 0
        outSlope: 0
        tangentMode: 34
      - serializedVersion: 2
        time: 0.4
        value: 0
        inSlope: 0
        outSlope: 0
        tangentMode: 34
      - serializedVersion: 2
        time: 0.46666667
        value: 0
        inSlope: 0
        outSlope: 0
        tangentMode: 34
      - serializedVersion: 2
        time: 0.53333336
        value: 0
        inSlope: 0
        outSlope: 0
        tangentMode: 34
      - serializedVersion: 2
        time: 0.6
        value: 0
        inSlope: 0
        outSlope: 0
        tangentMode: 34
      - serializedVersion: 2
        time: 0.6666667
        value: 0
        inSlope: 0
        outSlope: 0
        tangentMode: 34
      - serializedVersion: 2
        time: 0.73333335
        value: 0
        inSlope: 0
        outSlope: 0
        tangentMode: 34
      - serializedVersion: 2
        time: 0.8
        value: 0
        inSlope: 0
        outSlope: 0
        tangentMode: 34
      m_PreInfinity: 2
      m_PostInfinity: 2
      m_RotationOrder: 4
    attribute: localEulerAnglesRaw.x
    path: SpineBone/LegBone_L/LowerLegBone_L
    classID: 4
    script: {fileID: 0}
  - curve:
      serializedVersion: 2
      m_Curve:
      - serializedVersion: 2
        time: 0
        value: 0
        inSlope: 0
        outSlope: 0
        tangentMode: 34
      - serializedVersion: 2
        time: 0.06666667
        value: 0
        inSlope: 0
        outSlope: 0
        tangentMode: 34
      - serializedVersion: 2
        time: 0.13333334
        value: 0
        inSlope: 0
        outSlope: 0
        tangentMode: 34
      - serializedVersion: 2
        time: 0.2
        value: 0
        inSlope: 0
        outSlope: 0
        tangentMode: 34
      - serializedVersion: 2
        time: 0.26666668
        value: 0
        inSlope: 0
        outSlope: 0
        tangentMode: 34
      - serializedVersion: 2
        time: 0.33333334
        value: 0
        inSlope: 0
        outSlope: 0
        tangentMode: 34
      - serializedVersion: 2
        time: 0.4
        value: 0
        inSlope: 0
        outSlope: 0
        tangentMode: 34
      - serializedVersion: 2
        time: 0.46666667
        value: 0
        inSlope: 0
        outSlope: 0
        tangentMode: 34
      - serializedVersion: 2
        time: 0.53333336
        value: 0
        inSlope: 0
        outSlope: 0
        tangentMode: 34
      - serializedVersion: 2
        time: 0.6
        value: 0
        inSlope: 0
        outSlope: 0
        tangentMode: 34
      - serializedVersion: 2
        time: 0.6666667
        value: 0
        inSlope: 0
        outSlope: 0
        tangentMode: 34
      - serializedVersion: 2
        time: 0.73333335
        value: 0
        inSlope: 0
        outSlope: 0
        tangentMode: 34
      - serializedVersion: 2
        time: 0.8
        value: 0
        inSlope: 0
        outSlope: 0
        tangentMode: 34
      m_PreInfinity: 2
      m_PostInfinity: 2
      m_RotationOrder: 4
    attribute: localEulerAnglesRaw.y
    path: SpineBone/LegBone_L/LowerLegBone_L
    classID: 4
    script: {fileID: 0}
  - curve:
      serializedVersion: 2
      m_Curve:
      - serializedVersion: 2
        time: 0
        value: -74.8
        inSlope: -139.49992
        outSlope: -139.49992
        tangentMode: 34
      - serializedVersion: 2
        time: 0.06666667
        value: -84.1
        inSlope: -62.99995
        outSlope: -62.99995
        tangentMode: 34
      - serializedVersion: 2
        time: 0.13333334
        value: -83.2
        inSlope: 77.25712
        outSlope: 77.25712
        tangentMode: 34
      - serializedVersion: 2
        time: 0.2
        value: -73.79905
        inSlope: 273.9313
        outSlope: 273.9313
        tangentMode: 34
      - serializedVersion: 2
        time: 0.26666668
        value: -46.67582
        inSlope: 398.53137
        outSlope: 398.53137
        tangentMode: 34
      - serializedVersion: 2
        time: 0.33333334
        value: -20.661531
        inSlope: 280.53845
        outSlope: 280.53845
        tangentMode: 34
      - serializedVersion: 2
        time: 0.4
        value: -9.270695
        inSlope: 58.08732
        outSlope: 58.08732
        tangentMode: 34
      - serializedVersion: 2
        time: 0.46666667
        value: -12.916556
        inSlope: -56.925335
        outSlope: -56.925335
        tangentMode: 34
      - serializedVersion: 2
        time: 0.53333336
        value: -16.86074
        inSlope: -58.031857
        outSlope: -58.031857
        tangentMode: 34
      - serializedVersion: 2
        time: 0.6
        value: -20.654139
        inSlope: -97.79445
        outSlope: -97.79445
        tangentMode: 34
      - serializedVersion: 2
        time: 0.6666667
        value: -29.9
        inSlope: -277.44507
        outSlope: -277.44507
        tangentMode: 34
      - serializedVersion: 2
        time: 0.73333335
        value: -57.646812
        inSlope: -336.75006
        outSlope: -336.75006
        tangentMode: 34
      - serializedVersion: 2
        time: 0.8
        value: -74.8
        inSlope: -257.29788
        outSlope: -257.29788
        tangentMode: 34
      m_PreInfinity: 2
      m_PostInfinity: 2
      m_RotationOrder: 4
    attribute: localEulerAnglesRaw.z
    path: SpineBone/LegBone_L/LowerLegBone_L
    classID: 4
    script: {fileID: 0}
  - curve:
      serializedVersion: 2
      m_Curve:
      - serializedVersion: 2
        time: 0
        value: 0
        inSlope: 0
        outSlope: 0
        tangentMode: 34
      - serializedVersion: 2
        time: 0.06666667
        value: 0
        inSlope: 0
        outSlope: 0
        tangentMode: 34
      - serializedVersion: 2
        time: 0.13333334
        value: 0
        inSlope: 0
        outSlope: 0
        tangentMode: 34
      - serializedVersion: 2
        time: 0.2
        value: 0
        inSlope: 0
        outSlope: 0
        tangentMode: 34
      - serializedVersion: 2
        time: 0.26666668
        value: 0
        inSlope: 0
        outSlope: 0
        tangentMode: 34
      - serializedVersion: 2
        time: 0.33333334
        value: 0
        inSlope: 0
        outSlope: 0
        tangentMode: 34
      - serializedVersion: 2
        time: 0.4
        value: 0
        inSlope: 0
        outSlope: 0
        tangentMode: 34
      - serializedVersion: 2
        time: 0.46666667
        value: 0
        inSlope: 0
        outSlope: 0
        tangentMode: 34
      - serializedVersion: 2
        time: 0.53333336
        value: 0
        inSlope: 0
        outSlope: 0
        tangentMode: 34
      - serializedVersion: 2
        time: 0.6
        value: 0
        inSlope: 0
        outSlope: 0
        tangentMode: 34
      - serializedVersion: 2
        time: 0.6666667
        value: 0
        inSlope: 0
        outSlope: 0
        tangentMode: 34
      - serializedVersion: 2
        time: 0.73333335
        value: 0
        inSlope: 0
        outSlope: 0
        tangentMode: 34
      - serializedVersion: 2
        time: 0.8
        value: 0
        inSlope: 0
        outSlope: 0
        tangentMode: 34
      m_PreInfinity: 2
      m_PostInfinity: 2
      m_RotationOrder: 4
    attribute: localEulerAnglesRaw.x
    path: SpineBone/LegBone_R/LowerLegBone_R
    classID: 4
    script: {fileID: 0}
  - curve:
      serializedVersion: 2
      m_Curve:
      - serializedVersion: 2
        time: 0
        value: 0
        inSlope: 0
        outSlope: 0
        tangentMode: 34
      - serializedVersion: 2
        time: 0.06666667
        value: 0
        inSlope: 0
        outSlope: 0
        tangentMode: 34
      - serializedVersion: 2
        time: 0.13333334
        value: 0
        inSlope: 0
        outSlope: 0
        tangentMode: 34
      - serializedVersion: 2
        time: 0.2
        value: 0
        inSlope: 0
        outSlope: 0
        tangentMode: 34
      - serializedVersion: 2
        time: 0.26666668
        value: 0
        inSlope: 0
        outSlope: 0
        tangentMode: 34
      - serializedVersion: 2
        time: 0.33333334
        value: 0
        inSlope: 0
        outSlope: 0
        tangentMode: 34
      - serializedVersion: 2
        time: 0.4
        value: 0
        inSlope: 0
        outSlope: 0
        tangentMode: 34
      - serializedVersion: 2
        time: 0.46666667
        value: 0
        inSlope: 0
        outSlope: 0
        tangentMode: 34
      - serializedVersion: 2
        time: 0.53333336
        value: 0
        inSlope: 0
        outSlope: 0
        tangentMode: 34
      - serializedVersion: 2
        time: 0.6
        value: 0
        inSlope: 0
        outSlope: 0
        tangentMode: 34
      - serializedVersion: 2
        time: 0.6666667
        value: 0
        inSlope: 0
        outSlope: 0
        tangentMode: 34
      - serializedVersion: 2
        time: 0.73333335
        value: 0
        inSlope: 0
        outSlope: 0
        tangentMode: 34
      - serializedVersion: 2
        time: 0.8
        value: 0
        inSlope: 0
        outSlope: 0
        tangentMode: 34
      m_PreInfinity: 2
      m_PostInfinity: 2
      m_RotationOrder: 4
    attribute: localEulerAnglesRaw.y
    path: SpineBone/LegBone_R/LowerLegBone_R
    classID: 4
    script: {fileID: 0}
  - curve:
      serializedVersion: 2
      m_Curve:
      - serializedVersion: 2
        time: 0
        value: -14.84
        inSlope: -12.899994
        outSlope: -12.899994
        tangentMode: 34
      - serializedVersion: 2
        time: 0.06666667
        value: -15.7
        inSlope: -23.081358
        outSlope: -23.081358
        tangentMode: 34
      - serializedVersion: 2
        time: 0.13333334
        value: -17.917515
        inSlope: -35.65605
        outSlope: -35.65605
        tangentMode: 34
      - serializedVersion: 2
        time: 0.2
        value: -20.45414
        inSlope: -75.73567
        outSlope: -75.73567
        tangentMode: 34
      - serializedVersion: 2
        time: 0.26666668
        value: -28.015606
        inSlope: -296.53903
        outSlope: -296.53903
        tangentMode: 34
      - serializedVersion: 2
        time: 0.33333334
        value: -59.992676
        inSlope: -334.03906
        outSlope: -334.03906
        tangentMode: 34
      - serializedVersion: 2
        time: 0.4
        value: -72.554146
        inSlope: -140.19505
        outSlope: -140.19505
        tangentMode: 34
      - serializedVersion: 2
        time: 0.46666667
        value: -78.68535
        inSlope: -16.679092
        outSlope: -16.679092
        tangentMode: 34
      - serializedVersion: 2
        time: 0.53333336
        value: -74.77802
        inSlope: 161.6632
        outSlope: 161.6632
        tangentMode: 34
      - serializedVersion: 2
        time: 0.6
        value: -57.130257
        inSlope: 275.25714
        outSlope: 275.25714
        tangentMode: 34
      - serializedVersion: 2
        time: 0.6666667
        value: -38.077072
        inSlope: 273.172
        outSlope: 273.172
        tangentMode: 34
      - serializedVersion: 2
        time: 0.73333335
        value: -20.707325
        inSlope: 171.00003
        outSlope: 171.00003
        tangentMode: 34
      - serializedVersion: 2
        time: 0.8
        value: -15.277069
        inSlope: 81.45384
        outSlope: 81.45384
        tangentMode: 34
      m_PreInfinity: 2
      m_PostInfinity: 2
      m_RotationOrder: 4
    attribute: localEulerAnglesRaw.z
    path: SpineBone/LegBone_R/LowerLegBone_R
    classID: 4
    script: {fileID: 0}
  - curve:
      serializedVersion: 2
      m_Curve:
      - serializedVersion: 2
        time: 0
        value: 0
        inSlope: 0
        outSlope: 0
        tangentMode: 34
      - serializedVersion: 2
        time: 0.26666668
        value: 0
        inSlope: 0
        outSlope: 0
        tangentMode: 34
      - serializedVersion: 2
        time: 0.6666667
        value: 0
        inSlope: 0
        outSlope: 0
        tangentMode: 34
      m_PreInfinity: 2
      m_PostInfinity: 2
      m_RotationOrder: 4
    attribute: localEulerAnglesRaw.x
    path: SpineBone/ArmBone_L
    classID: 4
    script: {fileID: 0}
  - curve:
      serializedVersion: 2
      m_Curve:
      - serializedVersion: 2
        time: 0
        value: 0
        inSlope: 0
        outSlope: 0
        tangentMode: 34
      - serializedVersion: 2
        time: 0.26666668
        value: 0
        inSlope: 0
        outSlope: 0
        tangentMode: 34
      - serializedVersion: 2
        time: 0.6666667
        value: 0
        inSlope: 0
        outSlope: 0
        tangentMode: 34
      m_PreInfinity: 2
      m_PostInfinity: 2
      m_RotationOrder: 4
    attribute: localEulerAnglesRaw.y
    path: SpineBone/ArmBone_L
    classID: 4
    script: {fileID: 0}
  - curve:
      serializedVersion: 2
      m_Curve:
      - serializedVersion: 2
        time: 0
        value: -195.73534
        inSlope: -45.46457
        outSlope: -45.46457
        tangentMode: 34
      - serializedVersion: 2
        time: 0.26666668
        value: -207.85922
        inSlope: 8.704426
        outSlope: 8.704426
        tangentMode: 34
      - serializedVersion: 2
        time: 0.6666667
        value: -182.70985
        inSlope: -6.959652
        outSlope: -6.959652
        tangentMode: 34
      - serializedVersion: 2
        time: 0.8
        value: -192.94888
        inSlope: -89.31827
        outSlope: -89.31827
        tangentMode: 34
      - serializedVersion: 2
        time: 0.8333333
        value: -196.34367
        inSlope: -101.84382
        outSlope: -101.84382
        tangentMode: 34
      m_PreInfinity: 2
      m_PostInfinity: 2
      m_RotationOrder: 4
    attribute: localEulerAnglesRaw.z
    path: SpineBone/ArmBone_L
    classID: 4
    script: {fileID: 0}
  - curve:
      serializedVersion: 2
      m_Curve:
      - serializedVersion: 2
        time: 0
        value: 0
        inSlope: 0
        outSlope: 0
        tangentMode: 34
      - serializedVersion: 2
        time: 0.26666668
        value: 0
        inSlope: 0
        outSlope: 0
        tangentMode: 34
      - serializedVersion: 2
        time: 0.6666667
        value: 0
        inSlope: 0
        outSlope: 0
        tangentMode: 34
      - serializedVersion: 2
        time: 0.8
        value: 0
        inSlope: 0
        outSlope: 0
        tangentMode: 34
      m_PreInfinity: 2
      m_PostInfinity: 2
      m_RotationOrder: 4
    attribute: localEulerAnglesRaw.x
    path: SpineBone/ArmBone_L/LowerArmBone_L
    classID: 4
    script: {fileID: 0}
  - curve:
      serializedVersion: 2
      m_Curve:
      - serializedVersion: 2
        time: 0
        value: 0
        inSlope: 0
        outSlope: 0
        tangentMode: 34
      - serializedVersion: 2
        time: 0.26666668
        value: 0
        inSlope: 0
        outSlope: 0
        tangentMode: 34
      - serializedVersion: 2
        time: 0.6666667
        value: 0
        inSlope: 0
        outSlope: 0
        tangentMode: 34
      - serializedVersion: 2
        time: 0.8
        value: 0
        inSlope: 0
        outSlope: 0
        tangentMode: 34
      m_PreInfinity: 2
      m_PostInfinity: 2
      m_RotationOrder: 4
    attribute: localEulerAnglesRaw.y
    path: SpineBone/ArmBone_L/LowerArmBone_L
    classID: 4
    script: {fileID: 0}
  - curve:
      serializedVersion: 2
      m_Curve:
      - serializedVersion: 2
        time: 0
        value: -305.49405
        inSlope: 32.811928
        outSlope: 32.811928
        tangentMode: 34
      - serializedVersion: 2
        time: 0.26666668
        value: -296.7442
        inSlope: 3.3123589
        outSlope: 3.3123589
        tangentMode: 34
      - serializedVersion: 2
        time: 0.6666667
        value: -307.2191
        inSlope: -5.219497
        outSlope: -5.219497
        tangentMode: 34
      - serializedVersion: 2
        time: 0.8
        value: -305.11932
        inSlope: 15.748216
        outSlope: 15.748216
        tangentMode: 34
      m_PreInfinity: 2
      m_PostInfinity: 2
      m_RotationOrder: 4
    attribute: localEulerAnglesRaw.z
    path: SpineBone/ArmBone_L/LowerArmBone_L
    classID: 4
    script: {fileID: 0}
  - curve:
      serializedVersion: 2
      m_Curve:
      - serializedVersion: 2
        time: 0
        value: 0
        inSlope: 0
        outSlope: 0
        tangentMode: 34
      - serializedVersion: 2
        time: 0.26666668
        value: 0
        inSlope: 0
        outSlope: 0
        tangentMode: 34
      - serializedVersion: 2
        time: 0.6666667
        value: 0
        inSlope: 0
        outSlope: 0
        tangentMode: 34
      - serializedVersion: 2
        time: 0.8
        value: 0
        inSlope: 0
        outSlope: 0
        tangentMode: 34
      m_PreInfinity: 2
      m_PostInfinity: 2
      m_RotationOrder: 4
    attribute: localEulerAnglesRaw.x
    path: SpineBone/ArmBone_R
    classID: 4
    script: {fileID: 0}
  - curve:
      serializedVersion: 2
      m_Curve:
      - serializedVersion: 2
        time: 0
        value: 0
        inSlope: 0
        outSlope: 0
        tangentMode: 34
      - serializedVersion: 2
        time: 0.26666668
        value: 0
        inSlope: 0
        outSlope: 0
        tangentMode: 34
      - serializedVersion: 2
        time: 0.6666667
        value: 0
        inSlope: 0
        outSlope: 0
        tangentMode: 34
      - serializedVersion: 2
        time: 0.8
        value: 0
        inSlope: 0
        outSlope: 0
        tangentMode: 34
      m_PreInfinity: 2
      m_PostInfinity: 2
      m_RotationOrder: 4
    attribute: localEulerAnglesRaw.y
    path: SpineBone/ArmBone_R
    classID: 4
    script: {fileID: 0}
  - curve:
      serializedVersion: 2
      m_Curve:
      - serializedVersion: 2
        time: 0
        value: -217.19672
        inSlope: 93.92154
        outSlope: 93.92154
        tangentMode: 34
      - serializedVersion: 2
        time: 0.26666668
        value: -192.15097
        inSlope: 12.900425
        outSlope: 12.900425
        tangentMode: 34
      - serializedVersion: 2
        time: 0.6666667
        value: -219.39925
        inSlope: -41.84576
        outSlope: -41.84576
        tangentMode: 34
      - serializedVersion: 2
        time: 0.8
        value: -221.47536
        inSlope: 42.746708
        outSlope: 42.746708
        tangentMode: 34
      - serializedVersion: 2
        time: 0.8333333
        value: -218.10655
        inSlope: 101.06425
        outSlope: 101.06425
        tangentMode: 34
      m_PreInfinity: 2
      m_PostInfinity: 2
      m_RotationOrder: 4
    attribute: localEulerAnglesRaw.z
    path: SpineBone/ArmBone_R
    classID: 4
    script: {fileID: 0}
  - curve:
      serializedVersion: 2
      m_Curve:
      - serializedVersion: 2
        time: 0
        value: 0
        inSlope: 0
        outSlope: 0
        tangentMode: 34
      - serializedVersion: 2
        time: 0.26666668
        value: 0
        inSlope: 0
        outSlope: 0
        tangentMode: 34
      - serializedVersion: 2
        time: 0.6666667
        value: 0
        inSlope: 0
        outSlope: 0
        tangentMode: 34
      m_PreInfinity: 2
      m_PostInfinity: 2
      m_RotationOrder: 4
    attribute: localEulerAnglesRaw.x
    path: SpineBone/ArmBone_R/LowerArmBone_R
    classID: 4
    script: {fileID: 0}
  - curve:
      serializedVersion: 2
      m_Curve:
      - serializedVersion: 2
        time: 0
        value: 0
        inSlope: 0
        outSlope: 0
        tangentMode: 34
      - serializedVersion: 2
        time: 0.26666668
        value: 0
        inSlope: 0
        outSlope: 0
        tangentMode: 34
      - serializedVersion: 2
        time: 0.6666667
        value: 0
        inSlope: 0
        outSlope: 0
        tangentMode: 34
      m_PreInfinity: 2
      m_PostInfinity: 2
      m_RotationOrder: 4
    attribute: localEulerAnglesRaw.y
    path: SpineBone/ArmBone_R/LowerArmBone_R
    classID: 4
    script: {fileID: 0}
  - curve:
      serializedVersion: 2
      m_Curve:
      - serializedVersion: 2
        time: 0.033333335
        value: 73.67162
        inSlope: -50.496517
        outSlope: -50.496517
        tangentMode: 34
      - serializedVersion: 2
        time: 0.33333334
        value: 58.522667
        inSlope: -11.647142
        outSlope: -11.647142
        tangentMode: 34
      - serializedVersion: 2
        time: 0.7
        value: 68.49682
        inSlope: 31.320349
        outSlope: 31.320349
        tangentMode: 34
      - serializedVersion: 2
        time: 0.8333333
        value: 73.22195
        inSlope: 35.438465
        outSlope: 35.438465
        tangentMode: 34
      m_PreInfinity: 2
      m_PostInfinity: 2
      m_RotationOrder: 4
    attribute: localEulerAnglesRaw.z
    path: SpineBone/ArmBone_R/LowerArmBone_R
    classID: 4
    script: {fileID: 0}
  - curve:
      serializedVersion: 2
      m_Curve:
      - serializedVersion: 2
        time: 0
        value: 0
        inSlope: 0
        outSlope: 0
        tangentMode: 34
      m_PreInfinity: 2
      m_PostInfinity: 2
      m_RotationOrder: 4
    attribute: localEulerAnglesRaw.x
    path: SpineBone
    classID: 4
    script: {fileID: 0}
  - curve:
      serializedVersion: 2
      m_Curve:
      - serializedVersion: 2
        time: 0
        value: 0
        inSlope: 0
        outSlope: 0
        tangentMode: 34
      m_PreInfinity: 2
      m_PostInfinity: 2
      m_RotationOrder: 4
    attribute: localEulerAnglesRaw.y
    path: SpineBone
    classID: 4
    script: {fileID: 0}
  - curve:
      serializedVersion: 2
      m_Curve:
      - serializedVersion: 2
        time: 0
        value: -10.9
        inSlope: 0
        outSlope: 0
        tangentMode: 34
      m_PreInfinity: 2
      m_PostInfinity: 2
      m_RotationOrder: 4
    attribute: localEulerAnglesRaw.z
    path: SpineBone
    classID: 4
    script: {fileID: 0}
  m_EulerEditorCurves:
  - curve:
      serializedVersion: 2
      m_Curve: []
      m_PreInfinity: 2
      m_PostInfinity: 2
      m_RotationOrder: 4
    attribute: m_LocalEulerAngles.z
    path: SpineBone/ArmBone_R
    classID: 4
    script: {fileID: 0}
  - curve:
      serializedVersion: 2
      m_Curve: []
      m_PreInfinity: 2
      m_PostInfinity: 2
      m_RotationOrder: 4
    attribute: m_LocalEulerAngles.y
    path: SpineBone/ArmBone_R
    classID: 4
    script: {fileID: 0}
  - curve:
      serializedVersion: 2
      m_Curve: []
      m_PreInfinity: 2
      m_PostInfinity: 2
      m_RotationOrder: 4
    attribute: m_LocalEulerAngles.x
    path: SpineBone/ArmBone_R
    classID: 4
    script: {fileID: 0}
  - curve:
      serializedVersion: 2
      m_Curve: []
      m_PreInfinity: 2
      m_PostInfinity: 2
      m_RotationOrder: 4
    attribute: m_LocalEulerAngles.z
    path: SpineBone
    classID: 4
    script: {fileID: 0}
  - curve:
      serializedVersion: 2
      m_Curve: []
      m_PreInfinity: 2
      m_PostInfinity: 2
      m_RotationOrder: 4
    attribute: m_LocalEulerAngles.y
    path: SpineBone
    classID: 4
    script: {fileID: 0}
  - curve:
      serializedVersion: 2
      m_Curve: []
      m_PreInfinity: 2
      m_PostInfinity: 2
      m_RotationOrder: 4
    attribute: m_LocalEulerAngles.x
    path: SpineBone
    classID: 4
    script: {fileID: 0}
  - curve:
      serializedVersion: 2
      m_Curve: []
      m_PreInfinity: 2
      m_PostInfinity: 2
      m_RotationOrder: 4
    attribute: m_LocalEulerAngles.z
    path: SpineBone/ArmBone_R/LowerArmBone_R
    classID: 4
    script: {fileID: 0}
  - curve:
      serializedVersion: 2
      m_Curve: []
      m_PreInfinity: 2
      m_PostInfinity: 2
      m_RotationOrder: 4
    attribute: m_LocalEulerAngles.y
    path: SpineBone/ArmBone_R/LowerArmBone_R
    classID: 4
    script: {fileID: 0}
  - curve:
      serializedVersion: 2
      m_Curve: []
      m_PreInfinity: 2
      m_PostInfinity: 2
      m_RotationOrder: 4
    attribute: m_LocalEulerAngles.x
    path: SpineBone/ArmBone_R/LowerArmBone_R
    classID: 4
    script: {fileID: 0}
  - curve:
      serializedVersion: 2
      m_Curve: []
      m_PreInfinity: 2
      m_PostInfinity: 2
      m_RotationOrder: 4
    attribute: m_LocalEulerAngles.z
    path: SpineBone/LegBone_L
    classID: 4
    script: {fileID: 0}
  - curve:
      serializedVersion: 2
      m_Curve: []
      m_PreInfinity: 2
      m_PostInfinity: 2
      m_RotationOrder: 4
    attribute: m_LocalEulerAngles.y
    path: SpineBone/LegBone_L
    classID: 4
    script: {fileID: 0}
  - curve:
      serializedVersion: 2
      m_Curve: []
      m_PreInfinity: 2
      m_PostInfinity: 2
      m_RotationOrder: 4
    attribute: m_LocalEulerAngles.x
    path: SpineBone/LegBone_L
    classID: 4
    script: {fileID: 0}
  - curve:
      serializedVersion: 2
      m_Curve: []
      m_PreInfinity: 2
      m_PostInfinity: 2
      m_RotationOrder: 4
    attribute: m_LocalEulerAngles.z
    path: SpineBone/ArmBone_L
    classID: 4
    script: {fileID: 0}
  - curve:
      serializedVersion: 2
      m_Curve: []
      m_PreInfinity: 2
      m_PostInfinity: 2
      m_RotationOrder: 4
    attribute: m_LocalEulerAngles.y
    path: SpineBone/ArmBone_L
    classID: 4
    script: {fileID: 0}
  - curve:
      serializedVersion: 2
      m_Curve: []
      m_PreInfinity: 2
      m_PostInfinity: 2
      m_RotationOrder: 4
    attribute: m_LocalEulerAngles.x
    path: SpineBone/ArmBone_L
    classID: 4
    script: {fileID: 0}
  - curve:
      serializedVersion: 2
      m_Curve: []
      m_PreInfinity: 2
      m_PostInfinity: 2
      m_RotationOrder: 4
    attribute: m_LocalEulerAngles.z
    path: SpineBone/LegBone_R/LowerLegBone_R
    classID: 4
    script: {fileID: 0}
  - curve:
      serializedVersion: 2
      m_Curve: []
      m_PreInfinity: 2
      m_PostInfinity: 2
      m_RotationOrder: 4
    attribute: m_LocalEulerAngles.y
    path: SpineBone/LegBone_R/LowerLegBone_R
    classID: 4
    script: {fileID: 0}
  - curve:
      serializedVersion: 2
      m_Curve: []
      m_PreInfinity: 2
      m_PostInfinity: 2
      m_RotationOrder: 4
    attribute: m_LocalEulerAngles.x
    path: SpineBone/LegBone_R/LowerLegBone_R
    classID: 4
    script: {fileID: 0}
  - curve:
      serializedVersion: 2
      m_Curve: []
      m_PreInfinity: 2
      m_PostInfinity: 2
      m_RotationOrder: 4
    attribute: m_LocalEulerAngles.z
    path: SpineBone/ArmBone_L/LowerArmBone_L
    classID: 4
    script: {fileID: 0}
  - curve:
      serializedVersion: 2
      m_Curve: []
      m_PreInfinity: 2
      m_PostInfinity: 2
      m_RotationOrder: 4
    attribute: m_LocalEulerAngles.y
    path: SpineBone/ArmBone_L/LowerArmBone_L
    classID: 4
    script: {fileID: 0}
  - curve:
      serializedVersion: 2
      m_Curve: []
      m_PreInfinity: 2
      m_PostInfinity: 2
      m_RotationOrder: 4
    attribute: m_LocalEulerAngles.x
    path: SpineBone/ArmBone_L/LowerArmBone_L
    classID: 4
    script: {fileID: 0}
  - curve:
      serializedVersion: 2
      m_Curve: []
      m_PreInfinity: 2
      m_PostInfinity: 2
      m_RotationOrder: 4
    attribute: m_LocalEulerAngles.z
    path: SpineBone/LegBone_R
    classID: 4
    script: {fileID: 0}
  - curve:
      serializedVersion: 2
      m_Curve: []
      m_PreInfinity: 2
      m_PostInfinity: 2
      m_RotationOrder: 4
    attribute: m_LocalEulerAngles.y
    path: SpineBone/LegBone_R
    classID: 4
    script: {fileID: 0}
  - curve:
      serializedVersion: 2
      m_Curve: []
      m_PreInfinity: 2
      m_PostInfinity: 2
      m_RotationOrder: 4
    attribute: m_LocalEulerAngles.x
    path: SpineBone/LegBone_R
    classID: 4
    script: {fileID: 0}
  - curve:
      serializedVersion: 2
      m_Curve: []
      m_PreInfinity: 2
      m_PostInfinity: 2
      m_RotationOrder: 4
    attribute: m_LocalEulerAngles.x
    path: SpineBone/LegBone_L/LowerLegBone_L
    classID: 4
    script: {fileID: 0}
  - curve:
      serializedVersion: 2
      m_Curve: []
      m_PreInfinity: 2
      m_PostInfinity: 2
      m_RotationOrder: 4
    attribute: m_LocalEulerAngles.y
    path: SpineBone/LegBone_L/LowerLegBone_L
    classID: 4
    script: {fileID: 0}
  - curve:
      serializedVersion: 2
      m_Curve: []
      m_PreInfinity: 2
      m_PostInfinity: 2
      m_RotationOrder: 4
    attribute: m_LocalEulerAngles.z
    path: SpineBone/LegBone_L/LowerLegBone_L
    classID: 4
    script: {fileID: 0}
  m_HasGenericRootTransform: 1
  m_HasMotionFloatCurves: 0
  m_GenerateMotionCurves: 0
  m_Events: []
