%YAML 1.1
%TAG !u! tag:unity3d.com,2011:
--- !u!1001 &3794266239685803001
PrefabInstance:
  m_ObjectHideFlags: 0
  serializedVersion: 2
  m_Modification:
    m_TransformParent: {fileID: 0}
    m_Modifications:
    - target: {fileID: 1987546800054578574, guid: 7cfbeacdc19e49a459a154bc134b2d06,
        type: 3}
      propertyPath: m_LocalPosition.x
      value: -2.087
      objectReference: {fileID: 0}
    - target: {fileID: 1987546800054578574, guid: 7cfbeacdc19e49a459a154bc134b2d06,
        type: 3}
      propertyPath: m_LocalPosition.y
      value: 0.18916538
      objectReference: {fileID: 0}
    - target: {fileID: 1987546800054578574, guid: 7cfbeacdc19e49a459a154bc134b2d06,
        type: 3}
      propertyPath: m_LocalPosition.z
      value: 0
      objectReference: {fileID: 0}
    - target: {fileID: 1987546800054578574, guid: 7cfbeacdc19e49a459a154bc134b2d06,
        type: 3}
      propertyPath: m_LocalRotation.x
      value: -0
      objectReference: {fileID: 0}
    - target: {fileID: 1987546800054578574, guid: 7cfbeacdc19e49a459a154bc134b2d06,
        type: 3}
      propertyPath: m_LocalRotation.y
      value: -0
      objectReference: {fileID: 0}
    - target: {fileID: 1987546800054578574, guid: 7cfbeacdc19e49a459a154bc134b2d06,
        type: 3}
      propertyPath: m_LocalRotation.z
      value: -0
      objectReference: {fileID: 0}
    - target: {fileID: 1987546800054578574, guid: 7cfbeacdc19e49a459a154bc134b2d06,
        type: 3}
      propertyPath: m_LocalRotation.w
      value: 1
      objectReference: {fileID: 0}
    - target: {fileID: 1987546800054578574, guid: 7cfbeacdc19e49a459a154bc134b2d06,
        type: 3}
      propertyPath: m_RootOrder
      value: 0
      objectReference: {fileID: 0}
    - target: {fileID: 1987546800054578574, guid: 7cfbeacdc19e49a459a154bc134b2d06,
        type: 3}
      propertyPath: m_LocalEulerAnglesHint.x
      value: 0
      objectReference: {fileID: 0}
    - target: {fileID: 1987546800054578574, guid: 7cfbeacdc19e49a459a154bc134b2d06,
        type: 3}
      propertyPath: m_LocalEulerAnglesHint.y
      value: 0
      objectReference: {fileID: 0}
    - target: {fileID: 1987546800054578574, guid: 7cfbeacdc19e49a459a154bc134b2d06,
        type: 3}
      propertyPath: m_LocalEulerAnglesHint.z
      value: 0
      objectReference: {fileID: 0}
    - target: {fileID: 1987546800054578672, guid: 7cfbeacdc19e49a459a154bc134b2d06,
        type: 3}
      propertyPath: m_Name
      value: Muro con Ledge 4
      objectReference: {fileID: 0}
    - target: {fileID: 2802168762081073655, guid: 7cfbeacdc19e49a459a154bc134b2d06,
        type: 3}
      propertyPath: m_Enabled
      value: 0
      objectReference: {fileID: 0}
    - target: {fileID: 2802168762081073656, guid: 7cfbeacdc19e49a459a154bc134b2d06,
        type: 3}
      propertyPath: m_Mesh
      value: 
      objectReference: {fileID: 0}
    - target: {fileID: 2802168762081073656, guid: 7cfbeacdc19e49a459a154bc134b2d06,
        type: 3}
      propertyPath: m_InstanceId
      value: -226162
      objectReference: {fileID: 0}
    m_RemovedComponents: []
  m_SourcePrefab: {fileID: 100100000, guid: 7cfbeacdc19e49a459a154bc134b2d06, type: 3}
--- !u!4 &1316384447803908623 stripped
Transform:
  m_CorrespondingSourceObject: {fileID: 2802168762081073654, guid: 7cfbeacdc19e49a459a154bc134b2d06,
    type: 3}
  m_PrefabInstance: {fileID: 3794266239685803001}
  m_PrefabAsset: {fileID: 0}
--- !u!1001 &5451131571366091368
PrefabInstance:
  m_ObjectHideFlags: 0
  serializedVersion: 2
  m_Modification:
    m_TransformParent: {fileID: 1316384447803908623}
    m_Modifications:
    - target: {fileID: 1696853681735802765, guid: 15206b2c261aca04791b886282a5caee,
        type: 3}
      propertyPath: m_Name
      value: Muro 4
      objectReference: {fileID: 0}
    - target: {fileID: 2471666543177893303, guid: 15206b2c261aca04791b886282a5caee,
        type: 3}
      propertyPath: m_LocalPosition.x
      value: 0
      objectReference: {fileID: 0}
    - target: {fileID: 2471666543177893303, guid: 15206b2c261aca04791b886282a5caee,
        type: 3}
      propertyPath: m_LocalPosition.y
      value: -0.015
      objectReference: {fileID: 0}
    - target: {fileID: 2471666543177893303, guid: 15206b2c261aca04791b886282a5caee,
        type: 3}
      propertyPath: m_LocalPosition.z
      value: 0
      objectReference: {fileID: 0}
    - target: {fileID: 2471666543177893303, guid: 15206b2c261aca04791b886282a5caee,
        type: 3}
      propertyPath: m_LocalRotation.x
      value: 0
      objectReference: {fileID: 0}
    - target: {fileID: 2471666543177893303, guid: 15206b2c261aca04791b886282a5caee,
        type: 3}
      propertyPath: m_LocalRotation.y
      value: 0
      objectReference: {fileID: 0}
    - target: {fileID: 2471666543177893303, guid: 15206b2c261aca04791b886282a5caee,
        type: 3}
      propertyPath: m_LocalRotation.z
      value: 0
      objectReference: {fileID: 0}
    - target: {fileID: 2471666543177893303, guid: 15206b2c261aca04791b886282a5caee,
        type: 3}
      propertyPath: m_LocalRotation.w
      value: 1
      objectReference: {fileID: 0}
    - target: {fileID: 2471666543177893303, guid: 15206b2c261aca04791b886282a5caee,
        type: 3}
      propertyPath: m_RootOrder
      value: 0
      objectReference: {fileID: 0}
    - target: {fileID: 2471666543177893303, guid: 15206b2c261aca04791b886282a5caee,
        type: 3}
      propertyPath: m_LocalEulerAnglesHint.x
      value: 0
      objectReference: {fileID: 0}
    - target: {fileID: 2471666543177893303, guid: 15206b2c261aca04791b886282a5caee,
        type: 3}
      propertyPath: m_LocalEulerAnglesHint.y
      value: 0
      objectReference: {fileID: 0}
    - target: {fileID: 2471666543177893303, guid: 15206b2c261aca04791b886282a5caee,
        type: 3}
      propertyPath: m_LocalEulerAnglesHint.z
      value: 0
      objectReference: {fileID: 0}
    - target: {fileID: 2471666543177893303, guid: 15206b2c261aca04791b886282a5caee,
        type: 3}
      propertyPath: m_LocalScale.x
      value: 2.02
      objectReference: {fileID: 0}
    - target: {fileID: 2471666543177893303, guid: 15206b2c261aca04791b886282a5caee,
        type: 3}
      propertyPath: m_LocalScale.y
      value: 17.09
      objectReference: {fileID: 0}
    - target: {fileID: 8147148207986777888, guid: 15206b2c261aca04791b886282a5caee,
        type: 3}
      propertyPath: m_SortingOrder
      value: 1
      objectReference: {fileID: 0}
    - target: {fileID: 8147148207986777888, guid: 15206b2c261aca04791b886282a5caee,
        type: 3}
      propertyPath: m_Color.r
      value: 0.046724826
      objectReference: {fileID: 0}
    - target: {fileID: 8147148207986777888, guid: 15206b2c261aca04791b886282a5caee,
        type: 3}
      propertyPath: m_Color.g
      value: 0.052332405
      objectReference: {fileID: 0}
    - target: {fileID: 8147148207986777888, guid: 15206b2c261aca04791b886282a5caee,
        type: 3}
      propertyPath: m_Color.b
      value: 0.05660379
      objectReference: {fileID: 0}
    m_RemovedComponents: []
  m_SourcePrefab: {fileID: 7243324766535440047, guid: 15206b2c261aca04791b886282a5caee,
    type: 3}
