%YAML 1.1
%TAG !u! tag:unity3d.com,2011:
--- !u!1001 &4702890758363672204
PrefabInstance:
  m_ObjectHideFlags: 0
  serializedVersion: 2
  m_Modification:
    m_TransformParent: {fileID: 7000581848130906343}
    m_Modifications:
    - target: {fileID: -1346380933120693617, guid: f96205ef780e64642a5ebcb0333df236,
        type: 3}
      propertyPath: m_LocalPosition.x
      value: 0
      objectReference: {fileID: 0}
    - target: {fileID: -1346380933120693617, guid: f96205ef780e64642a5ebcb0333df236,
        type: 3}
      propertyPath: m_LocalPosition.y
      value: 0
      objectReference: {fileID: 0}
    - target: {fileID: -1346380933120693617, guid: f96205ef780e64642a5ebcb0333df236,
        type: 3}
      propertyPath: m_LocalPosition.z
      value: 0
      objectReference: {fileID: 0}
    - target: {fileID: -1346380933120693617, guid: f96205ef780e64642a5ebcb0333df236,
        type: 3}
      propertyPath: m_LocalRotation.x
      value: 0
      objectReference: {fileID: 0}
    - target: {fileID: -1346380933120693617, guid: f96205ef780e64642a5ebcb0333df236,
        type: 3}
      propertyPath: m_LocalRotation.y
      value: 0
      objectReference: {fileID: 0}
    - target: {fileID: -1346380933120693617, guid: f96205ef780e64642a5ebcb0333df236,
        type: 3}
      propertyPath: m_LocalRotation.z
      value: 0
      objectReference: {fileID: 0}
    - target: {fileID: -1346380933120693617, guid: f96205ef780e64642a5ebcb0333df236,
        type: 3}
      propertyPath: m_LocalRotation.w
      value: 1
      objectReference: {fileID: 0}
    - target: {fileID: -1346380933120693617, guid: f96205ef780e64642a5ebcb0333df236,
        type: 3}
      propertyPath: m_RootOrder
      value: 0
      objectReference: {fileID: 0}
    - target: {fileID: -1346380933120693617, guid: f96205ef780e64642a5ebcb0333df236,
        type: 3}
      propertyPath: m_LocalEulerAnglesHint.x
      value: 0
      objectReference: {fileID: 0}
    - target: {fileID: -1346380933120693617, guid: f96205ef780e64642a5ebcb0333df236,
        type: 3}
      propertyPath: m_LocalEulerAnglesHint.y
      value: 0
      objectReference: {fileID: 0}
    - target: {fileID: -1346380933120693617, guid: f96205ef780e64642a5ebcb0333df236,
        type: 3}
      propertyPath: m_LocalEulerAnglesHint.z
      value: 0
      objectReference: {fileID: 0}
    - target: {fileID: -1346380933120693617, guid: f96205ef780e64642a5ebcb0333df236,
        type: 3}
      propertyPath: m_LocalScale.x
      value: 1.26
      objectReference: {fileID: 0}
    - target: {fileID: -1346380933120693617, guid: f96205ef780e64642a5ebcb0333df236,
        type: 3}
      propertyPath: m_LocalScale.y
      value: 9.13
      objectReference: {fileID: 0}
    - target: {fileID: 6426794051016844250, guid: f96205ef780e64642a5ebcb0333df236,
        type: 3}
      propertyPath: m_SortingOrder
      value: 1
      objectReference: {fileID: 0}
    - target: {fileID: 6426794051016844250, guid: f96205ef780e64642a5ebcb0333df236,
        type: 3}
      propertyPath: m_Color.r
      value: 0.046724826
      objectReference: {fileID: 0}
    - target: {fileID: 6426794051016844250, guid: f96205ef780e64642a5ebcb0333df236,
        type: 3}
      propertyPath: m_Color.g
      value: 0.052332405
      objectReference: {fileID: 0}
    - target: {fileID: 6426794051016844250, guid: f96205ef780e64642a5ebcb0333df236,
        type: 3}
      propertyPath: m_Color.b
      value: 0.05660379
      objectReference: {fileID: 0}
    - target: {fileID: 7074012299945376074, guid: f96205ef780e64642a5ebcb0333df236,
        type: 3}
      propertyPath: m_Name
      value: Muro 1
      objectReference: {fileID: 0}
    m_RemovedComponents: []
  m_SourcePrefab: {fileID: 7243324766535440047, guid: f96205ef780e64642a5ebcb0333df236,
    type: 3}
--- !u!1001 &5171361339102867729
PrefabInstance:
  m_ObjectHideFlags: 0
  serializedVersion: 2
  m_Modification:
    m_TransformParent: {fileID: 0}
    m_Modifications:
    - target: {fileID: 1987546800054578574, guid: 7cfbeacdc19e49a459a154bc134b2d06,
        type: 3}
      propertyPath: m_LocalPosition.x
      value: 0
      objectReference: {fileID: 0}
    - target: {fileID: 1987546800054578574, guid: 7cfbeacdc19e49a459a154bc134b2d06,
        type: 3}
      propertyPath: m_LocalPosition.y
      value: 0
      objectReference: {fileID: 0}
    - target: {fileID: 1987546800054578574, guid: 7cfbeacdc19e49a459a154bc134b2d06,
        type: 3}
      propertyPath: m_LocalPosition.z
      value: 0
      objectReference: {fileID: 0}
    - target: {fileID: 1987546800054578574, guid: 7cfbeacdc19e49a459a154bc134b2d06,
        type: 3}
      propertyPath: m_LocalRotation.x
      value: 0
      objectReference: {fileID: 0}
    - target: {fileID: 1987546800054578574, guid: 7cfbeacdc19e49a459a154bc134b2d06,
        type: 3}
      propertyPath: m_LocalRotation.y
      value: 0
      objectReference: {fileID: 0}
    - target: {fileID: 1987546800054578574, guid: 7cfbeacdc19e49a459a154bc134b2d06,
        type: 3}
      propertyPath: m_LocalRotation.z
      value: 0
      objectReference: {fileID: 0}
    - target: {fileID: 1987546800054578574, guid: 7cfbeacdc19e49a459a154bc134b2d06,
        type: 3}
      propertyPath: m_LocalRotation.w
      value: 1
      objectReference: {fileID: 0}
    - target: {fileID: 1987546800054578574, guid: 7cfbeacdc19e49a459a154bc134b2d06,
        type: 3}
      propertyPath: m_RootOrder
      value: 0
      objectReference: {fileID: 0}
    - target: {fileID: 1987546800054578574, guid: 7cfbeacdc19e49a459a154bc134b2d06,
        type: 3}
      propertyPath: m_LocalEulerAnglesHint.x
      value: 0
      objectReference: {fileID: 0}
    - target: {fileID: 1987546800054578574, guid: 7cfbeacdc19e49a459a154bc134b2d06,
        type: 3}
      propertyPath: m_LocalEulerAnglesHint.y
      value: 0
      objectReference: {fileID: 0}
    - target: {fileID: 1987546800054578574, guid: 7cfbeacdc19e49a459a154bc134b2d06,
        type: 3}
      propertyPath: m_LocalEulerAnglesHint.z
      value: 0
      objectReference: {fileID: 0}
    - target: {fileID: 1987546800054578672, guid: 7cfbeacdc19e49a459a154bc134b2d06,
        type: 3}
      propertyPath: m_Name
      value: Muro con Ledge Variant
      objectReference: {fileID: 0}
    - target: {fileID: 2802168762081073655, guid: 7cfbeacdc19e49a459a154bc134b2d06,
        type: 3}
      propertyPath: m_Enabled
      value: 0
      objectReference: {fileID: 0}
    - target: {fileID: 2802168762081073656, guid: 7cfbeacdc19e49a459a154bc134b2d06,
        type: 3}
      propertyPath: m_Mesh
      value: 
      objectReference: {fileID: 0}
    - target: {fileID: 2802168762081073656, guid: 7cfbeacdc19e49a459a154bc134b2d06,
        type: 3}
      propertyPath: m_InstanceId
      value: -221146
      objectReference: {fileID: 0}
    m_RemovedComponents: []
  m_SourcePrefab: {fileID: 100100000, guid: 7cfbeacdc19e49a459a154bc134b2d06, type: 3}
--- !u!4 &7000581848130906343 stripped
Transform:
  m_CorrespondingSourceObject: {fileID: 2802168762081073654, guid: 7cfbeacdc19e49a459a154bc134b2d06,
    type: 3}
  m_PrefabInstance: {fileID: 5171361339102867729}
  m_PrefabAsset: {fileID: 0}
