%YAML 1.1
%TAG !u! tag:unity3d.com,2011:
--- !u!1001 &5599488260605562027
PrefabInstance:
  m_ObjectHideFlags: 0
  serializedVersion: 2
  m_Modification:
    m_TransformParent: {fileID: 0}
    m_Modifications:
    - target: {fileID: 1987546800054578574, guid: 7cfbeacdc19e49a459a154bc134b2d06,
        type: 3}
      propertyPath: m_LocalPosition.x
      value: 0
      objectReference: {fileID: 0}
    - target: {fileID: 1987546800054578574, guid: 7cfbeacdc19e49a459a154bc134b2d06,
        type: 3}
      propertyPath: m_LocalPosition.y
      value: 0
      objectReference: {fileID: 0}
    - target: {fileID: 1987546800054578574, guid: 7cfbeacdc19e49a459a154bc134b2d06,
        type: 3}
      propertyPath: m_LocalPosition.z
      value: 0
      objectReference: {fileID: 0}
    - target: {fileID: 1987546800054578574, guid: 7cfbeacdc19e49a459a154bc134b2d06,
        type: 3}
      propertyPath: m_LocalRotation.x
      value: 0
      objectReference: {fileID: 0}
    - target: {fileID: 1987546800054578574, guid: 7cfbeacdc19e49a459a154bc134b2d06,
        type: 3}
      propertyPath: m_LocalRotation.y
      value: 0
      objectReference: {fileID: 0}
    - target: {fileID: 1987546800054578574, guid: 7cfbeacdc19e49a459a154bc134b2d06,
        type: 3}
      propertyPath: m_LocalRotation.z
      value: 0
      objectReference: {fileID: 0}
    - target: {fileID: 1987546800054578574, guid: 7cfbeacdc19e49a459a154bc134b2d06,
        type: 3}
      propertyPath: m_LocalRotation.w
      value: 1
      objectReference: {fileID: 0}
    - target: {fileID: 1987546800054578574, guid: 7cfbeacdc19e49a459a154bc134b2d06,
        type: 3}
      propertyPath: m_RootOrder
      value: 0
      objectReference: {fileID: 0}
    - target: {fileID: 1987546800054578574, guid: 7cfbeacdc19e49a459a154bc134b2d06,
        type: 3}
      propertyPath: m_LocalEulerAnglesHint.x
      value: 0
      objectReference: {fileID: 0}
    - target: {fileID: 1987546800054578574, guid: 7cfbeacdc19e49a459a154bc134b2d06,
        type: 3}
      propertyPath: m_LocalEulerAnglesHint.y
      value: 0
      objectReference: {fileID: 0}
    - target: {fileID: 1987546800054578574, guid: 7cfbeacdc19e49a459a154bc134b2d06,
        type: 3}
      propertyPath: m_LocalEulerAnglesHint.z
      value: 0
      objectReference: {fileID: 0}
    - target: {fileID: 1987546800054578672, guid: 7cfbeacdc19e49a459a154bc134b2d06,
        type: 3}
      propertyPath: m_Name
      value: Muro con Ledge Variant 1
      objectReference: {fileID: 0}
    - target: {fileID: 2802168762081073655, guid: 7cfbeacdc19e49a459a154bc134b2d06,
        type: 3}
      propertyPath: m_Enabled
      value: 0
      objectReference: {fileID: 0}
    - target: {fileID: 2802168762081073656, guid: 7cfbeacdc19e49a459a154bc134b2d06,
        type: 3}
      propertyPath: m_Mesh
      value: 
      objectReference: {fileID: 0}
    - target: {fileID: 2802168762081073656, guid: 7cfbeacdc19e49a459a154bc134b2d06,
        type: 3}
      propertyPath: m_InstanceId
      value: -22012
      objectReference: {fileID: 0}
    m_RemovedComponents: []
  m_SourcePrefab: {fileID: 100100000, guid: 7cfbeacdc19e49a459a154bc134b2d06, type: 3}
--- !u!4 &7734419177348568413 stripped
Transform:
  m_CorrespondingSourceObject: {fileID: 2802168762081073654, guid: 7cfbeacdc19e49a459a154bc134b2d06,
    type: 3}
  m_PrefabInstance: {fileID: 5599488260605562027}
  m_PrefabAsset: {fileID: 0}
--- !u!1001 &7090214973941752129
PrefabInstance:
  m_ObjectHideFlags: 0
  serializedVersion: 2
  m_Modification:
    m_TransformParent: {fileID: 7734419177348568413}
    m_Modifications:
    - target: {fileID: -7805698866809330112, guid: d09b69fe5796f6e4c98c397e36f5abc8,
        type: 3}
      propertyPath: m_Name
      value: Generic
      objectReference: {fileID: 0}
    - target: {fileID: 2644510923498745409, guid: d09b69fe5796f6e4c98c397e36f5abc8,
        type: 3}
      propertyPath: m_SortingOrder
      value: 1
      objectReference: {fileID: 0}
    - target: {fileID: 2644510923498745409, guid: d09b69fe5796f6e4c98c397e36f5abc8,
        type: 3}
      propertyPath: m_Materials.Array.data[0]
      value: 
      objectReference: {fileID: 2100000, guid: 73ddb2958e9cd451c82f37c26efa5eb0, type: 2}
    - target: {fileID: 2644510923498745409, guid: d09b69fe5796f6e4c98c397e36f5abc8,
        type: 3}
      propertyPath: m_Color.r
      value: 0.046724826
      objectReference: {fileID: 0}
    - target: {fileID: 2644510923498745409, guid: d09b69fe5796f6e4c98c397e36f5abc8,
        type: 3}
      propertyPath: m_Color.g
      value: 0.052332405
      objectReference: {fileID: 0}
    - target: {fileID: 2644510923498745409, guid: d09b69fe5796f6e4c98c397e36f5abc8,
        type: 3}
      propertyPath: m_Color.b
      value: 0.05660379
      objectReference: {fileID: 0}
    - target: {fileID: 2922055063218493920, guid: d09b69fe5796f6e4c98c397e36f5abc8,
        type: 3}
      propertyPath: m_LocalPosition.x
      value: 0
      objectReference: {fileID: 0}
    - target: {fileID: 2922055063218493920, guid: d09b69fe5796f6e4c98c397e36f5abc8,
        type: 3}
      propertyPath: m_LocalPosition.y
      value: 0
      objectReference: {fileID: 0}
    - target: {fileID: 2922055063218493920, guid: d09b69fe5796f6e4c98c397e36f5abc8,
        type: 3}
      propertyPath: m_LocalPosition.z
      value: 0
      objectReference: {fileID: 0}
    - target: {fileID: 2922055063218493920, guid: d09b69fe5796f6e4c98c397e36f5abc8,
        type: 3}
      propertyPath: m_LocalRotation.x
      value: 0
      objectReference: {fileID: 0}
    - target: {fileID: 2922055063218493920, guid: d09b69fe5796f6e4c98c397e36f5abc8,
        type: 3}
      propertyPath: m_LocalRotation.y
      value: 0
      objectReference: {fileID: 0}
    - target: {fileID: 2922055063218493920, guid: d09b69fe5796f6e4c98c397e36f5abc8,
        type: 3}
      propertyPath: m_LocalRotation.z
      value: 0
      objectReference: {fileID: 0}
    - target: {fileID: 2922055063218493920, guid: d09b69fe5796f6e4c98c397e36f5abc8,
        type: 3}
      propertyPath: m_LocalRotation.w
      value: 1
      objectReference: {fileID: 0}
    - target: {fileID: 2922055063218493920, guid: d09b69fe5796f6e4c98c397e36f5abc8,
        type: 3}
      propertyPath: m_RootOrder
      value: 0
      objectReference: {fileID: 0}
    - target: {fileID: 2922055063218493920, guid: d09b69fe5796f6e4c98c397e36f5abc8,
        type: 3}
      propertyPath: m_LocalEulerAnglesHint.x
      value: 0
      objectReference: {fileID: 0}
    - target: {fileID: 2922055063218493920, guid: d09b69fe5796f6e4c98c397e36f5abc8,
        type: 3}
      propertyPath: m_LocalEulerAnglesHint.y
      value: 0
      objectReference: {fileID: 0}
    - target: {fileID: 2922055063218493920, guid: d09b69fe5796f6e4c98c397e36f5abc8,
        type: 3}
      propertyPath: m_LocalEulerAnglesHint.z
      value: 0
      objectReference: {fileID: 0}
    - target: {fileID: 2922055063218493920, guid: d09b69fe5796f6e4c98c397e36f5abc8,
        type: 3}
      propertyPath: m_LocalScale.x
      value: 1.33
      objectReference: {fileID: 0}
    - target: {fileID: 2922055063218493920, guid: d09b69fe5796f6e4c98c397e36f5abc8,
        type: 3}
      propertyPath: m_LocalScale.y
      value: 1.33
      objectReference: {fileID: 0}
    m_RemovedComponents: []
  m_SourcePrefab: {fileID: 7243324766535440047, guid: d09b69fe5796f6e4c98c397e36f5abc8,
    type: 3}
