%YAML 1.1
%TAG !u! tag:unity3d.com,2011:
--- !u!114 &11400000
MonoBehaviour:
  m_ObjectHideFlags: 0
  m_CorrespondingSourceObject: {fileID: 0}
  m_PrefabInstance: {fileID: 0}
  m_PrefabAsset: {fileID: 0}
  m_GameObject: {fileID: 0}
  m_Enabled: 1
  m_EditorHideFlags: 0
  m_Script: {fileID: 11500000, guid: a779ad241a5ecb24488e413497e03f50, type: 3}
  m_Name: Small shard of Shit
  m_EditorClassIdentifier: 
  itemName: small shard of shit
  itemCode: 0
  itemType: 5
  maxQuantity: 99
  description: 
  sprite: {fileID: 0}
  subCategoryIndex: 0
