<?xml version="1.0" encoding="UTF-8" standalone="no"?>
<!-- Created with Inkscape (http://www.inkscape.org/) -->

<svg
   xmlns:dc="http://purl.org/dc/elements/1.1/"
   xmlns:cc="http://creativecommons.org/ns#"
   xmlns:rdf="http://www.w3.org/1999/02/22-rdf-syntax-ns#"
   xmlns:svg="http://www.w3.org/2000/svg"
   xmlns="http://www.w3.org/2000/svg"
   xmlns:sodipodi="http://sodipodi.sourceforge.net/DTD/sodipodi-0.dtd"
   xmlns:inkscape="http://www.inkscape.org/namespaces/inkscape"
   width="123.3178mm"
   height="73.545082mm"
   viewBox="0 0 123.3178 73.545082"
   version="1.1"
   id="svg8"
   inkscape:version="0.92.4 (5da689c313, 2019-01-14)"
   sodipodi:docname="Cemento armato distrutto.svg">
  <defs
     id="defs2" />
  <sodipodi:namedview
     id="base"
     pagecolor="#ffffff"
     bordercolor="#666666"
     borderopacity="1.0"
     inkscape:pageopacity="0.0"
     inkscape:pageshadow="2"
     inkscape:zoom="0.49497474"
     inkscape:cx="-190.11349"
     inkscape:cy="-74.352127"
     inkscape:document-units="mm"
     inkscape:current-layer="layer1"
     showgrid="false"
     inkscape:object-nodes="false"
     inkscape:window-width="1366"
     inkscape:window-height="705"
     inkscape:window-x="-8"
     inkscape:window-y="-8"
     inkscape:window-maximized="1"
     fit-margin-top="0"
     fit-margin-left="0"
     fit-margin-right="0"
     fit-margin-bottom="0" />
  <metadata
     id="metadata5">
    <rdf:RDF>
      <cc:Work
         rdf:about="">
        <dc:format>image/svg+xml</dc:format>
        <dc:type
           rdf:resource="http://purl.org/dc/dcmitype/StillImage" />
        <dc:title></dc:title>
      </cc:Work>
    </rdf:RDF>
  </metadata>
  <g
     inkscape:label="Layer 1"
     inkscape:groupmode="layer"
     id="layer1"
     transform="translate(105.89858,-29.504284)">
    <path
       style="fill:#e6e6e6;stroke:#e6e6e6;stroke-width:0.26458332px;stroke-linecap:butt;stroke-linejoin:miter;stroke-opacity:1"
       d="m -63.075598,87.327054 -0.13364,-3.60814 1.60362,-1.20271 0.93544,1.20271 1.20271,-2.80633 2.6727,-1.46998 -0.93544,-2.2718 3.8754,-0.66817 -0.66817,-1.20271 1.87089,-2.53906 2.67269,0.93544 3.4745,-1.06908 -1.87088,-1.73725 -0.13364,-1.73725 -5.47902,1.20271 v -0.13363 l 5.34539,-1.46998 0.4009,-2.00453 -3.4745,-1.06907 v -0.53454 l 2.93997,1.06908 v -2.53907 l -5.3454,0.40091 v -0.26727 l 5.07813,-0.53454 -0.26728,-1.60362 0.93545,-2.80633 -0.4009,-2.27179 -3.60814,0.66818 -1.46999,-0.80181 h 0.13364 l 1.46998,0.4009 3.47451,-0.53454 -0.13364,-0.53454 h -4.40995 v -0.4009 l 4.40995,0.13364 1.73725,-3.74178 -0.13363,-3.4745 3.87541,-1.60362 1.87088,1.60362 0.13364,1.73725 2.53906,-0.53454 1.06907,2.00452 0.66818,-0.13363 -0.53454,4.00904 1.06908,1.20271 -1.87089,2.27179 0.26727,0.80181 1.73725,0.80181 v 1.73725 l 4.40995,-1.73725 0.13364,0.40091 -4.67722,1.87088 0.26727,1.87089 -2.40543,1.46998 4.00905,3.0736 -0.13364,0.26727 -4.27631,-3.20723 -0.13364,2.00452 2.40543,2.13815 0.93544,4.40995 3.20724,1.33635 2.00452,5.74629 5.21175,4.94449 -7.61718,2.00452 -6.41447,-3.20723 -5.21175,0.66817 -3.34087,2.53906 -7.08264,0.53454 -5.87993,-1.87089 z"
       id="path906"
       inkscape:connector-curvature="0" />
  </g>
</svg>
