<?xml version="1.0" encoding="UTF-8" standalone="no"?>
<!-- Created with Inkscape (http://www.inkscape.org/) -->

<svg
   xmlns:dc="http://purl.org/dc/elements/1.1/"
   xmlns:cc="http://creativecommons.org/ns#"
   xmlns:rdf="http://www.w3.org/1999/02/22-rdf-syntax-ns#"
   xmlns:svg="http://www.w3.org/2000/svg"
   xmlns="http://www.w3.org/2000/svg"
   xmlns:sodipodi="http://sodipodi.sourceforge.net/DTD/sodipodi-0.dtd"
   xmlns:inkscape="http://www.inkscape.org/namespaces/inkscape"
   width="123.3178mm"
   height="73.545082mm"
   viewBox="0 0 123.3178 73.545082"
   version="1.1"
   id="svg8"
   inkscape:version="0.92.4 (5da689c313, 2019-01-14)"
   sodipodi:docname="Palo cavi corrente.svg">
  <defs
     id="defs2" />
  <sodipodi:namedview
     id="base"
     pagecolor="#ffffff"
     bordercolor="#666666"
     borderopacity="1.0"
     inkscape:pageopacity="0.0"
     inkscape:pageshadow="2"
     inkscape:zoom="1.4"
     inkscape:cx="47.272358"
     inkscape:cy="-74.352123"
     inkscape:document-units="mm"
     inkscape:current-layer="layer1"
     showgrid="false"
     inkscape:object-nodes="false"
     inkscape:window-width="1366"
     inkscape:window-height="705"
     inkscape:window-x="-8"
     inkscape:window-y="-8"
     inkscape:window-maximized="1"
     fit-margin-top="0"
     fit-margin-left="0"
     fit-margin-right="0"
     fit-margin-bottom="0" />
  <metadata
     id="metadata5">
    <rdf:RDF>
      <cc:Work
         rdf:about="">
        <dc:format>image/svg+xml</dc:format>
        <dc:type
           rdf:resource="http://purl.org/dc/dcmitype/StillImage" />
        <dc:title />
      </cc:Work>
    </rdf:RDF>
  </metadata>
  <g
     inkscape:label="Layer 1"
     inkscape:groupmode="layer"
     id="layer1"
     transform="translate(105.89858,-29.504284)">
    <path
       style="fill:#e6e6e6;stroke:#e6e6e6;stroke-width:0.26458332px;stroke-linecap:butt;stroke-linejoin:miter;stroke-opacity:1"
       d="m -42.115256,22.122297 -10.58333,96.572913 2.64583,0.18899 9.82738,-96.572913 z"
       id="path1324"
       inkscape:connector-curvature="0" />
    <path
       style="fill:#e6e6e6;stroke:#e6e6e6;stroke-width:0.26458332px;stroke-linecap:butt;stroke-linejoin:miter;stroke-opacity:1"
       d="m -43.230856,30.599099 -4.54358,-0.668174 0.46772,-4.07586 h -0.46772 l -0.60135,4.07586 -2.20498,-0.334087 v 1.26953 l 2.00452,-0.334087 5.34539,0.868627 z"
       id="path1326"
       inkscape:connector-curvature="0" />
    <path
       style="fill:#e6e6e6;stroke:#e6e6e6;stroke-width:0.26458332px;stroke-linecap:butt;stroke-linejoin:miter;stroke-opacity:1"
       d="m -43.498126,33.873151 -6.61491,-0.334087 0.0668,-1.069078 h -0.73499 v 2.004521 l 7.21628,0.200452 z"
       id="path1328"
       inkscape:connector-curvature="0" />
    <path
       style="fill:#e6e6e6;stroke:#e6e6e6;stroke-width:0.26458332px;stroke-linecap:butt;stroke-linejoin:miter;stroke-opacity:1"
       d="m -41.092696,31.267273 h 4.009039 l 0.0668,-3.407687 0.60136,0.26727 0.0668,3.140417 2.93997,0.06682 -0.0668,-1.469982 0.66818,-0.06682 v 1.5368 h 1.00226 l -0.13364,0.801809 -4.54358,0.133635 -0.26727,0.400904 -0.53454,-0.467722 -3.875409,-0.133635 z"
       id="path1330"
       inkscape:connector-curvature="0" />
    <path
       style="fill:#e6e6e6;stroke:#e6e6e6;stroke-width:0.26458332px;stroke-linecap:butt;stroke-linejoin:miter;stroke-opacity:1"
       d="m -41.493596,34.006785 1.67043,0.53454 6.882189,0.133634 0.0668,1.202713 -0.73499,0.133635 -0.0668,-0.534539 -4.944489,-0.200452 v 1.00226 h -0.66817 l -0.13363,-0.801808 -2.00453,-0.467722 z"
       id="path1332"
       inkscape:connector-curvature="0" />
    <path
       style="fill:#e6e6e6;stroke:#e6e6e6;stroke-width:0.26458332px;stroke-linecap:butt;stroke-linejoin:miter;stroke-opacity:1"
       d="m -44.233116,40.554889 -5.34539,-0.534539 -0.0668,0.668173 5.47902,0.400905 z"
       id="path1334"
       inkscape:connector-curvature="0" />
    <path
       style="fill:#e6e6e6;stroke:#e6e6e6;stroke-width:0.26458332px;stroke-linecap:butt;stroke-linejoin:miter;stroke-opacity:1"
       d="m -42.028136,40.621706 4.209489,0.200452 -0.0668,0.668174 -4.075859,-0.334087 z"
       id="path1336"
       inkscape:connector-curvature="0" />
  </g>
</svg>
