<?xml version="1.0" encoding="UTF-8" standalone="no"?>
<!-- Created with Inkscape (http://www.inkscape.org/) -->

<svg
   xmlns:dc="http://purl.org/dc/elements/1.1/"
   xmlns:cc="http://creativecommons.org/ns#"
   xmlns:rdf="http://www.w3.org/1999/02/22-rdf-syntax-ns#"
   xmlns:svg="http://www.w3.org/2000/svg"
   xmlns="http://www.w3.org/2000/svg"
   xmlns:sodipodi="http://sodipodi.sourceforge.net/DTD/sodipodi-0.dtd"
   xmlns:inkscape="http://www.inkscape.org/namespaces/inkscape"
   width="123.3178mm"
   height="73.545082mm"
   viewBox="0 0 123.3178 73.545082"
   version="1.1"
   id="svg8"
   inkscape:version="0.92.4 (5da689c313, 2019-01-14)"
   sodipodi:docname="Ruins 3.svg">
  <defs
     id="defs2" />
  <sodipodi:namedview
     id="base"
     pagecolor="#ffffff"
     bordercolor="#666666"
     borderopacity="1.0"
     inkscape:pageopacity="0.0"
     inkscape:pageshadow="2"
     inkscape:zoom="0.49497474"
     inkscape:cx="-190.11349"
     inkscape:cy="-74.352127"
     inkscape:document-units="mm"
     inkscape:current-layer="layer1"
     showgrid="false"
     inkscape:object-nodes="false"
     inkscape:window-width="1366"
     inkscape:window-height="705"
     inkscape:window-x="-8"
     inkscape:window-y="-8"
     inkscape:window-maximized="1"
     fit-margin-top="0"
     fit-margin-left="0"
     fit-margin-right="0"
     fit-margin-bottom="0" />
  <metadata
     id="metadata5">
    <rdf:RDF>
      <cc:Work
         rdf:about="">
        <dc:format>image/svg+xml</dc:format>
        <dc:type
           rdf:resource="http://purl.org/dc/dcmitype/StillImage" />
        <dc:title></dc:title>
      </cc:Work>
    </rdf:RDF>
  </metadata>
  <g
     inkscape:label="Layer 1"
     inkscape:groupmode="layer"
     id="layer1"
     transform="translate(105.89858,-29.504284)">
    <path
       style="fill:#e6e6e6;stroke:#e6e6e6;stroke-width:0.26458332px;stroke-linecap:butt;stroke-linejoin:miter;stroke-opacity:1"
       d="m -71.093694,85.456163 0.267269,-3.74177 -0.267269,-2.00452 4.009043,-2.93997 0.400905,2.00452 0.267268,-2.00452 2.271792,-1.73725 0.400905,-3.0736 5.211754,-2.27179 5.345391,-0.13364 2.138156,-1.46998 -1.737252,-4.40994 0.133636,-9.88898 2.939965,0.80181 1.469983,5.07812 0.133633,-10.69078 2.138156,-1.06908 0.133636,-3.74177 4.009043,-0.53454 3.340867,0.93544 0.80181,3.34087 1.870887,0.93545 v 1.60362 l 0.534538,0.26726 0.668173,5.34539 1.202714,1.73726 0.400904,2.93996 2.80633,0.26727 0.133636,-1.33635 2.00452,-0.4009 -0.133633,-2.93997 2.80633,-0.53453 0.801809,1.46998 1.069077,-0.13364 0.267269,8.01809 1.336348,-1.06908 2.004521,12.16076 -4.009043,0.93545 -5.479025,0.66817 v 0.66817 l -7.082642,1.46999 0.400905,2.53906 -1.737254,1.33635 -6.013564,1.60361 -2.405425,2.27179 -9.888974,-2.00452 -2.138156,3.34087 -7.750815,-2.13816 -0.267269,-1.46998 z"
       id="path877"
       inkscape:connector-curvature="0" />
  </g>
</svg>
