%YAML 1.1
%TAG !u! tag:unity3d.com,2011:
--- !u!114 &11400000
MonoBehaviour:
  m_ObjectHideFlags: 0
  m_CorrespondingSourceObject: {fileID: 0}
  m_PrefabInstance: {fileID: 0}
  m_PrefabAsset: {fileID: 0}
  m_GameObject: {fileID: 0}
  m_Enabled: 1
  m_EditorHideFlags: 0
  m_Script: {fileID: 11500000, guid: 54e211d994fb23a4f8a46083b446ccaf, type: 3}
  m_Name: FuckYouer
  m_EditorClassIdentifier: 
  itemName: 
  itemCode: 0
  itemType: 0
  maxQuantity: 10
  description: 
  sprite: {fileID: 0}
  subcategory: 1
  subCategoryIndex: 1
