<?xml version="1.0" encoding="UTF-8" standalone="no"?>
<!-- Created with Inkscape (http://www.inkscape.org/) -->

<svg
   xmlns:dc="http://purl.org/dc/elements/1.1/"
   xmlns:cc="http://creativecommons.org/ns#"
   xmlns:rdf="http://www.w3.org/1999/02/22-rdf-syntax-ns#"
   xmlns:svg="http://www.w3.org/2000/svg"
   xmlns="http://www.w3.org/2000/svg"
   xmlns:sodipodi="http://sodipodi.sourceforge.net/DTD/sodipodi-0.dtd"
   xmlns:inkscape="http://www.inkscape.org/namespaces/inkscape"
   width="210mm"
   height="297mm"
   viewBox="0 0 210 297"
   version="1.1"
   id="svg8"
   inkscape:version="0.92.4 (5da689c313, 2019-01-14)"
   sodipodi:docname="Background macerie soft blurred.svg">
  <defs
     id="defs2">
    <filter
       inkscape:collect="always"
       style="color-interpolation-filters:sRGB"
       id="filter896"
       x="-0.096170177"
       width="1.1923404"
       y="-0.24321609"
       height="1.4864322">
      <feGaussianBlur
         inkscape:collect="always"
         stdDeviation="48.536506"
         id="feGaussianBlur898" />
    </filter>
  </defs>
  <sodipodi:namedview
     id="base"
     pagecolor="#ffffff"
     bordercolor="#666666"
     borderopacity="1.0"
     inkscape:pageopacity="0.0"
     inkscape:pageshadow="2"
     inkscape:zoom="0.24748737"
     inkscape:cx="-1506.0914"
     inkscape:cy="913.84055"
     inkscape:document-units="mm"
     inkscape:current-layer="layer1"
     showgrid="false"
     inkscape:object-nodes="false"
     inkscape:window-width="1366"
     inkscape:window-height="705"
     inkscape:window-x="-8"
     inkscape:window-y="-8"
     inkscape:window-maximized="1" />
  <metadata
     id="metadata5">
    <rdf:RDF>
      <cc:Work
         rdf:about="">
        <dc:format>image/svg+xml</dc:format>
        <dc:type
           rdf:resource="http://purl.org/dc/dcmitype/StillImage" />
        <dc:title></dc:title>
      </cc:Work>
    </rdf:RDF>
  </metadata>
  <g
     inkscape:label="Layer 1"
     inkscape:groupmode="layer"
     id="layer1">
    <path
       style="fill:#e6e6e6;stroke:#e6e6e6;stroke-width:0.26458332px;stroke-linecap:butt;stroke-linejoin:miter;stroke-opacity:1;filter:url(#filter896)"
       d="m -421.21677,107.77317 49.1776,4.27631 c 0,0 1.40254,1.15619 26.72694,-12.828932 17.76488,-6.803571 24.01628,-4.08176 24.01628,-4.08176 0,0 13.73493,3.131254 31.49981,6.155062 21.16666,-1.88988 23.14174,-9.805124 31.07924,-11.695005 l 22.45064,1.069079 19.24341,12.828936 22.45064,-3.20723 20.31248,-10.690785 41.69405,-1.069078 36.34865,11.759863 27.796032,3.20723 c 0,0 31.003264,3.20723 52.384826,-1.06908 C 5.3453905,98.15147 26.726951,88.529767 26.726951,88.529767 l 24.588798,-4.276312 c 0,0 16.036171,4.276312 36.348654,7.483547 20.312487,3.207234 67.351927,-2.138157 67.351927,-2.138157 l 16.03617,-12.828936 43.8322,-7.483546 42.76312,14.967092 39.55588,-9.621702 c 0,0 7.48356,6.414468 36.34867,3.207234 28.86512,-3.207234 60.93746,-11.759859 60.93746,-11.759859 l 36.34864,-4.276312 22.45064,4.276312 42.76312,12.828937 95.14795,236.266265 -65.21376,225.57547 H -560.19691 l -59.86838,-250.16428 62.00653,-190.29589 51.31575,8.55262 c 0,0 36.34864,14.9671 59.86835,8.55263 23.51974,-6.41447 25.65789,-9.62171 25.65789,-9.62171 z"
       id="path819"
       inkscape:connector-curvature="0"
       sodipodi:nodetypes="cccccccccccccsccscccccsccccccccccsc" />
  </g>
</svg>
