%YAML 1.1
%TAG !u! tag:unity3d.com,2011:
--- !u!1 &4354542683189692100
GameObject:
  m_ObjectHideFlags: 0
  m_CorrespondingSourceObject: {fileID: 0}
  m_PrefabInstance: {fileID: 0}
  m_PrefabAsset: {fileID: 0}
  serializedVersion: 6
  m_Component:
  - component: {fileID: 4354542683189692099}
  m_Layer: 0
  m_Name: Champion
  m_TagString: Untagged
  m_Icon: {fileID: 0}
  m_NavMeshLayer: 0
  m_StaticEditorFlags: 0
  m_IsActive: 1
--- !u!4 &4354542683189692099
Transform:
  m_ObjectHideFlags: 0
  m_CorrespondingSourceObject: {fileID: 0}
  m_PrefabInstance: {fileID: 0}
  m_PrefabAsset: {fileID: 0}
  m_GameObject: {fileID: 4354542683189692100}
  m_LocalRotation: {x: 0, y: 0, z: 0, w: 1}
  m_LocalPosition: {x: -5.51, y: -1.06, z: 0}
  m_LocalScale: {x: 0.4, y: 0.4, z: 1}
  m_Children:
  - {fileID: 4354542682665900888}
  m_Father: {fileID: 0}
  m_RootOrder: 0
  m_LocalEulerAnglesHint: {x: 0, y: 0, z: 0}
--- !u!1001 &758889267036788349
PrefabInstance:
  m_ObjectHideFlags: 0
  serializedVersion: 2
  m_Modification:
    m_TransformParent: {fileID: 4354542683189692099}
    m_Modifications:
    - target: {fileID: 3955968873609973028, guid: aa529f70fee467141a5f1fd8f6a9da62,
        type: 3}
      propertyPath: m_Name
      value: Skeleton
      objectReference: {fileID: 0}
    - target: {fileID: 3955968873609973029, guid: aa529f70fee467141a5f1fd8f6a9da62,
        type: 3}
      propertyPath: m_LocalPosition.x
      value: 0
      objectReference: {fileID: 0}
    - target: {fileID: 3955968873609973029, guid: aa529f70fee467141a5f1fd8f6a9da62,
        type: 3}
      propertyPath: m_LocalPosition.y
      value: 0
      objectReference: {fileID: 0}
    - target: {fileID: 3955968873609973029, guid: aa529f70fee467141a5f1fd8f6a9da62,
        type: 3}
      propertyPath: m_LocalPosition.z
      value: 0
      objectReference: {fileID: 0}
    - target: {fileID: 3955968873609973029, guid: aa529f70fee467141a5f1fd8f6a9da62,
        type: 3}
      propertyPath: m_LocalRotation.x
      value: 0
      objectReference: {fileID: 0}
    - target: {fileID: 3955968873609973029, guid: aa529f70fee467141a5f1fd8f6a9da62,
        type: 3}
      propertyPath: m_LocalRotation.y
      value: 0
      objectReference: {fileID: 0}
    - target: {fileID: 3955968873609973029, guid: aa529f70fee467141a5f1fd8f6a9da62,
        type: 3}
      propertyPath: m_LocalRotation.z
      value: 0
      objectReference: {fileID: 0}
    - target: {fileID: 3955968873609973029, guid: aa529f70fee467141a5f1fd8f6a9da62,
        type: 3}
      propertyPath: m_LocalRotation.w
      value: 1
      objectReference: {fileID: 0}
    - target: {fileID: 3955968873609973029, guid: aa529f70fee467141a5f1fd8f6a9da62,
        type: 3}
      propertyPath: m_RootOrder
      value: 0
      objectReference: {fileID: 0}
    - target: {fileID: 3955968873609973029, guid: aa529f70fee467141a5f1fd8f6a9da62,
        type: 3}
      propertyPath: m_LocalEulerAnglesHint.x
      value: 0
      objectReference: {fileID: 0}
    - target: {fileID: 3955968873609973029, guid: aa529f70fee467141a5f1fd8f6a9da62,
        type: 3}
      propertyPath: m_LocalEulerAnglesHint.y
      value: 0
      objectReference: {fileID: 0}
    - target: {fileID: 3955968873609973029, guid: aa529f70fee467141a5f1fd8f6a9da62,
        type: 3}
      propertyPath: m_LocalEulerAnglesHint.z
      value: 0
      objectReference: {fileID: 0}
    m_RemovedComponents: []
  m_SourcePrefab: {fileID: 100100000, guid: aa529f70fee467141a5f1fd8f6a9da62, type: 3}
--- !u!4 &4354542682665900888 stripped
Transform:
  m_CorrespondingSourceObject: {fileID: 3955968873609973029, guid: aa529f70fee467141a5f1fd8f6a9da62,
    type: 3}
  m_PrefabInstance: {fileID: 758889267036788349}
  m_PrefabAsset: {fileID: 0}
